Suite/Test/Step Name,Browser,Description,Tag,Start time,End time,Duration,Status
Regression Tests,Chrome 87.0.4280.141,,,2021-01-15 15:14:22,2021-01-15 15:16:32,2m - 10.156s,FAILED
,,,,,,,
Test Cases/Draft Board,Chrome 87.0.4280.141,,,2021-01-15 15:14:23,2021-01-15 15:14:36,13.749s,FAILED
openBrowser(URL),Chrome 87.0.4280.141,,,2021-01-15 15:14:23,2021-01-15 15:14:26,2.724s,PASSED
"setText(findTestObject(""Login Page/Email""), email)",Chrome 87.0.4280.141,,,2021-01-15 15:14:26,2021-01-15 15:14:26,0.219s,PASSED
"setText(findTestObject(""Login Page/password""), password)",Chrome 87.0.4280.141,,,2021-01-15 15:14:26,2021-01-15 15:14:26,0.130s,PASSED
"click(findTestObject(""Login Page/Sign In""))",Chrome 87.0.4280.141,,,2021-01-15 15:14:26,2021-01-15 15:14:28,2.214s,PASSED
"waitForElementVisible(findTestObject(""Top Navigation Menu/Dashboard""), 60)",Chrome 87.0.4280.141,,,2021-01-15 15:14:28,2021-01-15 15:14:29,0.683s,PASSED
"enhancedClick(findTestObject(""Top Navigation Menu/Dashboard""))",Chrome 87.0.4280.141,,,2021-01-15 15:14:29,2021-01-15 15:14:29,0.106s,PASSED
delay(3),Chrome 87.0.4280.141,,,2021-01-15 15:14:29,2021-01-15 15:14:32,3.020s,PASSED
"mouseOver(findTestObject(""Dashboard Page/Draft Board (Dashboard)/blank 1-PG on Draft Board (Dashboard)""))",Chrome 87.0.4280.141,,,2021-01-15 15:14:32,2021-01-15 15:14:32,0.235s,PASSED
"enhancedClick(findTestObject(""Dashboard Page/Draft Board (Dashboard)/blank 1-PG on Draft Board (Dashboard)""))",Chrome 87.0.4280.141,,,2021-01-15 15:14:32,2021-01-15 15:14:32,0.087s,PASSED
"enhancedClick(findTestObject(""Dashboard Page/Draft Board (Dashboard)/Draft Board Dropdown Player1""))",Chrome 87.0.4280.141,,,2021-01-15 15:14:32,2021-01-15 15:14:32,0.179s,PASSED
"mouseOver(findTestObject(""Dashboard Page/Draft Board (Dashboard)/1-PG on Draft Board""))",Chrome 87.0.4280.141,,,2021-01-15 15:14:32,2021-01-15 15:14:33,0.318s,PASSED
"enhancedClick(findTestObject(""Dashboard Page/Draft Board (Dashboard)/1-PG on Draft Board""))",Chrome 87.0.4280.141,,,2021-01-15 15:14:33,2021-01-15 15:14:33,0.100s,PASSED
delay(1),Chrome 87.0.4280.141,,,2021-01-15 15:14:33,2021-01-15 15:14:34,1.003s,PASSED
"enhancedClick(findTestObject(""Recruit Profile (view)/Alerts button""))",Chrome 87.0.4280.141,,,2021-01-15 15:14:34,2021-01-15 15:14:34,0.080s,PASSED
"enhancedClick(findTestObject(""Recruit Profile (view)/CLOSE button""))",Chrome 87.0.4280.141,,,2021-01-15 15:14:34,2021-01-15 15:14:34,0.101s,PASSED
"verifyElementAttributeValue(findTestObject(""Dashboard Page/Draft Board (Dashboard)/1-PG on Draft Board""), ""class"", ""draft-board-player css-1ydqi8h-DraftBoard"", 0)",Chrome 87.0.4280.141,,,2021-01-15 15:14:34,2021-01-15 15:14:34,0.085s,PASSED
"mouseOver(findTestObject(""Dashboard Page/Draft Board (Dashboard)/1-PG on Draft Board""))",Chrome 87.0.4280.141,,,2021-01-15 15:14:34,2021-01-15 15:14:34,0.234s,PASSED
"enhancedClick(findTestObject(""Dashboard Page/Draft Board (Dashboard)/1-PG on Draft Board""))",Chrome 87.0.4280.141,,,2021-01-15 15:14:34,2021-01-15 15:14:34,0.101s,PASSED
"enhancedClick(findTestObject(""Recruit Profile (view)/Alerts button""))",Chrome 87.0.4280.141,,,2021-01-15 15:14:34,2021-01-15 15:14:35,0.102s,PASSED
"enhancedClick(findTestObject(""Recruit Profile (view)/CLOSE button""))",Chrome 87.0.4280.141,,,2021-01-15 15:14:35,2021-01-15 15:14:35,0.094s,PASSED
"verifyElementAttributeValue(findTestObject(""Dashboard Page/Draft Board (Dashboard)/1-PG on Draft Board""), ""class"", ""draft-board-player css-1xcfrz7-DraftBoard"", 0)",Chrome 87.0.4280.141,,,2021-01-15 15:14:35,2021-01-15 15:14:36,1.709s,FAILED
,,,,,,,
Test Cases/Depth Chart,Chrome 87.0.4280.141,,,2021-01-15 15:14:36,2021-01-15 15:15:50,1m - 13.313s,PASSED
openBrowser(URL),Chrome 87.0.4280.141,,,2021-01-15 15:14:36,2021-01-15 15:14:39,2.068s,PASSED
"setText(findTestObject(""Login Page/Email""), email)",Chrome 87.0.4280.141,,,2021-01-15 15:14:39,2021-01-15 15:14:39,0.146s,PASSED
"setText(findTestObject(""Login Page/password""), password)",Chrome 87.0.4280.141,,,2021-01-15 15:14:39,2021-01-15 15:14:39,0.114s,PASSED
"click(findTestObject(""Login Page/Sign In""))",Chrome 87.0.4280.141,,,2021-01-15 15:14:39,2021-01-15 15:14:41,2.453s,PASSED
"waitForElementVisible(findTestObject(""Top Navigation Menu/Dashboard""), 60)",Chrome 87.0.4280.141,,,2021-01-15 15:14:41,2021-01-15 15:14:42,0.569s,PASSED
"enhancedClick(findTestObject(""Top Navigation Menu/Dashboard""))",Chrome 87.0.4280.141,,,2021-01-15 15:14:42,2021-01-15 15:14:42,0.084s,PASSED
delay(3),Chrome 87.0.4280.141,,,2021-01-15 15:14:42,2021-01-15 15:14:45,3.004s,PASSED
"enhancedClick(findTestObject(""Dashboard Page/Depth Chart/Depth Chart season dropdown""))",Chrome 87.0.4280.141,,,2021-01-15 15:14:45,2021-01-15 15:14:45,0.100s,PASSED
"enhancedClick(findTestObject(""Dashboard Page/Depth Chart/Season Dropdown Index3""))",Chrome 87.0.4280.141,,,2021-01-15 15:14:45,2021-01-15 15:14:45,0.097s,PASSED
"enhancedClick(findTestObject(""Dashboard Page/Depth Chart/Depth Chart season dropdown""))",Chrome 87.0.4280.141,,,2021-01-15 15:14:45,2021-01-15 15:14:45,0.069s,PASSED
"enhancedClick(findTestObject(""Dashboard Page/Depth Chart/Season Dropdown Index2""))",Chrome 87.0.4280.141,,,2021-01-15 15:14:45,2021-01-15 15:14:45,0.096s,PASSED
"enhancedClick(findTestObject(""Dashboard Page/Depth Chart/EDIT Depth Chart""))",Chrome 87.0.4280.141,,,2021-01-15 15:14:45,2021-01-15 15:14:45,0.208s,PASSED
"enhancedClick(findTestObject(""Dashboard Page/Depth Chart/Depth Chart Edit (sr, pg, 1)""))",Chrome 87.0.4280.141,,,2021-01-15 15:14:45,2021-01-15 15:15:16,30.797s,PASSED
"enhancedClick(findTestObject(""Dashboard Page/Depth Chart/SAVE Depth Chart""))",Chrome 87.0.4280.141,,,2021-01-15 15:15:16,2021-01-15 15:15:16,0.094s,PASSED
delay(2),Chrome 87.0.4280.141,,,2021-01-15 15:15:16,2021-01-15 15:15:18,2.004s,PASSED
"verifyTextNotPresent(playerHidden, false)",Chrome 87.0.4280.141,,,2021-01-15 15:15:18,2021-01-15 15:15:18,0.144s,PASSED
"enhancedClick(findTestObject(""Dashboard Page/Depth Chart/EDIT Depth Chart""))",Chrome 87.0.4280.141,,,2021-01-15 15:15:18,2021-01-15 15:15:19,0.135s,PASSED
"enhancedClick(findTestObject(""Dashboard Page/Depth Chart/Depth Chart Edit (sr, pg, 1)""))",Chrome 87.0.4280.141,,,2021-01-15 15:15:19,2021-01-15 15:15:49,30.711s,PASSED
"enhancedClick(findTestObject(""Dashboard Page/Depth Chart/SAVE Depth Chart""))",Chrome 87.0.4280.141,,,2021-01-15 15:15:49,2021-01-15 15:15:49,0.078s,PASSED
"verifyTextPresent(playerHidden, false)",Chrome 87.0.4280.141,,,2021-01-15 15:15:49,2021-01-15 15:15:50,0.245s,PASSED
,,,,,,,
Test Cases/Dashboard Calendar,Chrome 87.0.4280.141,,,2021-01-15 15:15:50,2021-01-15 15:16:16,25.835s,PASSED
openBrowser(URL),Chrome 87.0.4280.141,,,2021-01-15 15:15:50,2021-01-15 15:15:51,1.657s,PASSED
"setText(findTestObject(""Login Page/Email""), email)",Chrome 87.0.4280.141,,,2021-01-15 15:15:51,2021-01-15 15:15:52,0.467s,PASSED
"setText(findTestObject(""Login Page/password""), password)",Chrome 87.0.4280.141,,,2021-01-15 15:15:52,2021-01-15 15:15:52,0.116s,PASSED
"click(findTestObject(""Login Page/Sign In""))",Chrome 87.0.4280.141,,,2021-01-15 15:15:52,2021-01-15 15:15:54,2.271s,PASSED
"waitForElementVisible(findTestObject(""Top Navigation Menu/Dashboard""), 60)",Chrome 87.0.4280.141,,,2021-01-15 15:15:54,2021-01-15 15:15:55,0.519s,PASSED
"enhancedClick(findTestObject(""Top Navigation Menu/Recruits""))",Chrome 87.0.4280.141,,,2021-01-15 15:15:55,2021-01-15 15:15:55,0.126s,PASSED
delay(3),Chrome 87.0.4280.141,,,2021-01-15 15:15:55,2021-01-15 15:15:58,3.006s,PASSED
"enhancedClick(findTestObject(""Top Navigation Menu/Dashboard""))",Chrome 87.0.4280.141,,,2021-01-15 15:15:58,2021-01-15 15:15:58,0.177s,PASSED
delay(3),Chrome 87.0.4280.141,,,2021-01-15 15:15:58,2021-01-15 15:16:01,3.007s,PASSED
"enhancedClick(findTestObject(""Dashboard Page/Calendar (Dashboard)/Toggle Left (Calendar Dashboard)""))",Chrome 87.0.4280.141,,,2021-01-15 15:16:01,2021-01-15 15:16:01,0.103s,PASSED
delay(5),Chrome 87.0.4280.141,,,2021-01-15 15:16:01,2021-01-15 15:16:06,5.007s,PASSED
"enhancedClick(findTestObject(""Dashboard Page/Calendar (Dashboard)/Toggle Right (Calendar Dashboard)""))",Chrome 87.0.4280.141,,,2021-01-15 15:16:06,2021-01-15 15:16:06,0.094s,PASSED
delay(5),Chrome 87.0.4280.141,,,2021-01-15 15:16:06,2021-01-15 15:16:11,5.005s,PASSED
"enhancedClick(findTestObject(""Dashboard Page/Calendar (Dashboard)/Dashboard Calendar SHOW dropdown""))",Chrome 87.0.4280.141,,,2021-01-15 15:16:11,2021-01-15 15:16:11,0.096s,PASSED
"enhancedClick(findTestObject(""Dashboard Page/Calendar (Dashboard)/My Calendar option""))",Chrome 87.0.4280.141,,,2021-01-15 15:16:11,2021-01-15 15:16:12,0.083s,PASSED
"enhancedClick(findTestObject(""Dashboard Page/Calendar (Dashboard)/My Calendar option""))",Chrome 87.0.4280.141,,,2021-01-15 15:16:12,2021-01-15 15:16:12,0.063s,PASSED
"enhancedClick(findTestObject(""Dashboard Page/Calendar (Dashboard)/Team calendar option""))",Chrome 87.0.4280.141,,,2021-01-15 15:16:12,2021-01-15 15:16:12,0.071s,PASSED
"enhancedClick(findTestObject(""Dashboard Page/Calendar (Dashboard)/Team calendar option""))",Chrome 87.0.4280.141,,,2021-01-15 15:16:12,2021-01-15 15:16:12,0.053s,PASSED
"enhancedClick(findTestObject(""Dashboard Page/Calendar (Dashboard)/Tasks calendar option""))",Chrome 87.0.4280.141,,,2021-01-15 15:16:12,2021-01-15 15:16:12,0.067s,PASSED
"enhancedClick(findTestObject(""Dashboard Page/Calendar (Dashboard)/Tasks calendar option""))",Chrome 87.0.4280.141,,,2021-01-15 15:16:12,2021-01-15 15:16:12,0.050s,PASSED
"enhancedClick(findTestObject(""Dashboard Page/Calendar (Dashboard)/NCAA Calendar option""))",Chrome 87.0.4280.141,,,2021-01-15 15:16:12,2021-01-15 15:16:12,0.065s,PASSED
"enhancedClick(findTestObject(""Dashboard Page/Calendar (Dashboard)/NCAA Calendar option""))",Chrome 87.0.4280.141,,,2021-01-15 15:16:12,2021-01-15 15:16:12,0.054s,PASSED
"enhancedClick(findTestObject(""Dashboard Page/Calendar (Dashboard)/My Live Period calendar option""))",Chrome 87.0.4280.141,,,2021-01-15 15:16:12,2021-01-15 15:16:12,0.065s,PASSED
"enhancedClick(findTestObject(""Dashboard Page/Calendar (Dashboard)/My Live Period calendar option""))",Chrome 87.0.4280.141,,,2021-01-15 15:16:12,2021-01-15 15:16:12,0.052s,PASSED
"enhancedClick(findTestObject(""Dashboard Page/Calendar (Dashboard)/Dashboard Calendar SHOW dropdown""))",Chrome 87.0.4280.141,,,2021-01-15 15:16:12,2021-01-15 15:16:12,0.055s,PASSED
"enhancedClick(findTestObject(""Dashboard Page/Calendar (Dashboard)/Dashboard Calendar Add New""))",Chrome 87.0.4280.141,,,2021-01-15 15:16:12,2021-01-15 15:16:12,0.139s,PASSED
"enhancedClick(findTestObject(""Dashboard Page/Calendar (Dashboard)/Add Event modal/Event Name field""))",Chrome 87.0.4280.141,,,2021-01-15 15:16:12,2021-01-15 15:16:12,0.084s,PASSED
"sendKeys(findTestObject(""Dashboard Page/Calendar (Dashboard)/Add Event modal/Event Name field""), ""Test Event1"")",Chrome 87.0.4280.141,,,2021-01-15 15:16:12,2021-01-15 15:16:12,0.076s,PASSED
"enhancedClick(findTestObject(""Dashboard Page/Calendar (Dashboard)/Add Event modal/Event Location field""))",Chrome 87.0.4280.141,,,2021-01-15 15:16:12,2021-01-15 15:16:13,0.088s,PASSED
"sendKeys(findTestObject(""Dashboard Page/Calendar (Dashboard)/Add Event modal/Event Location field""), ""444 N. Michigan Ave"")",Chrome 87.0.4280.141,,,2021-01-15 15:16:13,2021-01-15 15:16:13,0.087s,PASSED
"enhancedClick(findTestObject(""Dashboard Page/Calendar (Dashboard)/Add Event modal/Select searched location""), STOP_ON_FAILURE)",Chrome 87.0.4280.141,,,2021-01-15 15:16:13,2021-01-15 15:16:13,0.077s,PASSED
"enhancedClick(findTestObject(""Dashboard Page/Calendar (Dashboard)/Add Event modal/Select Recruits dropdown""))",Chrome 87.0.4280.141,,,2021-01-15 15:16:13,2021-01-15 15:16:13,0.078s,PASSED
"enhancedClick(findTestObject(""Dashboard Page/Calendar (Dashboard)/Add Event modal/Recruit1 in dropdown (Add Event modal)""))",Chrome 87.0.4280.141,,,2021-01-15 15:16:13,2021-01-15 15:16:13,0.086s,PASSED
"enhancedClick(findTestObject(""Dashboard Page/Calendar (Dashboard)/Add Event modal/Add Event Attendees""))",Chrome 87.0.4280.141,,,2021-01-15 15:16:13,2021-01-15 15:16:13,0.074s,PASSED
"enhancedClick(findTestObject(""Dashboard Page/Calendar (Dashboard)/Add Event modal/Recruiters checkbox""))",Chrome 87.0.4280.141,,,2021-01-15 15:16:13,2021-01-15 15:16:13,0.092s,PASSED
"enhancedClick(findTestObject(""Dashboard Page/Calendar (Dashboard)/Add Event modal/Game Note field""))",Chrome 87.0.4280.141,,,2021-01-15 15:16:13,2021-01-15 15:16:13,0.079s,PASSED
"sendKeys(findTestObject(""Dashboard Page/Calendar (Dashboard)/Add Event modal/Game Note field""), ""arrive early"")",Chrome 87.0.4280.141,,,2021-01-15 15:16:13,2021-01-15 15:16:13,0.145s,PASSED
"enhancedClick(findTestObject(""Dashboard Page/Calendar (Dashboard)/Add Event modal/Add Event Save button""))",Chrome 87.0.4280.141,,,2021-01-15 15:16:13,2021-01-15 15:16:13,0.071s,PASSED
delay(2),Chrome 87.0.4280.141,,,2021-01-15 15:16:13,2021-01-15 15:16:15,2.005s,PASSED
"verifyTextPresent(""Test Event1"", false)",Chrome 87.0.4280.141,,,2021-01-15 15:16:15,2021-01-15 15:16:16,0.193s,PASSED
,,,,,,,
Test Cases/Add_Archive_Delete New Recruit,Chrome 87.0.4280.141,,,2021-01-15 15:16:16,2021-01-15 15:16:32,16.844s,PASSED
openBrowser(URL),Chrome 87.0.4280.141,,,2021-01-15 15:16:16,2021-01-15 15:16:17,1.812s,PASSED
"setText(findTestObject(""Login Page/Email""), email)",Chrome 87.0.4280.141,,,2021-01-15 15:16:17,2021-01-15 15:16:18,0.147s,PASSED
"setText(findTestObject(""Login Page/password""), password)",Chrome 87.0.4280.141,,,2021-01-15 15:16:18,2021-01-15 15:16:18,0.108s,PASSED
"click(findTestObject(""Login Page/Sign In""))",Chrome 87.0.4280.141,,,2021-01-15 15:16:18,2021-01-15 15:16:20,2.138s,PASSED
"waitForElementVisible(findTestObject(""Top Navigation Menu/Dashboard""), 60)",Chrome 87.0.4280.141,,,2021-01-15 15:16:20,2021-01-15 15:16:20,0.515s,PASSED
"click(findTestObject(""Top Navigation Menu/Recruits""))",Chrome 87.0.4280.141,,,2021-01-15 15:16:20,2021-01-15 15:16:20,0.119s,PASSED
"click(findTestObject(""Recruits Page/ADD RECRUIT button""))",Chrome 87.0.4280.141,,,2021-01-15 15:16:20,2021-01-15 15:16:21,0.120s,PASSED
"setText(findTestObject(""Recruits Page/Add New Recruit modal/First Name field""), ""Josh"")",Chrome 87.0.4280.141,,,2021-01-15 15:16:21,2021-01-15 15:16:22,1.104s,PASSED
"setText(findTestObject(""Recruits Page/Add New Recruit modal/Last Name field""), ""Allen"")",Chrome 87.0.4280.141,,,2021-01-15 15:16:22,2021-01-15 15:16:22,0.161s,PASSED
"setText(findTestObject(""Recruits Page/Add New Recruit modal/Class field""), ""2023"")",Chrome 87.0.4280.141,,,2021-01-15 15:16:22,2021-01-15 15:16:22,0.128s,PASSED
"click(findTestObject(""Recruits Page/Add New Recruit modal/Height field input""))",Chrome 87.0.4280.141,,,2021-01-15 15:16:22,2021-01-15 15:16:22,0.082s,PASSED
"setText(findTestObject(""Recruits Page/Add New Recruit modal/Height field input""), ""69"")",Chrome 87.0.4280.141,,,2021-01-15 15:16:22,2021-01-15 15:16:22,0.095s,PASSED
"setText(findTestObject(""Recruits Page/Add New Recruit modal/Birthdate field input""), ""1/1/2005"")",Chrome 87.0.4280.141,,,2021-01-15 15:16:22,2021-01-15 15:16:22,0.227s,PASSED
"enhancedClick(findTestObject(""Recruits Page/Add New Recruit modal/Birthdate field Label""))",Chrome 87.0.4280.141,,,2021-01-15 15:16:22,2021-01-15 15:16:22,0.117s,PASSED
"setText(findTestObject(""Recruits Page/Add New Recruit modal/High School field input""), ""highland park"")",Chrome 87.0.4280.141,,,2021-01-15 15:16:22,2021-01-15 15:16:23,0.178s,PASSED
"sendKeys(findTestObject(""Recruits Page/Add New Recruit modal/High School field input""), Keys.chord(DOWN))",Chrome 87.0.4280.141,,,2021-01-15 15:16:23,2021-01-15 15:16:23,0.054s,PASSED
"sendKeys(findTestObject(""Recruits Page/Add New Recruit modal/High School field input""), Keys.chord(ENTER))",Chrome 87.0.4280.141,,,2021-01-15 15:16:23,2021-01-15 15:16:23,0.049s,PASSED
"setText(findTestObject(""Recruits Page/Add New Recruit modal/High School Coach Name field""), ""Coach Miller"")",Chrome 87.0.4280.141,,,2021-01-15 15:16:23,2021-01-15 15:16:23,0.155s,PASSED
"setText(findTestObject(""Recruits Page/Add New Recruit modal/High School Coach Phone field""), ""8474713163"")",Chrome 87.0.4280.141,,,2021-01-15 15:16:23,2021-01-15 15:16:23,0.148s,PASSED
"setText(findTestObject(""Recruits Page/Add New Recruit modal/Club Team field""), ""Mac Irvin Fire"")",Chrome 87.0.4280.141,,,2021-01-15 15:16:23,2021-01-15 15:16:23,0.157s,PASSED
"setText(findTestObject(""Recruits Page/Add New Recruit modal/Club Team Number field""), ""10"")",Chrome 87.0.4280.141,,,2021-01-15 15:16:23,2021-01-15 15:16:23,0.112s,PASSED
"click(findTestObject(""Recruits Page/Add New Recruit modal/SAVE button""))",Chrome 87.0.4280.141,,,2021-01-15 15:16:23,2021-01-15 15:16:23,0.135s,PASSED
"setText(findTestObject(""Recruits Page/Recruit Search Field on Recruits page""), ""josh allen"")",Chrome 87.0.4280.141,,,2021-01-15 15:16:23,2021-01-15 15:16:24,0.194s,PASSED
delay(1),Chrome 87.0.4280.141,,,2021-01-15 15:16:24,2021-01-15 15:16:25,1.006s,PASSED
"click(findTestObject(""Recruits Page/Archive recruit""))",Chrome 87.0.4280.141,,,2021-01-15 15:16:25,2021-01-15 15:16:25,0.082s,PASSED
delay(1),Chrome 87.0.4280.141,,,2021-01-15 15:16:25,2021-01-15 15:16:26,1.006s,PASSED
"click(findTestObject(""Recruits Page/All Recruits List selection""))",Chrome 87.0.4280.141,,,2021-01-15 15:16:26,2021-01-15 15:16:26,0.074s,PASSED
delay(1),Chrome 87.0.4280.141,,,2021-01-15 15:16:26,2021-01-15 15:16:27,1.002s,PASSED
"click(findTestObject(""Recruits Page/Archived List selection""))",Chrome 87.0.4280.141,,,2021-01-15 15:16:27,2021-01-15 15:16:27,0.105s,PASSED
delay(1),Chrome 87.0.4280.141,,,2021-01-15 15:16:27,2021-01-15 15:16:28,1.005s,PASSED
"click(findTestObject(""Recruits Page/Archived list ellipsis button""))",Chrome 87.0.4280.141,,,2021-01-15 15:16:28,2021-01-15 15:16:28,0.084s,PASSED
delay(1),Chrome 87.0.4280.141,,,2021-01-15 15:16:28,2021-01-15 15:16:29,1.004s,PASSED
"click(findTestObject(""Recruits Page/Delete1""))",Chrome 87.0.4280.141,,,2021-01-15 15:16:29,2021-01-15 15:16:29,0.105s,PASSED
delay(1),Chrome 87.0.4280.141,,,2021-01-15 15:16:29,2021-01-15 15:16:30,1.003s,PASSED
"enhancedClick(findTestObject(""Recruits Page/Delete2""))",Chrome 87.0.4280.141,,,2021-01-15 15:16:30,2021-01-15 15:16:30,0.110s,PASSED
delay(2),Chrome 87.0.4280.141,,,2021-01-15 15:16:30,2021-01-15 15:16:32,2.007s,PASSED
closeBrowser(),Chrome 87.0.4280.141,,,2021-01-15 15:16:32,2021-01-15 15:16:32,0.088s,PASSED
