Suite/Test/Step Name,Browser,Description,Tag,Start time,End time,Duration,Status
Regression Tests,Chrome 87.0.4280.141,,,2021-01-15 09:38:28,2021-01-15 09:40:26,1m - 57.855s,PASSED
,,,,,,,
Test Cases/Draft Board,Chrome 87.0.4280.141,,,2021-01-15 09:38:29,2021-01-15 09:38:46,17.685s,PASSED
openBrowser(URL),Chrome 87.0.4280.141,,,2021-01-15 09:38:29,2021-01-15 09:38:32,3.297s,PASSED
"setText(findTestObject(""Login Page/Email""), email)",Chrome 87.0.4280.141,,,2021-01-15 09:38:32,2021-01-15 09:38:32,0.208s,PASSED
"setText(findTestObject(""Login Page/password""), password)",Chrome 87.0.4280.141,,,2021-01-15 09:38:32,2021-01-15 09:38:32,0.118s,PASSED
"click(findTestObject(""Login Page/Sign In""))",Chrome 87.0.4280.141,,,2021-01-15 09:38:32,2021-01-15 09:38:35,2.357s,PASSED
"waitForElementVisible(findTestObject(""Top Navigation Menu/Dashboard""), 60)",Chrome 87.0.4280.141,,,2021-01-15 09:38:35,2021-01-15 09:38:35,0.551s,PASSED
"enhancedClick(findTestObject(""Top Navigation Menu/Dashboard""))",Chrome 87.0.4280.141,,,2021-01-15 09:38:35,2021-01-15 09:38:35,0.081s,PASSED
delay(3),Chrome 87.0.4280.141,,,2021-01-15 09:38:35,2021-01-15 09:38:38,3.017s,PASSED
"mouseOver(findTestObject(""Dashboard Page/Draft Board (Dashboard)/blank 1-PG on Draft Board (Dashboard)""))",Chrome 87.0.4280.141,,,2021-01-15 09:38:38,2021-01-15 09:38:39,0.225s,PASSED
"enhancedClick(findTestObject(""Dashboard Page/Draft Board (Dashboard)/blank 1-PG on Draft Board (Dashboard)""))",Chrome 87.0.4280.141,,,2021-01-15 09:38:39,2021-01-15 09:38:39,0.085s,PASSED
"enhancedClick(findTestObject(""Dashboard Page/Draft Board (Dashboard)/Draft Board Dropdown Player1""))",Chrome 87.0.4280.141,,,2021-01-15 09:38:39,2021-01-15 09:38:39,0.152s,PASSED
"mouseOver(findTestObject(""Dashboard Page/Draft Board (Dashboard)/1-PG on Draft Board""))",Chrome 87.0.4280.141,,,2021-01-15 09:38:39,2021-01-15 09:38:39,0.283s,PASSED
"enhancedClick(findTestObject(""Dashboard Page/Draft Board (Dashboard)/1-PG on Draft Board""))",Chrome 87.0.4280.141,,,2021-01-15 09:38:39,2021-01-15 09:38:39,0.113s,PASSED
delay(1),Chrome 87.0.4280.141,,,2021-01-15 09:38:39,2021-01-15 09:38:40,1.008s,PASSED
"enhancedClick(findTestObject(""Recruit Profile/Alerts button""))",Chrome 87.0.4280.141,,,2021-01-15 09:38:40,2021-01-15 09:38:40,0.089s,PASSED
"enhancedClick(findTestObject(""Recruit Profile/CLOSE button""))",Chrome 87.0.4280.141,,,2021-01-15 09:38:40,2021-01-15 09:38:40,0.104s,PASSED
"verifyElementAttributeValue(findTestObject(""Dashboard Page/Draft Board (Dashboard)/1-PG on Draft Board""), ""class"", ""draft-board-player css-1ydqi8h-DraftBoard"", 0)",Chrome 87.0.4280.141,,,2021-01-15 09:38:40,2021-01-15 09:38:41,0.081s,PASSED
"mouseOver(findTestObject(""Dashboard Page/Draft Board (Dashboard)/1-PG on Draft Board""))",Chrome 87.0.4280.141,,,2021-01-15 09:38:41,2021-01-15 09:38:41,0.190s,PASSED
"enhancedClick(findTestObject(""Dashboard Page/Draft Board (Dashboard)/1-PG on Draft Board""))",Chrome 87.0.4280.141,,,2021-01-15 09:38:41,2021-01-15 09:38:41,0.116s,PASSED
"enhancedClick(findTestObject(""Recruit Profile/Alerts button""))",Chrome 87.0.4280.141,,,2021-01-15 09:38:41,2021-01-15 09:38:41,0.108s,PASSED
"enhancedClick(findTestObject(""Recruit Profile/CLOSE button""))",Chrome 87.0.4280.141,,,2021-01-15 09:38:41,2021-01-15 09:38:41,0.095s,PASSED
"verifyElementAttributeValue(findTestObject(""Dashboard Page/Draft Board (Dashboard)/1-PG on Draft Board""), ""class"", ""draft-board-player css-1xcfrz7-DraftBoard"", 0)",Chrome 87.0.4280.141,,,2021-01-15 09:38:41,2021-01-15 09:38:41,0.077s,PASSED
"mouseOver(findTestObject(""Dashboard Page/Draft Board (Dashboard)/1-PG on Draft Board""))",Chrome 87.0.4280.141,,,2021-01-15 09:38:41,2021-01-15 09:38:41,0.180s,PASSED
"enhancedClick(findTestObject(""Dashboard Page/Draft Board (Dashboard)/Delete 1-PG on Draft Board""))",Chrome 87.0.4280.141,,,2021-01-15 09:38:41,2021-01-15 09:38:41,0.090s,PASSED
"enhancedClick(findTestObject(""Dashboard Page/Draft Board (Dashboard)/Draft Board Season Dropdown""))",Chrome 87.0.4280.141,,,2021-01-15 09:38:41,2021-01-15 09:38:41,0.093s,PASSED
"enhancedClick(findTestObject(""Dashboard Page/Draft Board (Dashboard)/Draft Board Season Dropdown - 2023""))",Chrome 87.0.4280.141,,,2021-01-15 09:38:41,2021-01-15 09:38:42,0.089s,PASSED
"mouseOver(findTestObject(""Dashboard Page/Draft Board (Dashboard)/blank 1-PG on Draft Board (Dashboard)""))",Chrome 87.0.4280.141,,,2021-01-15 09:38:42,2021-01-15 09:38:42,0.172s,PASSED
"enhancedClick(findTestObject(""Dashboard Page/Draft Board (Dashboard)/blank 1-PG on Draft Board (Dashboard)""))",Chrome 87.0.4280.141,,,2021-01-15 09:38:42,2021-01-15 09:38:42,0.067s,PASSED
"enhancedClick(findTestObject(""Dashboard Page/Draft Board (Dashboard)/Draft Board Dropdown Player1""))",Chrome 87.0.4280.141,,,2021-01-15 09:38:42,2021-01-15 09:38:42,0.143s,PASSED
delay(1),Chrome 87.0.4280.141,,,2021-01-15 09:38:42,2021-01-15 09:38:43,1.006s,PASSED
"mouseOver(findTestObject(""Dashboard Page/Draft Board (Dashboard)/blank 2-PG on Draft Board (Dashboard)""))",Chrome 87.0.4280.141,,,2021-01-15 09:38:43,2021-01-15 09:38:43,0.166s,PASSED
"enhancedClick(findTestObject(""Dashboard Page/Draft Board (Dashboard)/blank 2-PG on Draft Board (Dashboard)""))",Chrome 87.0.4280.141,,,2021-01-15 09:38:43,2021-01-15 09:38:43,0.069s,PASSED
"enhancedClick(findTestObject(""Dashboard Page/Draft Board (Dashboard)/Recruit Search field""))",Chrome 87.0.4280.141,,,2021-01-15 09:38:43,2021-01-15 09:38:43,0.071s,PASSED
"sendKeys(findTestObject(""Dashboard Page/Draft Board (Dashboard)/Recruit Search field""), ""Mikey Williams"")",Chrome 87.0.4280.141,,,2021-01-15 09:38:43,2021-01-15 09:38:43,0.077s,PASSED
delay(2),Chrome 87.0.4280.141,,,2021-01-15 09:38:43,2021-01-15 09:38:45,2.006s,PASSED
"enhancedClick(findTestObject(""Dashboard Page/Draft Board (Dashboard)/Draft Board Dropdown Player2""))",Chrome 87.0.4280.141,,,2021-01-15 09:38:45,2021-01-15 09:38:45,0.086s,PASSED
"mouseOver(findTestObject(""Dashboard Page/Draft Board (Dashboard)/2-PG on Draft Board""))",Chrome 87.0.4280.141,,,2021-01-15 09:38:45,2021-01-15 09:38:46,0.218s,PASSED
"enhancedClick(findTestObject(""Dashboard Page/Draft Board (Dashboard)/Delete 2-PG on Draft Board""))",Chrome 87.0.4280.141,,,2021-01-15 09:38:46,2021-01-15 09:38:46,0.096s,PASSED
"mouseOver(findTestObject(""Dashboard Page/Draft Board (Dashboard)/1-PG on Draft Board""))",Chrome 87.0.4280.141,,,2021-01-15 09:38:46,2021-01-15 09:38:46,0.189s,PASSED
"enhancedClick(findTestObject(""Dashboard Page/Draft Board (Dashboard)/Delete 1-PG on Draft Board""))",Chrome 87.0.4280.141,,,2021-01-15 09:38:46,2021-01-15 09:38:46,0.081s,PASSED
"enhancedClick(findTestObject(""Dashboard Page/Draft Board (Dashboard)/Draft Board Link""))",Chrome 87.0.4280.141,,,2021-01-15 09:38:46,2021-01-15 09:38:46,0.113s,PASSED
closeBrowser(),Chrome 87.0.4280.141,,,2021-01-15 09:38:46,2021-01-15 09:38:46,0.087s,PASSED
,,,,,,,
Test Cases/Depth Chart,Chrome 87.0.4280.141,,,2021-01-15 09:38:46,2021-01-15 09:39:59,1m - 12.753s,PASSED
openBrowser(URL),Chrome 87.0.4280.141,,,2021-01-15 09:38:46,2021-01-15 09:38:48,1.880s,PASSED
"setText(findTestObject(""Login Page/Email""), email)",Chrome 87.0.4280.141,,,2021-01-15 09:38:48,2021-01-15 09:38:48,0.146s,PASSED
"setText(findTestObject(""Login Page/password""), password)",Chrome 87.0.4280.141,,,2021-01-15 09:38:48,2021-01-15 09:38:48,0.106s,PASSED
"click(findTestObject(""Login Page/Sign In""))",Chrome 87.0.4280.141,,,2021-01-15 09:38:48,2021-01-15 09:38:51,2.231s,PASSED
"waitForElementVisible(findTestObject(""Top Navigation Menu/Dashboard""), 60)",Chrome 87.0.4280.141,,,2021-01-15 09:38:51,2021-01-15 09:38:51,0.560s,PASSED
"enhancedClick(findTestObject(""Top Navigation Menu/Dashboard""))",Chrome 87.0.4280.141,,,2021-01-15 09:38:51,2021-01-15 09:38:51,0.071s,PASSED
delay(3),Chrome 87.0.4280.141,,,2021-01-15 09:38:51,2021-01-15 09:38:54,3.006s,PASSED
"enhancedClick(findTestObject(""Dashboard Page/Depth Chart/Depth Chart season dropdown""))",Chrome 87.0.4280.141,,,2021-01-15 09:38:54,2021-01-15 09:38:54,0.095s,PASSED
"enhancedClick(findTestObject(""Dashboard Page/Depth Chart/Season Dropdown Index3""))",Chrome 87.0.4280.141,,,2021-01-15 09:38:54,2021-01-15 09:38:55,0.089s,PASSED
"enhancedClick(findTestObject(""Dashboard Page/Depth Chart/Depth Chart season dropdown""))",Chrome 87.0.4280.141,,,2021-01-15 09:38:55,2021-01-15 09:38:55,0.062s,PASSED
"enhancedClick(findTestObject(""Dashboard Page/Depth Chart/Season Dropdown Index2""))",Chrome 87.0.4280.141,,,2021-01-15 09:38:55,2021-01-15 09:38:55,0.090s,PASSED
"enhancedClick(findTestObject(""Dashboard Page/Depth Chart/EDIT Depth Chart""))",Chrome 87.0.4280.141,,,2021-01-15 09:38:55,2021-01-15 09:38:55,0.135s,PASSED
"enhancedClick(findTestObject(""Dashboard Page/Depth Chart/Depth Chart Edit (sr, pg, 1)""))",Chrome 87.0.4280.141,,,2021-01-15 09:38:55,2021-01-15 09:39:26,30.748s,PASSED
"enhancedClick(findTestObject(""Dashboard Page/Depth Chart/SAVE Depth Chart""))",Chrome 87.0.4280.141,,,2021-01-15 09:39:26,2021-01-15 09:39:26,0.080s,PASSED
delay(2),Chrome 87.0.4280.141,,,2021-01-15 09:39:26,2021-01-15 09:39:28,2.005s,PASSED
"verifyTextNotPresent(playerHidden, false)",Chrome 87.0.4280.141,,,2021-01-15 09:39:28,2021-01-15 09:39:28,0.139s,PASSED
"enhancedClick(findTestObject(""Dashboard Page/Depth Chart/EDIT Depth Chart""))",Chrome 87.0.4280.141,,,2021-01-15 09:39:28,2021-01-15 09:39:28,0.110s,PASSED
"enhancedClick(findTestObject(""Dashboard Page/Depth Chart/Depth Chart Edit (sr, pg, 1)""))",Chrome 87.0.4280.141,,,2021-01-15 09:39:28,2021-01-15 09:39:59,30.740s,PASSED
"enhancedClick(findTestObject(""Dashboard Page/Depth Chart/SAVE Depth Chart""))",Chrome 87.0.4280.141,,,2021-01-15 09:39:59,2021-01-15 09:39:59,0.069s,PASSED
"verifyTextPresent(playerHidden, false)",Chrome 87.0.4280.141,,,2021-01-15 09:39:59,2021-01-15 09:39:59,0.243s,PASSED
,,,,,,,
Test Cases/Dashboard Calendar,Chrome 87.0.4280.141,,,2021-01-15 09:39:59,2021-01-15 09:40:26,26.935s,PASSED
openBrowser(URL),Chrome 87.0.4280.141,,,2021-01-15 09:39:59,2021-01-15 09:40:01,2.254s,PASSED
"setText(findTestObject(""Login Page/Email""), email)",Chrome 87.0.4280.141,,,2021-01-15 09:40:01,2021-01-15 09:40:02,0.528s,PASSED
"setText(findTestObject(""Login Page/password""), password)",Chrome 87.0.4280.141,,,2021-01-15 09:40:02,2021-01-15 09:40:02,0.102s,PASSED
"click(findTestObject(""Login Page/Sign In""))",Chrome 87.0.4280.141,,,2021-01-15 09:40:02,2021-01-15 09:40:05,2.555s,PASSED
"waitForElementVisible(findTestObject(""Top Navigation Menu/Dashboard""), 60)",Chrome 87.0.4280.141,,,2021-01-15 09:40:05,2021-01-15 09:40:05,0.584s,PASSED
"enhancedClick(findTestObject(""Top Navigation Menu/Recruits""))",Chrome 87.0.4280.141,,,2021-01-15 09:40:05,2021-01-15 09:40:05,0.127s,PASSED
delay(3),Chrome 87.0.4280.141,,,2021-01-15 09:40:05,2021-01-15 09:40:08,3.005s,PASSED
"enhancedClick(findTestObject(""Top Navigation Menu/Dashboard""))",Chrome 87.0.4280.141,,,2021-01-15 09:40:08,2021-01-15 09:40:08,0.169s,PASSED
delay(3),Chrome 87.0.4280.141,,,2021-01-15 09:40:08,2021-01-15 09:40:11,3.005s,PASSED
"enhancedClick(findTestObject(""Dashboard Page/Calendar (Dashboard)/Toggle Left (Calendar Dashboard)""))",Chrome 87.0.4280.141,,,2021-01-15 09:40:11,2021-01-15 09:40:12,0.098s,PASSED
delay(5),Chrome 87.0.4280.141,,,2021-01-15 09:40:12,2021-01-15 09:40:17,5.005s,PASSED
"enhancedClick(findTestObject(""Dashboard Page/Calendar (Dashboard)/Toggle Right (Calendar Dashboard)""))",Chrome 87.0.4280.141,,,2021-01-15 09:40:17,2021-01-15 09:40:17,0.104s,PASSED
delay(5),Chrome 87.0.4280.141,,,2021-01-15 09:40:17,2021-01-15 09:40:22,5.003s,PASSED
"enhancedClick(findTestObject(""Dashboard Page/Calendar (Dashboard)/Dashboard Calendar SHOW dropdown""))",Chrome 87.0.4280.141,,,2021-01-15 09:40:22,2021-01-15 09:40:22,0.071s,PASSED
"enhancedClick(findTestObject(""Dashboard Page/Calendar (Dashboard)/My Calendar option""))",Chrome 87.0.4280.141,,,2021-01-15 09:40:22,2021-01-15 09:40:22,0.087s,PASSED
"enhancedClick(findTestObject(""Dashboard Page/Calendar (Dashboard)/My Calendar option""))",Chrome 87.0.4280.141,,,2021-01-15 09:40:22,2021-01-15 09:40:22,0.071s,PASSED
"enhancedClick(findTestObject(""Dashboard Page/Calendar (Dashboard)/Team calendar option""))",Chrome 87.0.4280.141,,,2021-01-15 09:40:22,2021-01-15 09:40:22,0.071s,PASSED
"enhancedClick(findTestObject(""Dashboard Page/Calendar (Dashboard)/Team calendar option""))",Chrome 87.0.4280.141,,,2021-01-15 09:40:22,2021-01-15 09:40:22,0.055s,PASSED
"enhancedClick(findTestObject(""Dashboard Page/Calendar (Dashboard)/Tasks calendar option""))",Chrome 87.0.4280.141,,,2021-01-15 09:40:22,2021-01-15 09:40:22,0.071s,PASSED
"enhancedClick(findTestObject(""Dashboard Page/Calendar (Dashboard)/Tasks calendar option""))",Chrome 87.0.4280.141,,,2021-01-15 09:40:22,2021-01-15 09:40:22,0.054s,PASSED
"enhancedClick(findTestObject(""Dashboard Page/Calendar (Dashboard)/NCAA Calendar option""))",Chrome 87.0.4280.141,,,2021-01-15 09:40:22,2021-01-15 09:40:22,0.065s,PASSED
"enhancedClick(findTestObject(""Dashboard Page/Calendar (Dashboard)/NCAA Calendar option""))",Chrome 87.0.4280.141,,,2021-01-15 09:40:22,2021-01-15 09:40:22,0.058s,PASSED
"enhancedClick(findTestObject(""Dashboard Page/Calendar (Dashboard)/My Live Period calendar option""))",Chrome 87.0.4280.141,,,2021-01-15 09:40:22,2021-01-15 09:40:22,0.076s,PASSED
"enhancedClick(findTestObject(""Dashboard Page/Calendar (Dashboard)/My Live Period calendar option""))",Chrome 87.0.4280.141,,,2021-01-15 09:40:22,2021-01-15 09:40:22,0.057s,PASSED
"enhancedClick(findTestObject(""Dashboard Page/Calendar (Dashboard)/Dashboard Calendar SHOW dropdown""))",Chrome 87.0.4280.141,,,2021-01-15 09:40:22,2021-01-15 09:40:22,0.055s,PASSED
"enhancedClick(findTestObject(""Dashboard Page/Calendar (Dashboard)/Dashboard Calendar Add New""))",Chrome 87.0.4280.141,,,2021-01-15 09:40:22,2021-01-15 09:40:23,0.134s,PASSED
"enhancedClick(findTestObject(""Dashboard Page/Calendar (Dashboard)/Add Event modal/Event Name field""))",Chrome 87.0.4280.141,,,2021-01-15 09:40:23,2021-01-15 09:40:23,0.093s,PASSED
"sendKeys(findTestObject(""Dashboard Page/Calendar (Dashboard)/Add Event modal/Event Name field""), ""Test Event1"")",Chrome 87.0.4280.141,,,2021-01-15 09:40:23,2021-01-15 09:40:23,0.073s,PASSED
"enhancedClick(findTestObject(""Dashboard Page/Calendar (Dashboard)/Add Event modal/Event Location field""))",Chrome 87.0.4280.141,,,2021-01-15 09:40:23,2021-01-15 09:40:23,0.090s,PASSED
"sendKeys(findTestObject(""Dashboard Page/Calendar (Dashboard)/Add Event modal/Event Location field""), ""444 N. Michigan Ave"")",Chrome 87.0.4280.141,,,2021-01-15 09:40:23,2021-01-15 09:40:23,0.103s,PASSED
"enhancedClick(findTestObject(""Dashboard Page/Calendar (Dashboard)/Add Event modal/Select searched location""), STOP_ON_FAILURE)",Chrome 87.0.4280.141,,,2021-01-15 09:40:23,2021-01-15 09:40:23,0.080s,PASSED
"enhancedClick(findTestObject(""Dashboard Page/Calendar (Dashboard)/Add Event modal/Select Recruits dropdown""))",Chrome 87.0.4280.141,,,2021-01-15 09:40:23,2021-01-15 09:40:23,0.087s,PASSED
"enhancedClick(findTestObject(""Dashboard Page/Calendar (Dashboard)/Add Event modal/Recruit1 in dropdown (Add Event modal)""))",Chrome 87.0.4280.141,,,2021-01-15 09:40:23,2021-01-15 09:40:23,0.112s,PASSED
"enhancedClick(findTestObject(""Dashboard Page/Calendar (Dashboard)/Add Event modal/Add Event Attendees""))",Chrome 87.0.4280.141,,,2021-01-15 09:40:23,2021-01-15 09:40:23,0.072s,PASSED
"enhancedClick(findTestObject(""Dashboard Page/Calendar (Dashboard)/Add Event modal/Recruiters checkbox""))",Chrome 87.0.4280.141,,,2021-01-15 09:40:23,2021-01-15 09:40:23,0.098s,PASSED
"enhancedClick(findTestObject(""Dashboard Page/Calendar (Dashboard)/Add Event modal/Game Note field""))",Chrome 87.0.4280.141,,,2021-01-15 09:40:23,2021-01-15 09:40:24,0.102s,PASSED
"sendKeys(findTestObject(""Dashboard Page/Calendar (Dashboard)/Add Event modal/Game Note field""), ""arrive early"")",Chrome 87.0.4280.141,,,2021-01-15 09:40:24,2021-01-15 09:40:24,0.145s,PASSED
"enhancedClick(findTestObject(""Dashboard Page/Calendar (Dashboard)/Add Event modal/Add Event Save button""))",Chrome 87.0.4280.141,,,2021-01-15 09:40:24,2021-01-15 09:40:24,0.070s,PASSED
delay(2),Chrome 87.0.4280.141,,,2021-01-15 09:40:24,2021-01-15 09:40:26,2.007s,PASSED
"verifyTextPresent(""Test Event1"", false)",Chrome 87.0.4280.141,,,2021-01-15 09:40:26,2021-01-15 09:40:26,0.177s,PASSED
