<?xml version="1.0" encoding="UTF-8"?>
<Project>
   <description></description>
   <name>fastrecruit-web-katalon</name>
   <tag></tag>
   <UUID>7eddd985-16c2-414b-8743-9dc5ce5b55c5</UUID>
   <migratedVersion>5.9.0</migratedVersion>
   <pageLoadTimeout>0</pageLoadTimeout>
   <projectFileLocation>/Users/jefffeldman/git/fastrecruit-web-katalon/fastrecruit-web-katalon.prj</projectFileLocation>
   <sourceContent>
      <sourceFolderList>
         <sourceFolderConfiguration>
            <url>Include/scripts/groovy</url>
         </sourceFolderConfiguration>
      </sourceFolderList>
      <systemFolderList>
         <systemFolderConfiguration>
            <url>Include/scripts/groovy</url>
         </systemFolderConfiguration>
         <systemFolderConfiguration>
            <url>Include/features</url>
         </systemFolderConfiguration>
         <systemFolderConfiguration>
            <url>Include/config</url>
         </systemFolderConfiguration>
      </systemFolderList>
   </sourceContent>
   <type>GENERIC</type>
</Project>
