Suite/Test/Step Name,Browser,Description,Tag,Start time,End time,Duration,Status
Regression Tests,Chrome 88.0.4324.192,,,2021-03-08 14:56:01,2021-03-08 14:59:11,3m - 10.115s,FAILED
,,,,,,,
Test Cases/Draft Board,Chrome 88.0.4324.192,,,2021-03-08 14:56:02,2021-03-08 14:56:21,19.014s,PASSED
openBrowser(URL),Chrome 88.0.4324.192,,,2021-03-08 14:56:02,2021-03-08 14:56:05,2.584s,PASSED
"setText(findTestObject(""Login Page/Email""), email)",Chrome 88.0.4324.192,,,2021-03-08 14:56:05,2021-03-08 14:56:05,0.515s,PASSED
"setText(findTestObject(""Login Page/password""), password)",Chrome 88.0.4324.192,,,2021-03-08 14:56:05,2021-03-08 14:56:05,0.111s,PASSED
"click(findTestObject(""Login Page/Sign In""))",Chrome 88.0.4324.192,,,2021-03-08 14:56:05,2021-03-08 14:56:08,2.308s,PASSED
"waitForElementVisible(findTestObject(""Top Navigation Menu/Dashboard""), 60)",Chrome 88.0.4324.192,,,2021-03-08 14:56:08,2021-03-08 14:56:08,0.583s,PASSED
"enhancedClick(findTestObject(""Top Navigation Menu/Dashboard""))",Chrome 88.0.4324.192,,,2021-03-08 14:56:08,2021-03-08 14:56:08,0.105s,PASSED
delay(3),Chrome 88.0.4324.192,,,2021-03-08 14:56:08,2021-03-08 14:56:11,3.024s,PASSED
"mouseOver(findTestObject(""Dashboard Page/Draft Board (Dashboard)/blank 1-PG on Draft Board (Dashboard)""))",Chrome 88.0.4324.192,,,2021-03-08 14:56:11,2021-03-08 14:56:11,0.240s,PASSED
"enhancedClick(findTestObject(""Dashboard Page/Draft Board (Dashboard)/blank 1-PG on Draft Board (Dashboard)""))",Chrome 88.0.4324.192,,,2021-03-08 14:56:11,2021-03-08 14:56:12,0.144s,PASSED
"enhancedClick(findTestObject(""Dashboard Page/Draft Board (Dashboard)/Draft Board Dropdown Player1""))",Chrome 88.0.4324.192,,,2021-03-08 14:56:12,2021-03-08 14:56:12,0.183s,PASSED
"mouseOver(findTestObject(""Dashboard Page/Draft Board (Dashboard)/1-PG on Draft Board""))",Chrome 88.0.4324.192,,,2021-03-08 14:56:12,2021-03-08 14:56:12,0.315s,PASSED
"enhancedClick(findTestObject(""Dashboard Page/Draft Board (Dashboard)/1-PG on Draft Board""))",Chrome 88.0.4324.192,,,2021-03-08 14:56:12,2021-03-08 14:56:12,0.130s,PASSED
delay(1),Chrome 88.0.4324.192,,,2021-03-08 14:56:12,2021-03-08 14:56:13,1.008s,PASSED
"enhancedClick(findTestObject(""Recruit Profile (view)/Alerts button""))",Chrome 88.0.4324.192,,,2021-03-08 14:56:13,2021-03-08 14:56:13,0.087s,PASSED
"enhancedClick(findTestObject(""Recruit Profile (view)/CLOSE button""))",Chrome 88.0.4324.192,,,2021-03-08 14:56:13,2021-03-08 14:56:13,0.100s,PASSED
"verifyElementVisible(findTestObject(""Dashboard Page/Draft Board (Dashboard)/Alerts bell indicator""))",Chrome 88.0.4324.192,,,2021-03-08 14:56:13,2021-03-08 14:56:14,0.079s,PASSED
"mouseOver(findTestObject(""Dashboard Page/Draft Board (Dashboard)/1-PG on Draft Board""))",Chrome 88.0.4324.192,,,2021-03-08 14:56:14,2021-03-08 14:56:14,0.181s,PASSED
"enhancedClick(findTestObject(""Dashboard Page/Draft Board (Dashboard)/1-PG on Draft Board""))",Chrome 88.0.4324.192,,,2021-03-08 14:56:14,2021-03-08 14:56:14,0.111s,PASSED
"enhancedClick(findTestObject(""Recruit Profile (view)/Alerts button""))",Chrome 88.0.4324.192,,,2021-03-08 14:56:14,2021-03-08 14:56:14,0.122s,PASSED
"mouseOver(findTestObject(""Dashboard Page/Draft Board (Dashboard)/1-PG on Draft Board""))",Chrome 88.0.4324.192,,,2021-03-08 14:56:14,2021-03-08 14:56:14,0.228s,PASSED
"enhancedClick(findTestObject(""Recruit Profile (view)/CLOSE button""))",Chrome 88.0.4324.192,,,2021-03-08 14:56:14,2021-03-08 14:56:14,0.121s,PASSED
delay(1),Chrome 88.0.4324.192,,,2021-03-08 14:56:14,2021-03-08 14:56:15,1.008s,PASSED
"verifyElementNotPresent(findTestObject(""Dashboard Page/Draft Board (Dashboard)/Alerts bell indicator""), 0)",Chrome 88.0.4324.192,,,2021-03-08 14:56:15,2021-03-08 14:56:15,0.103s,PASSED
"mouseOver(findTestObject(""Dashboard Page/Draft Board (Dashboard)/1-PG on Draft Board""))",Chrome 88.0.4324.192,,,2021-03-08 14:56:15,2021-03-08 14:56:16,0.182s,PASSED
"enhancedClick(findTestObject(""Dashboard Page/Draft Board (Dashboard)/Delete 1-PG on Draft Board""))",Chrome 88.0.4324.192,,,2021-03-08 14:56:16,2021-03-08 14:56:16,0.095s,PASSED
"enhancedClick(findTestObject(""Dashboard Page/Draft Board (Dashboard)/Draft Board Season Dropdown""))",Chrome 88.0.4324.192,,,2021-03-08 14:56:16,2021-03-08 14:56:16,0.103s,PASSED
"enhancedClick(findTestObject(""Dashboard Page/Draft Board (Dashboard)/Draft Board Season Dropdown - 2023""))",Chrome 88.0.4324.192,,,2021-03-08 14:56:16,2021-03-08 14:56:16,0.104s,PASSED
"mouseOver(findTestObject(""Dashboard Page/Draft Board (Dashboard)/blank 1-PG on Draft Board (Dashboard)""))",Chrome 88.0.4324.192,,,2021-03-08 14:56:16,2021-03-08 14:56:16,0.179s,PASSED
"enhancedClick(findTestObject(""Dashboard Page/Draft Board (Dashboard)/blank 1-PG on Draft Board (Dashboard)""))",Chrome 88.0.4324.192,,,2021-03-08 14:56:16,2021-03-08 14:56:16,0.075s,PASSED
"enhancedClick(findTestObject(""Dashboard Page/Draft Board (Dashboard)/Draft Board Dropdown Player1""))",Chrome 88.0.4324.192,,,2021-03-08 14:56:16,2021-03-08 14:56:16,0.187s,PASSED
delay(1),Chrome 88.0.4324.192,,,2021-03-08 14:56:16,2021-03-08 14:56:17,1.006s,PASSED
"mouseOver(findTestObject(""Dashboard Page/Draft Board (Dashboard)/blank 2-PG on Draft Board (Dashboard)""))",Chrome 88.0.4324.192,,,2021-03-08 14:56:17,2021-03-08 14:56:18,0.171s,PASSED
"enhancedClick(findTestObject(""Dashboard Page/Draft Board (Dashboard)/blank 2-PG on Draft Board (Dashboard)""))",Chrome 88.0.4324.192,,,2021-03-08 14:56:18,2021-03-08 14:56:18,0.082s,PASSED
"enhancedClick(findTestObject(""Dashboard Page/Draft Board (Dashboard)/Recruit Search field""))",Chrome 88.0.4324.192,,,2021-03-08 14:56:18,2021-03-08 14:56:18,0.087s,PASSED
"sendKeys(findTestObject(""Dashboard Page/Draft Board (Dashboard)/Recruit Search field""), ""Mikey Williams"")",Chrome 88.0.4324.192,,,2021-03-08 14:56:18,2021-03-08 14:56:18,0.088s,PASSED
delay(2),Chrome 88.0.4324.192,,,2021-03-08 14:56:18,2021-03-08 14:56:20,2.008s,PASSED
"enhancedClick(findTestObject(""Dashboard Page/Draft Board (Dashboard)/Draft Board Dropdown Player2""))",Chrome 88.0.4324.192,,,2021-03-08 14:56:20,2021-03-08 14:56:20,0.097s,PASSED
"mouseOver(findTestObject(""Dashboard Page/Draft Board (Dashboard)/2-PG on Draft Board""))",Chrome 88.0.4324.192,,,2021-03-08 14:56:20,2021-03-08 14:56:20,0.279s,PASSED
"enhancedClick(findTestObject(""Dashboard Page/Draft Board (Dashboard)/Delete 2-PG on Draft Board""))",Chrome 88.0.4324.192,,,2021-03-08 14:56:20,2021-03-08 14:56:20,0.090s,PASSED
"mouseOver(findTestObject(""Dashboard Page/Draft Board (Dashboard)/1-PG on Draft Board""))",Chrome 88.0.4324.192,,,2021-03-08 14:56:20,2021-03-08 14:56:20,0.197s,PASSED
"enhancedClick(findTestObject(""Dashboard Page/Draft Board (Dashboard)/Delete 1-PG on Draft Board""))",Chrome 88.0.4324.192,,,2021-03-08 14:56:20,2021-03-08 14:56:21,0.090s,PASSED
"enhancedClick(findTestObject(""Dashboard Page/Draft Board (Dashboard)/Draft Board Link""))",Chrome 88.0.4324.192,,,2021-03-08 14:56:21,2021-03-08 14:56:21,0.133s,PASSED
closeBrowser(),Chrome 88.0.4324.192,,,2021-03-08 14:56:21,2021-03-08 14:56:21,0.089s,PASSED
,,,,,,,
Test Cases/Depth Chart,Chrome 88.0.4324.192,,,2021-03-08 14:56:21,2021-03-08 14:56:34,12.861s,PASSED
openBrowser(URL),Chrome 88.0.4324.192,,,2021-03-08 14:56:21,2021-03-08 14:56:22,1.520s,PASSED
"setText(findTestObject(""Login Page/Email""), email)",Chrome 88.0.4324.192,,,2021-03-08 14:56:22,2021-03-08 14:56:23,0.497s,PASSED
"setText(findTestObject(""Login Page/password""), password)",Chrome 88.0.4324.192,,,2021-03-08 14:56:23,2021-03-08 14:56:23,0.118s,PASSED
"click(findTestObject(""Login Page/Sign In""))",Chrome 88.0.4324.192,,,2021-03-08 14:56:23,2021-03-08 14:56:25,2.213s,PASSED
"waitForElementVisible(findTestObject(""Top Navigation Menu/Dashboard""), 60)",Chrome 88.0.4324.192,,,2021-03-08 14:56:25,2021-03-08 14:56:26,0.609s,PASSED
"enhancedClick(findTestObject(""Top Navigation Menu/Dashboard""))",Chrome 88.0.4324.192,,,2021-03-08 14:56:26,2021-03-08 14:56:26,0.083s,PASSED
delay(3),Chrome 88.0.4324.192,,,2021-03-08 14:56:26,2021-03-08 14:56:29,3.007s,PASSED
"enhancedClick(findTestObject(""Dashboard Page/Depth Chart/Depth Chart season dropdown""))",Chrome 88.0.4324.192,,,2021-03-08 14:56:29,2021-03-08 14:56:29,0.100s,PASSED
"enhancedClick(findTestObject(""Dashboard Page/Depth Chart/Season Dropdown Index3""))",Chrome 88.0.4324.192,,,2021-03-08 14:56:29,2021-03-08 14:56:29,0.106s,PASSED
"enhancedClick(findTestObject(""Dashboard Page/Depth Chart/Depth Chart season dropdown""))",Chrome 88.0.4324.192,,,2021-03-08 14:56:29,2021-03-08 14:56:29,0.075s,PASSED
"enhancedClick(findTestObject(""Dashboard Page/Depth Chart/Season Dropdown Index2""))",Chrome 88.0.4324.192,,,2021-03-08 14:56:29,2021-03-08 14:56:29,0.094s,PASSED
"enhancedClick(findTestObject(""Dashboard Page/Depth Chart/EDIT Depth Chart""))",Chrome 88.0.4324.192,,,2021-03-08 14:56:29,2021-03-08 14:56:29,0.146s,PASSED
"enhancedClick(findTestObject(""Dashboard Page/Depth Chart/Depth Chart Edit (sr, pg, 1)""))",Chrome 88.0.4324.192,,,2021-03-08 14:56:29,2021-03-08 14:56:30,0.173s,PASSED
"enhancedClick(findTestObject(""Dashboard Page/Depth Chart/SAVE Depth Chart""))",Chrome 88.0.4324.192,,,2021-03-08 14:56:30,2021-03-08 14:56:30,0.108s,PASSED
delay(2),Chrome 88.0.4324.192,,,2021-03-08 14:56:30,2021-03-08 14:56:32,2.006s,PASSED
"verifyTextNotPresent(playerHidden, false)",Chrome 88.0.4324.192,,,2021-03-08 14:56:32,2021-03-08 14:56:32,0.141s,PASSED
"enhancedClick(findTestObject(""Dashboard Page/Depth Chart/EDIT Depth Chart""))",Chrome 88.0.4324.192,,,2021-03-08 14:56:32,2021-03-08 14:56:32,0.118s,PASSED
"enhancedClick(findTestObject(""Dashboard Page/Depth Chart/Depth Chart Edit (sr, pg, 1)""))",Chrome 88.0.4324.192,,,2021-03-08 14:56:32,2021-03-08 14:56:32,0.157s,PASSED
"enhancedClick(findTestObject(""Dashboard Page/Depth Chart/SAVE Depth Chart""))",Chrome 88.0.4324.192,,,2021-03-08 14:56:32,2021-03-08 14:56:32,0.097s,PASSED
"verifyTextPresent(playerHidden, false)",Chrome 88.0.4324.192,,,2021-03-08 14:56:32,2021-03-08 14:56:33,0.251s,PASSED
delay(1),Chrome 88.0.4324.192,,,2021-03-08 14:56:33,2021-03-08 14:56:34,1.007s,PASSED
closeBrowser(),Chrome 88.0.4324.192,,,2021-03-08 14:56:34,2021-03-08 14:56:34,0.083s,PASSED
,,,,,,,
Test Cases/Dashboard Calendar,Chrome 88.0.4324.192,,,2021-03-08 14:56:34,2021-03-08 14:57:02,28.710s,PASSED
openBrowser(URL),Chrome 88.0.4324.192,,,2021-03-08 14:56:34,2021-03-08 14:56:35,1.487s,PASSED
"setText(findTestObject(""Login Page/Email""), email)",Chrome 88.0.4324.192,,,2021-03-08 14:56:35,2021-03-08 14:56:36,0.476s,PASSED
"setText(findTestObject(""Login Page/password""), password)",Chrome 88.0.4324.192,,,2021-03-08 14:56:36,2021-03-08 14:56:36,0.103s,PASSED
"click(findTestObject(""Login Page/Sign In""))",Chrome 88.0.4324.192,,,2021-03-08 14:56:36,2021-03-08 14:56:38,2.488s,PASSED
"waitForElementVisible(findTestObject(""Top Navigation Menu/Dashboard""), 60)",Chrome 88.0.4324.192,,,2021-03-08 14:56:38,2021-03-08 14:56:39,0.548s,PASSED
"enhancedClick(findTestObject(""Top Navigation Menu/Recruits""))",Chrome 88.0.4324.192,,,2021-03-08 14:56:39,2021-03-08 14:56:39,0.134s,PASSED
delay(3),Chrome 88.0.4324.192,,,2021-03-08 14:56:39,2021-03-08 14:56:42,3.007s,PASSED
"enhancedClick(findTestObject(""Top Navigation Menu/Dashboard""))",Chrome 88.0.4324.192,,,2021-03-08 14:56:42,2021-03-08 14:56:42,0.181s,PASSED
delay(3),Chrome 88.0.4324.192,,,2021-03-08 14:56:42,2021-03-08 14:56:45,3.007s,PASSED
"enhancedClick(findTestObject(""Dashboard Page/Calendar (Dashboard)/Toggle Left (Calendar Dashboard)""))",Chrome 88.0.4324.192,,,2021-03-08 14:56:45,2021-03-08 14:56:45,0.128s,PASSED
delay(5),Chrome 88.0.4324.192,,,2021-03-08 14:56:45,2021-03-08 14:56:50,5.007s,PASSED
"enhancedClick(findTestObject(""Dashboard Page/Calendar (Dashboard)/Toggle Right (Calendar Dashboard)""))",Chrome 88.0.4324.192,,,2021-03-08 14:56:50,2021-03-08 14:56:52,1.334s,PASSED
delay(5),Chrome 88.0.4324.192,,,2021-03-08 14:56:52,2021-03-08 14:56:57,5.004s,PASSED
"enhancedClick(findTestObject(""Dashboard Page/Calendar (Dashboard)/Dashboard Calendar SHOW dropdown""))",Chrome 88.0.4324.192,,,2021-03-08 14:56:57,2021-03-08 14:56:57,0.102s,PASSED
"enhancedClick(findTestObject(""Dashboard Page/Calendar (Dashboard)/My Calendar option""))",Chrome 88.0.4324.192,,,2021-03-08 14:56:57,2021-03-08 14:56:58,1.262s,PASSED
"enhancedClick(findTestObject(""Dashboard Page/Calendar (Dashboard)/My Calendar option""))",Chrome 88.0.4324.192,,,2021-03-08 14:56:58,2021-03-08 14:56:58,0.070s,PASSED
"enhancedClick(findTestObject(""Dashboard Page/Calendar (Dashboard)/Team calendar option""))",Chrome 88.0.4324.192,,,2021-03-08 14:56:58,2021-03-08 14:56:58,0.077s,PASSED
"enhancedClick(findTestObject(""Dashboard Page/Calendar (Dashboard)/Team calendar option""))",Chrome 88.0.4324.192,,,2021-03-08 14:56:58,2021-03-08 14:56:58,0.060s,PASSED
"enhancedClick(findTestObject(""Dashboard Page/Calendar (Dashboard)/Tasks calendar option""))",Chrome 88.0.4324.192,,,2021-03-08 14:56:58,2021-03-08 14:56:58,0.071s,PASSED
"enhancedClick(findTestObject(""Dashboard Page/Calendar (Dashboard)/Tasks calendar option""))",Chrome 88.0.4324.192,,,2021-03-08 14:56:58,2021-03-08 14:56:58,0.065s,PASSED
"enhancedClick(findTestObject(""Dashboard Page/Calendar (Dashboard)/NCAA Calendar option""))",Chrome 88.0.4324.192,,,2021-03-08 14:56:58,2021-03-08 14:56:59,0.088s,PASSED
"enhancedClick(findTestObject(""Dashboard Page/Calendar (Dashboard)/NCAA Calendar option""))",Chrome 88.0.4324.192,,,2021-03-08 14:56:59,2021-03-08 14:56:59,0.060s,PASSED
"enhancedClick(findTestObject(""Dashboard Page/Calendar (Dashboard)/My Live Period calendar option""))",Chrome 88.0.4324.192,,,2021-03-08 14:56:59,2021-03-08 14:56:59,0.075s,PASSED
"enhancedClick(findTestObject(""Dashboard Page/Calendar (Dashboard)/My Live Period calendar option""))",Chrome 88.0.4324.192,,,2021-03-08 14:56:59,2021-03-08 14:56:59,0.080s,PASSED
"enhancedClick(findTestObject(""Dashboard Page/Calendar (Dashboard)/Dashboard Calendar SHOW dropdown""))",Chrome 88.0.4324.192,,,2021-03-08 14:56:59,2021-03-08 14:56:59,0.066s,PASSED
"enhancedClick(findTestObject(""Dashboard Page/Calendar (Dashboard)/Dashboard Calendar Add New""))",Chrome 88.0.4324.192,,,2021-03-08 14:56:59,2021-03-08 14:56:59,0.146s,PASSED
"enhancedClick(findTestObject(""Dashboard Page/Calendar (Dashboard)/Add Event modal/Event Name field""))",Chrome 88.0.4324.192,,,2021-03-08 14:56:59,2021-03-08 14:56:59,0.105s,PASSED
"sendKeys(findTestObject(""Dashboard Page/Calendar (Dashboard)/Add Event modal/Event Name field""), ""Test Event1"")",Chrome 88.0.4324.192,,,2021-03-08 14:56:59,2021-03-08 14:56:59,0.082s,PASSED
"enhancedClick(findTestObject(""Dashboard Page/Calendar (Dashboard)/Add Event modal/Event Location field""))",Chrome 88.0.4324.192,,,2021-03-08 14:56:59,2021-03-08 14:56:59,0.099s,PASSED
"sendKeys(findTestObject(""Dashboard Page/Calendar (Dashboard)/Add Event modal/Event Location field""), ""444 N. Michigan Ave"")",Chrome 88.0.4324.192,,,2021-03-08 14:56:59,2021-03-08 14:56:59,0.117s,PASSED
"enhancedClick(findTestObject(""Dashboard Page/Calendar (Dashboard)/Add Event modal/Select searched location""))",Chrome 88.0.4324.192,,,2021-03-08 14:56:59,2021-03-08 14:56:59,0.082s,PASSED
"enhancedClick(findTestObject(""Dashboard Page/Calendar (Dashboard)/Add Event modal/Select Recruits dropdown""))",Chrome 88.0.4324.192,,,2021-03-08 14:56:59,2021-03-08 14:57:00,0.083s,PASSED
"enhancedClick(findTestObject(""Dashboard Page/Calendar (Dashboard)/Add Event modal/Recruit1 in dropdown (Add Event modal)""))",Chrome 88.0.4324.192,,,2021-03-08 14:57:00,2021-03-08 14:57:00,0.085s,PASSED
"enhancedClick(findTestObject(""Dashboard Page/Calendar (Dashboard)/Add Event modal/Add Event Attendees""))",Chrome 88.0.4324.192,,,2021-03-08 14:57:00,2021-03-08 14:57:00,0.084s,PASSED
"enhancedClick(findTestObject(""Dashboard Page/Calendar (Dashboard)/Add Event modal/Recruiters checkbox""))",Chrome 88.0.4324.192,,,2021-03-08 14:57:00,2021-03-08 14:57:00,0.117s,PASSED
"enhancedClick(findTestObject(""Dashboard Page/Calendar (Dashboard)/Add Event modal/Game Note field""))",Chrome 88.0.4324.192,,,2021-03-08 14:57:00,2021-03-08 14:57:00,0.087s,PASSED
"sendKeys(findTestObject(""Dashboard Page/Calendar (Dashboard)/Add Event modal/Game Note field""), ""arrive early"")",Chrome 88.0.4324.192,,,2021-03-08 14:57:00,2021-03-08 14:57:00,0.154s,PASSED
"enhancedClick(findTestObject(""Dashboard Page/Calendar (Dashboard)/Add Event modal/Add Event Save button""))",Chrome 88.0.4324.192,,,2021-03-08 14:57:00,2021-03-08 14:57:00,0.073s,PASSED
delay(2),Chrome 88.0.4324.192,,,2021-03-08 14:57:00,2021-03-08 14:57:02,2.008s,PASSED
"verifyTextPresent(""Test Event1"", false)",Chrome 88.0.4324.192,,,2021-03-08 14:57:02,2021-03-08 14:57:02,0.192s,PASSED
,,,,,,,
Test Cases/Add_Archive_Delete New Recruit,Chrome 88.0.4324.192,,,2021-03-08 14:57:02,2021-03-08 14:57:20,17.711s,PASSED
openBrowser(URL),Chrome 88.0.4324.192,,,2021-03-08 14:57:02,2021-03-08 14:57:04,1.719s,PASSED
"setText(findTestObject(""Login Page/Email""), email)",Chrome 88.0.4324.192,,,2021-03-08 14:57:04,2021-03-08 14:57:05,0.481s,PASSED
"setText(findTestObject(""Login Page/password""), password)",Chrome 88.0.4324.192,,,2021-03-08 14:57:05,2021-03-08 14:57:05,0.106s,PASSED
"click(findTestObject(""Login Page/Sign In""))",Chrome 88.0.4324.192,,,2021-03-08 14:57:05,2021-03-08 14:57:07,2.179s,PASSED
"waitForElementVisible(findTestObject(""Top Navigation Menu/Dashboard""), 60)",Chrome 88.0.4324.192,,,2021-03-08 14:57:07,2021-03-08 14:57:08,0.624s,PASSED
"click(findTestObject(""Top Navigation Menu/Recruits""))",Chrome 88.0.4324.192,,,2021-03-08 14:57:08,2021-03-08 14:57:08,0.126s,PASSED
"click(findTestObject(""Recruits Page/ADD RECRUIT button""))",Chrome 88.0.4324.192,,,2021-03-08 14:57:08,2021-03-08 14:57:08,0.142s,PASSED
"setText(findTestObject(""Recruits Page/Add New Recruit modal/First Name field""), ""Josh"")",Chrome 88.0.4324.192,,,2021-03-08 14:57:08,2021-03-08 14:57:09,1.415s,PASSED
"setText(findTestObject(""Recruits Page/Add New Recruit modal/Last Name field""), ""Allen"")",Chrome 88.0.4324.192,,,2021-03-08 14:57:09,2021-03-08 14:57:09,0.146s,PASSED
"setText(findTestObject(""Recruits Page/Add New Recruit modal/Class field""), ""2023"")",Chrome 88.0.4324.192,,,2021-03-08 14:57:09,2021-03-08 14:57:10,0.137s,PASSED
"click(findTestObject(""Recruits Page/Add New Recruit modal/Height field input""))",Chrome 88.0.4324.192,,,2021-03-08 14:57:10,2021-03-08 14:57:10,0.097s,PASSED
"setText(findTestObject(""Recruits Page/Add New Recruit modal/Height field input""), ""69"")",Chrome 88.0.4324.192,,,2021-03-08 14:57:10,2021-03-08 14:57:10,0.096s,PASSED
"setText(findTestObject(""Recruits Page/Add New Recruit modal/Birthdate field input""), ""1/1/2005"")",Chrome 88.0.4324.192,,,2021-03-08 14:57:10,2021-03-08 14:57:10,0.243s,PASSED
"enhancedClick(findTestObject(""Recruits Page/Add New Recruit modal/Birthdate field Label""))",Chrome 88.0.4324.192,,,2021-03-08 14:57:10,2021-03-08 14:57:10,0.123s,PASSED
"setText(findTestObject(""Recruits Page/Add New Recruit modal/High School field input""), ""highland park"")",Chrome 88.0.4324.192,,,2021-03-08 14:57:10,2021-03-08 14:57:10,0.175s,PASSED
"sendKeys(findTestObject(""Recruits Page/Add New Recruit modal/High School field input""), Keys.chord(DOWN))",Chrome 88.0.4324.192,,,2021-03-08 14:57:10,2021-03-08 14:57:10,0.062s,PASSED
"sendKeys(findTestObject(""Recruits Page/Add New Recruit modal/High School field input""), Keys.chord(ENTER))",Chrome 88.0.4324.192,,,2021-03-08 14:57:10,2021-03-08 14:57:10,0.058s,PASSED
"setText(findTestObject(""Recruits Page/Add New Recruit modal/High School Coach Name field""), ""Coach Miller"")",Chrome 88.0.4324.192,,,2021-03-08 14:57:10,2021-03-08 14:57:11,0.170s,PASSED
"setText(findTestObject(""Recruits Page/Add New Recruit modal/High School Coach Phone field""), ""8474713163"")",Chrome 88.0.4324.192,,,2021-03-08 14:57:11,2021-03-08 14:57:11,0.155s,PASSED
"setText(findTestObject(""Recruits Page/Add New Recruit modal/Club Team field""), ""Mac Irvin Fire"")",Chrome 88.0.4324.192,,,2021-03-08 14:57:11,2021-03-08 14:57:11,0.154s,PASSED
"setText(findTestObject(""Recruits Page/Add New Recruit modal/Club Team Number field""), ""10"")",Chrome 88.0.4324.192,,,2021-03-08 14:57:11,2021-03-08 14:57:11,0.106s,PASSED
"click(findTestObject(""Recruits Page/Add New Recruit modal/SAVE button""))",Chrome 88.0.4324.192,,,2021-03-08 14:57:11,2021-03-08 14:57:11,0.156s,PASSED
"setText(findTestObject(""Recruits Page/Recruit Search Field on Recruits page""), ""josh allen"")",Chrome 88.0.4324.192,,,2021-03-08 14:57:11,2021-03-08 14:57:11,0.205s,PASSED
delay(1),Chrome 88.0.4324.192,,,2021-03-08 14:57:11,2021-03-08 14:57:12,1.004s,PASSED
"click(findTestObject(""Recruits Page/Archive recruit""))",Chrome 88.0.4324.192,,,2021-03-08 14:57:12,2021-03-08 14:57:12,0.084s,PASSED
delay(1),Chrome 88.0.4324.192,,,2021-03-08 14:57:12,2021-03-08 14:57:13,1.005s,PASSED
"click(findTestObject(""Recruits Page/All Recruits List selection""))",Chrome 88.0.4324.192,,,2021-03-08 14:57:13,2021-03-08 14:57:14,0.082s,PASSED
delay(1),Chrome 88.0.4324.192,,,2021-03-08 14:57:14,2021-03-08 14:57:15,1.002s,PASSED
"click(findTestObject(""Recruits Page/Archived List selection""))",Chrome 88.0.4324.192,,,2021-03-08 14:57:15,2021-03-08 14:57:15,0.108s,PASSED
delay(1),Chrome 88.0.4324.192,,,2021-03-08 14:57:15,2021-03-08 14:57:16,1.005s,PASSED
"click(findTestObject(""Recruits Page/Archived list ellipsis button""))",Chrome 88.0.4324.192,,,2021-03-08 14:57:16,2021-03-08 14:57:16,0.089s,PASSED
delay(1),Chrome 88.0.4324.192,,,2021-03-08 14:57:16,2021-03-08 14:57:17,1.002s,PASSED
"click(findTestObject(""Recruits Page/Delete1""))",Chrome 88.0.4324.192,,,2021-03-08 14:57:17,2021-03-08 14:57:17,0.104s,PASSED
delay(1),Chrome 88.0.4324.192,,,2021-03-08 14:57:17,2021-03-08 14:57:18,1.006s,PASSED
"enhancedClick(findTestObject(""Recruits Page/Delete2""))",Chrome 88.0.4324.192,,,2021-03-08 14:57:18,2021-03-08 14:57:18,0.103s,PASSED
delay(2),Chrome 88.0.4324.192,,,2021-03-08 14:57:18,2021-03-08 14:57:20,2.007s,PASSED
closeBrowser(),Chrome 88.0.4324.192,,,2021-03-08 14:57:20,2021-03-08 14:57:20,0.081s,PASSED
,,,,,,,
Test Cases/Tasks,Chrome 88.0.4324.192,,,2021-03-08 14:57:20,2021-03-08 14:57:28,8.004s,PASSED
openBrowser(URL),Chrome 88.0.4324.192,,,2021-03-08 14:57:20,2021-03-08 14:57:22,1.516s,PASSED
"setText(findTestObject(""Login Page/Email""), email)",Chrome 88.0.4324.192,,,2021-03-08 14:57:22,2021-03-08 14:57:22,0.488s,PASSED
"setText(findTestObject(""Login Page/password""), password)",Chrome 88.0.4324.192,,,2021-03-08 14:57:22,2021-03-08 14:57:22,0.108s,PASSED
"click(findTestObject(""Login Page/Sign In""))",Chrome 88.0.4324.192,,,2021-03-08 14:57:22,2021-03-08 14:57:25,2.341s,PASSED
"waitForElementVisible(findTestObject(""Top Navigation Menu/Dashboard""), 60)",Chrome 88.0.4324.192,,,2021-03-08 14:57:25,2021-03-08 14:57:25,0.603s,PASSED
"enhancedClick(findTestObject(""Top Navigation Menu/Recruits""))",Chrome 88.0.4324.192,,,2021-03-08 14:57:25,2021-03-08 14:57:25,0.129s,PASSED
"enhancedClick(findTestObject(""Recruits Page/Tasks tab""))",Chrome 88.0.4324.192,,,2021-03-08 14:57:25,2021-03-08 14:57:25,0.111s,PASSED
"enhancedClick(findTestObject(""Recruits Page/Tasks/Add Task button""))",Chrome 88.0.4324.192,,,2021-03-08 14:57:25,2021-03-08 14:57:26,0.131s,PASSED
"enhancedClick(findTestObject(""Recruits Page/Tasks/Add Task Recruit field""))",Chrome 88.0.4324.192,,,2021-03-08 14:57:26,2021-03-08 14:57:26,0.592s,PASSED
"enhancedClick(findTestObject(""Recruits Page/Tasks/Add Task recruit dropdown1""))",Chrome 88.0.4324.192,,,2021-03-08 14:57:26,2021-03-08 14:57:26,0.084s,PASSED
"enhancedClick(findTestObject(""Recruits Page/Tasks/Add Task Assigned To field""))",Chrome 88.0.4324.192,,,2021-03-08 14:57:26,2021-03-08 14:57:26,0.076s,PASSED
"enhancedClick(findTestObject(""Recruits Page/Tasks/Add Task Assigned To dropdown1""))",Chrome 88.0.4324.192,,,2021-03-08 14:57:26,2021-03-08 14:57:26,0.075s,PASSED
"enhancedClick(findTestObject(""Recruits Page/Tasks/Add Task Instruction field""))",Chrome 88.0.4324.192,,,2021-03-08 14:57:26,2021-03-08 14:57:27,0.090s,PASSED
"setText(findTestObject(""Recruits Page/Tasks/Add Task Instruction field""), ""test task"")",Chrome 88.0.4324.192,,,2021-03-08 14:57:27,2021-03-08 14:57:27,0.160s,PASSED
"enhancedClick(findTestObject(""Recruits Page/Tasks/Save new task""))",Chrome 88.0.4324.192,,,2021-03-08 14:57:27,2021-03-08 14:57:27,0.132s,PASSED
"verifyElementVisible(findTestObject(""Recruits Page/Tasks/Due task1 row""))",Chrome 88.0.4324.192,,,2021-03-08 14:57:27,2021-03-08 14:57:27,0.170s,PASSED
"mouseOver(findTestObject(""Recruits Page/Tasks/Due task1 ellipsis""))",Chrome 88.0.4324.192,,,2021-03-08 14:57:27,2021-03-08 14:57:27,0.231s,PASSED
"enhancedClick(findTestObject(""Recruits Page/Tasks/Due task1 ellipsis""))",Chrome 88.0.4324.192,,,2021-03-08 14:57:27,2021-03-08 14:57:27,0.083s,PASSED
"enhancedClick(findTestObject(""Recruits Page/Tasks/Mark Tasks Completed button""))",Chrome 88.0.4324.192,,,2021-03-08 14:57:27,2021-03-08 14:57:27,0.092s,PASSED
"verifyElementNotPresent(findTestObject(""Recruits Page/Tasks/Due task1 row""), 0)",Chrome 88.0.4324.192,,,2021-03-08 14:57:27,2021-03-08 14:57:28,0.565s,PASSED
closeBrowser(),Chrome 88.0.4324.192,,,2021-03-08 14:57:28,2021-03-08 14:57:28,0.080s,PASSED
,,,,,,,
Test Cases/Features/Link To FastScout,Chrome 88.0.4324.192,,,2021-03-08 14:57:28,2021-03-08 14:57:39,11.097s,FAILED
openBrowser(URL),Chrome 88.0.4324.192,,,2021-03-08 14:57:28,2021-03-08 14:57:30,1.524s,PASSED
"setText(findTestObject(""Login Page/Email""), email)",Chrome 88.0.4324.192,,,2021-03-08 14:57:30,2021-03-08 14:57:30,0.472s,PASSED
"setText(findTestObject(""Login Page/password""), password)",Chrome 88.0.4324.192,,,2021-03-08 14:57:30,2021-03-08 14:57:30,0.138s,PASSED
"click(findTestObject(""Login Page/Sign In""))",Chrome 88.0.4324.192,,,2021-03-08 14:57:30,2021-03-08 14:57:33,2.356s,PASSED
"waitForElementVisible(findTestObject(""Top Navigation Menu/Dashboard""), 60)",Chrome 88.0.4324.192,,,2021-03-08 14:57:33,2021-03-08 14:57:34,0.831s,PASSED
"click(findTestObject(""Top Navigation Menu/Recruits""))",Chrome 88.0.4324.192,,,2021-03-08 14:57:34,2021-03-08 14:57:34,0.219s,PASSED
"click(findTestObject(""Recruits Page/ADD RECRUIT button""))",Chrome 88.0.4324.192,,,2021-03-08 14:57:34,2021-03-08 14:57:34,0.155s,PASSED
"enhancedClick(findTestObject(""Recruits Page/Add New Recruit modal/LinkToFastScout Folder/Link To FastScout button""))",Chrome 88.0.4324.192,,,2021-03-08 14:57:34,2021-03-08 14:57:35,1.224s,PASSED
"enhancedClick(findTestObject(""Recruits Page/Add New Recruit modal/LinkToFastScout Folder/League_Division dropdown""))",Chrome 88.0.4324.192,,,2021-03-08 14:57:35,2021-03-08 14:57:35,0.167s,PASSED
"enhancedClick(findTestObject(""Recruits Page/Add New Recruit modal/LinkToFastScout Folder/D-II League""))",Chrome 88.0.4324.192,,,2021-03-08 14:57:35,2021-03-08 14:57:35,0.121s,PASSED
"enhancedClick(findTestObject(""Recruits Page/Add New Recruit modal/LinkToFastScout Folder/Team dropdown (LFS)""))",Chrome 88.0.4324.192,,,2021-03-08 14:57:35,2021-03-08 14:57:36,0.117s,PASSED
"enhancedClick(findTestObject(""Recruits Page/Add New Recruit modal/LinkToFastScout Folder/Florida Southern (LFS)""))",Chrome 88.0.4324.192,,,2021-03-08 14:57:36,2021-03-08 14:57:36,0.134s,PASSED
"enhancedClick(findTestObject(""Recruits Page/Add New Recruit modal/LinkToFastScout Folder/Player dropdown (LFS)""))",Chrome 88.0.4324.192,,,2021-03-08 14:57:36,2021-03-08 14:57:36,0.128s,PASSED
"enhancedClick(findTestObject(""Recruits Page/Add New Recruit modal/LinkToFastScout Folder/Player10 (LFS)""))",Chrome 88.0.4324.192,,,2021-03-08 14:57:36,2021-03-08 14:57:36,0.133s,PASSED
"click(findTestObject(""Recruits Page/Add New Recruit modal/SAVE button""))",Chrome 88.0.4324.192,,,2021-03-08 14:57:36,2021-03-08 14:57:36,0.233s,PASSED
"setText(findTestObject(""Recruits Page/Recruit Search Field on Recruits page""), ""Wes Bongiorni"")",Chrome 88.0.4324.192,,,2021-03-08 14:57:36,2021-03-08 14:57:36,0.213s,PASSED
delay(1),Chrome 88.0.4324.192,,,2021-03-08 14:57:36,2021-03-08 14:57:37,1.003s,PASSED
"click(findTestObject(""Recruits Page/Archive recruit""))",Chrome 88.0.4324.192,,,2021-03-08 14:57:37,2021-03-08 14:57:39,1.750s,FAILED
,,,,,,,
Test Cases/Features/Video,Chrome 88.0.4324.192,,,2021-03-08 14:57:39,2021-03-08 14:58:23,44.093s,FAILED
openBrowser(URL),Chrome 88.0.4324.192,,,2021-03-08 14:57:39,2021-03-08 14:57:41,2.059s,PASSED
"setText(findTestObject(""Login Page/Email""), email)",Chrome 88.0.4324.192,,,2021-03-08 14:57:41,2021-03-08 14:57:42,0.565s,PASSED
"setText(findTestObject(""Login Page/password""), password)",Chrome 88.0.4324.192,,,2021-03-08 14:57:42,2021-03-08 14:57:42,0.171s,PASSED
"click(findTestObject(""Login Page/Sign In""))",Chrome 88.0.4324.192,,,2021-03-08 14:57:42,2021-03-08 14:57:45,2.335s,PASSED
"waitForElementVisible(findTestObject(""Top Navigation Menu/Dashboard""), 60)",Chrome 88.0.4324.192,,,2021-03-08 14:57:45,2021-03-08 14:57:45,0.632s,PASSED
"enhancedClick(findTestObject(""Top Navigation Menu/Recruits""))",Chrome 88.0.4324.192,,,2021-03-08 14:57:45,2021-03-08 14:57:45,0.131s,PASSED
"enhancedClick(findTestObject(""Recruits Page/Recruit Row1 Name""))",Chrome 88.0.4324.192,,,2021-03-08 14:57:45,2021-03-08 14:57:47,1.479s,PASSED
"enhancedClick(findTestObject(""Recruits Page/Recruit Profile (View)/VIDEOS tab""))",Chrome 88.0.4324.192,,,2021-03-08 14:57:47,2021-03-08 14:57:47,0.109s,PASSED
"uploadFile(findTestObject(""Recruit Profile (view)/Video Upload object""), ""/Users/jefffeldman/Desktop/Vids/NBA Playoffs 2019.mp4"")",Chrome 88.0.4324.192,,,2021-03-08 14:57:47,2021-03-08 14:57:47,0.108s,PASSED
"verifyElementPresent(findTestObject(""Recruit Profile (view)/Recruit Video row1""), 0)",Chrome 88.0.4324.192,,,2021-03-08 14:57:47,2021-03-08 14:57:49,1.749s,PASSED
delay(2),Chrome 88.0.4324.192,,,2021-03-08 14:57:49,2021-03-08 14:57:51,2.003s,PASSED
"mouseOver(findTestObject(""Recruit Profile (view)/Recruit Video row1""))",Chrome 88.0.4324.192,,,2021-03-08 14:57:51,2021-03-08 14:57:51,0.184s,PASSED
"enhancedClick(findTestObject(""Recruit Profile (view)/Delete Video Row1""))",Chrome 88.0.4324.192,,,2021-03-08 14:57:51,2021-03-08 14:57:51,0.117s,PASSED
"enhancedClick(findTestObject(""Recruit Profile (view)/Confirm Delete Video""))",Chrome 88.0.4324.192,,,2021-03-08 14:57:51,2021-03-08 14:58:23,32.227s,FAILED
,,,,,,,
Test Cases/Features/FastConnect,Chrome 88.0.4324.192,,,2021-03-08 14:58:23,2021-03-08 14:58:52,29.170s,PASSED
openBrowser(URL),Chrome 88.0.4324.192,,,2021-03-08 14:58:23,2021-03-08 14:58:25,1.937s,PASSED
"setText(findTestObject(""Login Page/Email""), email)",Chrome 88.0.4324.192,,,2021-03-08 14:58:25,2021-03-08 14:58:26,0.491s,PASSED
"setText(findTestObject(""Login Page/password""), password)",Chrome 88.0.4324.192,,,2021-03-08 14:58:26,2021-03-08 14:58:26,0.125s,PASSED
"click(findTestObject(""Login Page/Sign In""))",Chrome 88.0.4324.192,,,2021-03-08 14:58:26,2021-03-08 14:58:29,2.767s,PASSED
"waitForElementVisible(findTestObject(""Top Navigation Menu/Dashboard""), 60)",Chrome 88.0.4324.192,,,2021-03-08 14:58:29,2021-03-08 14:58:29,0.604s,PASSED
"enhancedClick(findTestObject(""Top Navigation Menu/Recruits""))",Chrome 88.0.4324.192,,,2021-03-08 14:58:29,2021-03-08 14:58:30,0.141s,PASSED
"enhancedClick(findTestObject(""Recruits Page/FastConnect tab""))",Chrome 88.0.4324.192,,,2021-03-08 14:58:30,2021-03-08 14:58:30,0.128s,PASSED
"enhancedClick(findTestObject(""Recruits Page/FastConnect/List dropdown""))",Chrome 88.0.4324.192,,,2021-03-08 14:58:30,2021-03-08 14:58:30,0.098s,PASSED
"enhancedClick(findTestObject(""Recruits Page/FastConnect/All Recruits list dropdown""))",Chrome 88.0.4324.192,,,2021-03-08 14:58:30,2021-03-08 14:58:30,0.582s,PASSED
delay(10),Chrome 88.0.4324.192,,,2021-03-08 14:58:30,2021-03-08 14:58:40,10.007s,PASSED
"verifyElementVisible(findTestObject(""Recruits Page/FastConnect/Fastconnect post1""), STOP_ON_FAILURE)",Chrome 88.0.4324.192,,,2021-03-08 14:58:40,2021-03-08 14:58:52,12.100s,PASSED
,,,,,,,
Test Cases/Tourney Workflow,Chrome 88.0.4324.192,,,2021-03-08 14:58:52,2021-03-08 14:59:11,18.957s,PASSED
openBrowser(URL),Chrome 88.0.4324.192,,,2021-03-08 14:58:53,2021-03-08 14:58:55,2.600s,PASSED
"setText(findTestObject(""Login Page/Email""), email)",Chrome 88.0.4324.192,,,2021-03-08 14:58:55,2021-03-08 14:58:55,0.153s,PASSED
"setText(findTestObject(""Login Page/password""), password)",Chrome 88.0.4324.192,,,2021-03-08 14:58:55,2021-03-08 14:58:55,0.102s,PASSED
"click(findTestObject(""Login Page/Sign In""))",Chrome 88.0.4324.192,,,2021-03-08 14:58:55,2021-03-08 14:58:58,2.227s,PASSED
"waitForElementVisible(findTestObject(""Top Navigation Menu/Dashboard""), 60)",Chrome 88.0.4324.192,,,2021-03-08 14:58:58,2021-03-08 14:58:58,0.526s,PASSED
"enhancedClick(findTestObject(""Top Navigation Menu/Tourneys""))",Chrome 88.0.4324.192,,,2021-03-08 14:58:58,2021-03-08 14:58:58,0.103s,PASSED
"enhancedClick(findTestObject(""Tourneys page/Tourney list dropdown""))",Chrome 88.0.4324.192,,,2021-03-08 14:58:58,2021-03-08 14:58:59,1.165s,PASSED
enhancedClick(tourneySession),Chrome 88.0.4324.192,,,2021-03-08 14:58:59,2021-03-08 14:59:00,0.161s,PASSED
"enhancedClick(findTestObject(""Tourneys page/Tourneys header""))",Chrome 88.0.4324.192,,,2021-03-08 14:59:00,2021-03-08 14:59:00,0.104s,PASSED
"enhancedClick(findTestObject(""Tourneys page/Tourney1 listed""))",Chrome 88.0.4324.192,,,2021-03-08 14:59:00,2021-03-08 14:59:00,0.117s,PASSED
"enhancedClick(findTestObject(""Tourneys page/Assign Staff button""))",Chrome 88.0.4324.192,,,2021-03-08 14:59:00,2021-03-08 14:59:00,0.144s,PASSED
"enhancedClick(findTestObject(""Tourneys page/Assign Staff User1 checkbox""))",Chrome 88.0.4324.192,,,2021-03-08 14:59:00,2021-03-08 14:59:00,0.098s,PASSED
"enhancedClick(findTestObject(""Tourneys page/Assign Staff SAVE button""))",Chrome 88.0.4324.192,,,2021-03-08 14:59:00,2021-03-08 14:59:00,0.081s,PASSED
delay(1),Chrome 88.0.4324.192,,,2021-03-08 14:59:00,2021-03-08 14:59:01,1.005s,PASSED
"enhancedClick(findTestObject(""Tourneys page/Assign Recruits button""))",Chrome 88.0.4324.192,,,2021-03-08 14:59:01,2021-03-08 14:59:01,0.106s,PASSED
"enhancedClick(findTestObject(""Tourneys page/Select Recruits dropdown""))",Chrome 88.0.4324.192,,,2021-03-08 14:59:01,2021-03-08 14:59:02,0.625s,PASSED
"enhancedClick(findTestObject(""Tourneys page/Assign Recruits dropdown list1""))",Chrome 88.0.4324.192,,,2021-03-08 14:59:02,2021-03-08 14:59:02,0.079s,PASSED
"enhancedClick(findTestObject(""Tourneys page/Assign Recruits SAVE button""))",Chrome 88.0.4324.192,,,2021-03-08 14:59:02,2021-03-08 14:59:02,0.073s,PASSED
"enhancedClick(findTestObject(""Tourneys page/Select Tourney Team dropdown""))",Chrome 88.0.4324.192,,,2021-03-08 14:59:02,2021-03-08 14:59:02,0.342s,PASSED
"enhancedClick(findTestObject(""Tourneys page/Select Tourney Team dropdown1""))",Chrome 88.0.4324.192,,,2021-03-08 14:59:02,2021-03-08 14:59:03,0.083s,PASSED
delay(2),Chrome 88.0.4324.192,,,2021-03-08 14:59:03,2021-03-08 14:59:05,2.006s,PASSED
"enhancedClick(findTestObject(""Tourneys page/Tourney GAMES tab""))",Chrome 88.0.4324.192,,,2021-03-08 14:59:05,2021-03-08 14:59:05,0.094s,PASSED
delay(3),Chrome 88.0.4324.192,,,2021-03-08 14:59:05,2021-03-08 14:59:08,3.007s,PASSED
"verifyElementPresent(findTestObject(""Tourneys page/GAMES tab row1""), 0)",Chrome 88.0.4324.192,,,2021-03-08 14:59:08,2021-03-08 14:59:08,0.048s,PASSED
"gameDate = getText(findTestObject(""Tourneys page/GAMES tab row1 Date""))",Chrome 88.0.4324.192,,,2021-03-08 14:59:08,2021-03-08 14:59:08,0.058s,PASSED
"enhancedClick(findTestObject(""Top Navigation Menu/Schedule""))",Chrome 88.0.4324.192,,,2021-03-08 14:59:08,2021-03-08 14:59:08,0.133s,PASSED
"enhancedClick(findTestObject(""Schedule Page/Calendar from date filter""))",Chrome 88.0.4324.192,,,2021-03-08 14:59:08,2021-03-08 14:59:08,0.102s,PASSED
"sendKeys(findTestObject(""Schedule Page/Calendar from date filter""), Keys.chord(BACK_SPACE))",Chrome 88.0.4324.192,,,2021-03-08 14:59:08,2021-03-08 14:59:08,0.073s,PASSED
"sendKeys(findTestObject(""Schedule Page/Calendar from date filter""), Keys.chord(BACK_SPACE))",Chrome 88.0.4324.192,,,2021-03-08 14:59:08,2021-03-08 14:59:08,0.073s,PASSED
"sendKeys(findTestObject(""Schedule Page/Calendar from date filter""), Keys.chord(BACK_SPACE))",Chrome 88.0.4324.192,,,2021-03-08 14:59:08,2021-03-08 14:59:08,0.065s,PASSED
"sendKeys(findTestObject(""Schedule Page/Calendar from date filter""), Keys.chord(BACK_SPACE))",Chrome 88.0.4324.192,,,2021-03-08 14:59:08,2021-03-08 14:59:08,0.064s,PASSED
"sendKeys(findTestObject(""Schedule Page/Calendar from date filter""), Keys.chord(BACK_SPACE))",Chrome 88.0.4324.192,,,2021-03-08 14:59:08,2021-03-08 14:59:08,0.063s,PASSED
"sendKeys(findTestObject(""Schedule Page/Calendar from date filter""), Keys.chord(BACK_SPACE))",Chrome 88.0.4324.192,,,2021-03-08 14:59:08,2021-03-08 14:59:08,0.064s,PASSED
"sendKeys(findTestObject(""Schedule Page/Calendar from date filter""), Keys.chord(BACK_SPACE))",Chrome 88.0.4324.192,,,2021-03-08 14:59:08,2021-03-08 14:59:08,0.067s,PASSED
"sendKeys(findTestObject(""Schedule Page/Calendar from date filter""), Keys.chord(BACK_SPACE))",Chrome 88.0.4324.192,,,2021-03-08 14:59:08,2021-03-08 14:59:08,0.081s,PASSED
"sendKeys(findTestObject(""Schedule Page/Calendar from date filter""), Keys.chord(BACK_SPACE))",Chrome 88.0.4324.192,,,2021-03-08 14:59:08,2021-03-08 14:59:09,0.097s,PASSED
"setText(findTestObject(""Schedule Page/Calendar from date filter""), gameDate)",Chrome 88.0.4324.192,,,2021-03-08 14:59:09,2021-03-08 14:59:09,0.183s,PASSED
"sendKeys(findTestObject(""Schedule Page/Calendar from date filter""), Keys.chord(ENTER))",Chrome 88.0.4324.192,,,2021-03-08 14:59:09,2021-03-08 14:59:09,0.084s,PASSED
"verifyElementPresent(findTestObject(""Schedule Page/Row1 on Schedule List""), 0)",Chrome 88.0.4324.192,,,2021-03-08 14:59:09,2021-03-08 14:59:09,0.042s,PASSED
"enhancedClick(findTestObject(""Top Navigation Menu/Tourneys""))",Chrome 88.0.4324.192,,,2021-03-08 14:59:09,2021-03-08 14:59:09,0.094s,PASSED
"enhancedClick(findTestObject(""Tourneys page/Tourney list dropdown""))",Chrome 88.0.4324.192,,,2021-03-08 14:59:09,2021-03-08 14:59:10,0.529s,PASSED
enhancedClick(tourneySession),Chrome 88.0.4324.192,,,2021-03-08 14:59:10,2021-03-08 14:59:10,0.076s,PASSED
"enhancedClick(findTestObject(""Tourneys page/Tourneys header""))",Chrome 88.0.4324.192,,,2021-03-08 14:59:10,2021-03-08 14:59:10,0.058s,PASSED
"enhancedClick(findTestObject(""Tourneys page/Tourney1 listed""))",Chrome 88.0.4324.192,,,2021-03-08 14:59:10,2021-03-08 14:59:10,0.111s,PASSED
"enhancedClick(findTestObject(""Tourneys page/Edit Assign Staff Pencil""))",Chrome 88.0.4324.192,,,2021-03-08 14:59:10,2021-03-08 14:59:10,0.194s,PASSED
"enhancedClick(findTestObject(""Tourneys page/Assign Staff User1 checkbox""))",Chrome 88.0.4324.192,,,2021-03-08 14:59:10,2021-03-08 14:59:10,0.091s,PASSED
"enhancedClick(findTestObject(""Tourneys page/Assign Staff SAVE button""))",Chrome 88.0.4324.192,,,2021-03-08 14:59:10,2021-03-08 14:59:10,0.071s,PASSED
delay(1),Chrome 88.0.4324.192,,,2021-03-08 14:59:10,2021-03-08 14:59:11,1.005s,PASSED
"enhancedClick(findTestObject(""Tourneys page/Delete Attending Recruit1""))",Chrome 88.0.4324.192,,,2021-03-08 14:59:11,2021-03-08 14:59:11,0.081s,PASSED
"enhancedClick(findTestObject(""Tourneys page/Confirm Delete Attending Recruit1""))",Chrome 88.0.4324.192,,,2021-03-08 14:59:11,2021-03-08 14:59:11,0.087s,PASSED
closeBrowser(),Chrome 88.0.4324.192,,,2021-03-08 14:59:11,2021-03-08 14:59:11,0.080s,PASSED
