Suite/Test/Step Name,Browser,Description,Tag,Start time,End time,Duration,Status
Regression Tests,Chrome 89.0.4389.90,,,2021-03-24 14:53:13,2021-03-24 14:57:51,4m - 38.395s,FAILED
,,,,,,,
Test Cases/Draft Board,Chrome 89.0.4389.90,,,2021-03-24 14:53:13,2021-03-24 14:54:03,49.409s,FAILED
openBrowser(URL),Chrome 89.0.4389.90,,,2021-03-24 14:53:13,2021-03-24 14:53:17,3.223s,PASSED
"setViewPortSize(1440, 841)",Chrome 89.0.4389.90,,,2021-03-24 14:53:17,2021-03-24 14:53:17,0.130s,PASSED
"setText(findTestObject(""Login Page/Email""), email)",Chrome 89.0.4389.90,,,2021-03-24 14:53:17,2021-03-24 14:53:17,0.222s,PASSED
"setText(findTestObject(""Login Page/password""), password)",Chrome 89.0.4389.90,,,2021-03-24 14:53:17,2021-03-24 14:53:17,0.118s,PASSED
"click(findTestObject(""Login Page/Sign In""))",Chrome 89.0.4389.90,,,2021-03-24 14:53:17,2021-03-24 14:53:20,3.025s,PASSED
"waitForElementVisible(findTestObject(""Top Navigation Menu/Dashboard""), 60)",Chrome 89.0.4389.90,,,2021-03-24 14:53:20,2021-03-24 14:53:21,0.873s,PASSED
"enhancedClick(findTestObject(""Top Navigation Menu/Dashboard""))",Chrome 89.0.4389.90,,,2021-03-24 14:53:21,2021-03-24 14:53:21,0.215s,PASSED
delay(3),Chrome 89.0.4389.90,,,2021-03-24 14:53:21,2021-03-24 14:53:24,3.029s,PASSED
"mouseOver(findTestObject(""Dashboard Page/Draft Board (Dashboard)/blank 1-PG on Draft Board (Dashboard)""))",Chrome 89.0.4389.90,,,2021-03-24 14:53:24,2021-03-24 14:53:25,0.370s,PASSED
"enhancedClick(findTestObject(""Dashboard Page/Draft Board (Dashboard)/blank 1-PG on Draft Board (Dashboard)""))",Chrome 89.0.4389.90,,,2021-03-24 14:53:25,2021-03-24 14:53:25,0.094s,PASSED
"enhancedClick(findTestObject(""Dashboard Page/Draft Board (Dashboard)/Draft Board Dropdown Player1""))",Chrome 89.0.4389.90,,,2021-03-24 14:53:25,2021-03-24 14:53:25,0.198s,PASSED
"mouseOver(findTestObject(""Dashboard Page/Draft Board (Dashboard)/1-PG on Draft Board""))",Chrome 89.0.4389.90,,,2021-03-24 14:53:25,2021-03-24 14:53:25,0.289s,PASSED
"enhancedClick(findTestObject(""Dashboard Page/Draft Board (Dashboard)/1-PG on Draft Board""))",Chrome 89.0.4389.90,,,2021-03-24 14:53:25,2021-03-24 14:53:25,0.150s,PASSED
delay(1),Chrome 89.0.4389.90,,,2021-03-24 14:53:25,2021-03-24 14:53:26,1.007s,PASSED
"enhancedClick(findTestObject(""Recruit Profile (view)/Alerts button""))",Chrome 89.0.4389.90,,,2021-03-24 14:53:26,2021-03-24 14:53:26,0.094s,PASSED
"enhancedClick(findTestObject(""Recruit Profile (view)/CLOSE button""))",Chrome 89.0.4389.90,,,2021-03-24 14:53:26,2021-03-24 14:53:27,0.113s,PASSED
"verifyElementVisible(findTestObject(""Dashboard Page/Draft Board (Dashboard)/Alerts bell indicator""))",Chrome 89.0.4389.90,,,2021-03-24 14:53:27,2021-03-24 14:53:27,0.078s,PASSED
"mouseOver(findTestObject(""Dashboard Page/Draft Board (Dashboard)/1-PG on Draft Board""))",Chrome 89.0.4389.90,,,2021-03-24 14:53:27,2021-03-24 14:53:27,0.178s,PASSED
"enhancedClick(findTestObject(""Dashboard Page/Draft Board (Dashboard)/1-PG on Draft Board""))",Chrome 89.0.4389.90,,,2021-03-24 14:53:27,2021-03-24 14:53:27,0.174s,PASSED
"enhancedClick(findTestObject(""Recruit Profile (view)/Alerts button""))",Chrome 89.0.4389.90,,,2021-03-24 14:53:27,2021-03-24 14:53:27,0.102s,PASSED
"mouseOver(findTestObject(""Dashboard Page/Draft Board (Dashboard)/1-PG on Draft Board""))",Chrome 89.0.4389.90,,,2021-03-24 14:53:27,2021-03-24 14:53:27,0.206s,PASSED
"enhancedClick(findTestObject(""Recruit Profile (view)/CLOSE button""))",Chrome 89.0.4389.90,,,2021-03-24 14:53:27,2021-03-24 14:53:27,0.118s,PASSED
delay(1),Chrome 89.0.4389.90,,,2021-03-24 14:53:27,2021-03-24 14:53:28,1.007s,PASSED
"verifyElementNotPresent(findTestObject(""Dashboard Page/Draft Board (Dashboard)/Alerts bell indicator""), 0)",Chrome 89.0.4389.90,,,2021-03-24 14:53:28,2021-03-24 14:53:29,0.098s,PASSED
"mouseOver(findTestObject(""Dashboard Page/Draft Board (Dashboard)/1-PG on Draft Board""))",Chrome 89.0.4389.90,,,2021-03-24 14:53:29,2021-03-24 14:53:29,0.192s,PASSED
"enhancedClick(findTestObject(""Dashboard Page/Draft Board (Dashboard)/Delete 1-PG on Draft Board""))",Chrome 89.0.4389.90,,,2021-03-24 14:53:29,2021-03-24 14:53:29,0.110s,PASSED
"enhancedClick(findTestObject(""Dashboard Page/Draft Board (Dashboard)/Draft Board Season Dropdown""))",Chrome 89.0.4389.90,,,2021-03-24 14:53:29,2021-03-24 14:53:29,0.086s,PASSED
"enhancedClick(findTestObject(""Dashboard Page/Draft Board (Dashboard)/Draft Board Season Dropdown - 2023""))",Chrome 89.0.4389.90,,,2021-03-24 14:53:29,2021-03-24 14:53:29,0.133s,PASSED
"mouseOver(findTestObject(""Dashboard Page/Draft Board (Dashboard)/blank 1-PG on Draft Board (Dashboard)""))",Chrome 89.0.4389.90,,,2021-03-24 14:53:29,2021-03-24 14:53:29,0.205s,PASSED
"enhancedClick(findTestObject(""Dashboard Page/Draft Board (Dashboard)/blank 1-PG on Draft Board (Dashboard)""))",Chrome 89.0.4389.90,,,2021-03-24 14:53:29,2021-03-24 14:53:29,0.081s,PASSED
"enhancedClick(findTestObject(""Dashboard Page/Draft Board (Dashboard)/Draft Board Dropdown Player1""))",Chrome 89.0.4389.90,,,2021-03-24 14:53:29,2021-03-24 14:53:30,0.251s,PASSED
delay(1),Chrome 89.0.4389.90,,,2021-03-24 14:53:30,2021-03-24 14:53:31,1.006s,PASSED
"mouseOver(findTestObject(""Dashboard Page/Draft Board (Dashboard)/blank 2-PG on Draft Board (Dashboard)""))",Chrome 89.0.4389.90,,,2021-03-24 14:53:31,2021-03-24 14:53:31,0.163s,PASSED
"enhancedClick(findTestObject(""Dashboard Page/Draft Board (Dashboard)/blank 2-PG on Draft Board (Dashboard)""))",Chrome 89.0.4389.90,,,2021-03-24 14:53:31,2021-03-24 14:53:31,0.097s,PASSED
"enhancedClick(findTestObject(""Dashboard Page/Draft Board (Dashboard)/Recruit Search field""))",Chrome 89.0.4389.90,,,2021-03-24 14:53:31,2021-03-24 14:53:31,0.099s,PASSED
"sendKeys(findTestObject(""Dashboard Page/Draft Board (Dashboard)/Recruit Search field""), ""Mikey Williams"")",Chrome 89.0.4389.90,,,2021-03-24 14:53:31,2021-03-24 14:54:03,31.562s,FAILED
,,,,,,,
Test Cases/Depth Chart,Chrome 89.0.4389.90,,,2021-03-24 14:54:03,2021-03-24 14:54:16,13.306s,PASSED
openBrowser(URL),Chrome 89.0.4389.90,,,2021-03-24 14:54:03,2021-03-24 14:54:04,1.758s,PASSED
"setText(findTestObject(""Login Page/Email""), email)",Chrome 89.0.4389.90,,,2021-03-24 14:54:04,2021-03-24 14:54:05,0.163s,PASSED
"setText(findTestObject(""Login Page/password""), password)",Chrome 89.0.4389.90,,,2021-03-24 14:54:05,2021-03-24 14:54:05,0.116s,PASSED
"click(findTestObject(""Login Page/Sign In""))",Chrome 89.0.4389.90,,,2021-03-24 14:54:05,2021-03-24 14:54:07,2.405s,PASSED
"waitForElementVisible(findTestObject(""Top Navigation Menu/Dashboard""), 60)",Chrome 89.0.4389.90,,,2021-03-24 14:54:07,2021-03-24 14:54:08,0.594s,PASSED
"enhancedClick(findTestObject(""Top Navigation Menu/Dashboard""))",Chrome 89.0.4389.90,,,2021-03-24 14:54:08,2021-03-24 14:54:08,0.096s,PASSED
delay(3),Chrome 89.0.4389.90,,,2021-03-24 14:54:08,2021-03-24 14:54:11,3.007s,PASSED
"enhancedClick(findTestObject(""Dashboard Page/Depth Chart/Depth Chart season dropdown""))",Chrome 89.0.4389.90,,,2021-03-24 14:54:11,2021-03-24 14:54:11,0.111s,PASSED
"enhancedClick(findTestObject(""Dashboard Page/Depth Chart/Season Dropdown Index3""))",Chrome 89.0.4389.90,,,2021-03-24 14:54:11,2021-03-24 14:54:11,0.143s,PASSED
"enhancedClick(findTestObject(""Dashboard Page/Depth Chart/Depth Chart season dropdown""))",Chrome 89.0.4389.90,,,2021-03-24 14:54:11,2021-03-24 14:54:11,0.086s,PASSED
"enhancedClick(findTestObject(""Dashboard Page/Depth Chart/Season Dropdown Index2""))",Chrome 89.0.4389.90,,,2021-03-24 14:54:11,2021-03-24 14:54:11,0.128s,PASSED
"enhancedClick(findTestObject(""Dashboard Page/Depth Chart/EDIT Depth Chart""))",Chrome 89.0.4389.90,,,2021-03-24 14:54:11,2021-03-24 14:54:11,0.178s,PASSED
"enhancedClick(findTestObject(""Dashboard Page/Depth Chart/Depth Chart Edit (sr, pg, 1)""))",Chrome 89.0.4389.90,,,2021-03-24 14:54:11,2021-03-24 14:54:12,0.260s,PASSED
"enhancedClick(findTestObject(""Dashboard Page/Depth Chart/SAVE Depth Chart""))",Chrome 89.0.4389.90,,,2021-03-24 14:54:12,2021-03-24 14:54:12,0.181s,PASSED
delay(2),Chrome 89.0.4389.90,,,2021-03-24 14:54:12,2021-03-24 14:54:14,2.006s,PASSED
"verifyTextNotPresent(playerHidden, false)",Chrome 89.0.4389.90,,,2021-03-24 14:54:14,2021-03-24 14:54:14,0.125s,PASSED
"enhancedClick(findTestObject(""Dashboard Page/Depth Chart/EDIT Depth Chart""))",Chrome 89.0.4389.90,,,2021-03-24 14:54:14,2021-03-24 14:54:14,0.145s,PASSED
"enhancedClick(findTestObject(""Dashboard Page/Depth Chart/Depth Chart Edit (sr, pg, 1)""))",Chrome 89.0.4389.90,,,2021-03-24 14:54:14,2021-03-24 14:54:14,0.225s,PASSED
"enhancedClick(findTestObject(""Dashboard Page/Depth Chart/SAVE Depth Chart""))",Chrome 89.0.4389.90,,,2021-03-24 14:54:14,2021-03-24 14:54:15,0.145s,PASSED
"verifyTextPresent(playerHidden, false)",Chrome 89.0.4389.90,,,2021-03-24 14:54:15,2021-03-24 14:54:15,0.212s,PASSED
delay(1),Chrome 89.0.4389.90,,,2021-03-24 14:54:15,2021-03-24 14:54:16,1.006s,PASSED
closeBrowser(),Chrome 89.0.4389.90,,,2021-03-24 14:54:16,2021-03-24 14:54:16,0.087s,PASSED
,,,,,,,
Test Cases/Dashboard Calendar,Chrome 89.0.4389.90,,,2021-03-24 14:54:16,2021-03-24 14:54:48,31.723s,FAILED
openBrowser(URL),Chrome 89.0.4389.90,,,2021-03-24 14:54:16,2021-03-24 14:54:18,1.732s,PASSED
"setText(findTestObject(""Login Page/Email""), email)",Chrome 89.0.4389.90,,,2021-03-24 14:54:18,2021-03-24 14:54:18,0.151s,PASSED
"setText(findTestObject(""Login Page/password""), password)",Chrome 89.0.4389.90,,,2021-03-24 14:54:18,2021-03-24 14:54:18,0.102s,PASSED
"click(findTestObject(""Login Page/Sign In""))",Chrome 89.0.4389.90,,,2021-03-24 14:54:18,2021-03-24 14:54:20,2.429s,PASSED
"waitForElementVisible(findTestObject(""Top Navigation Menu/Dashboard""), 60)",Chrome 89.0.4389.90,,,2021-03-24 14:54:20,2021-03-24 14:54:21,0.919s,PASSED
"enhancedClick(findTestObject(""Top Navigation Menu/Recruits""))",Chrome 89.0.4389.90,,,2021-03-24 14:54:21,2021-03-24 14:54:21,0.166s,PASSED
delay(3),Chrome 89.0.4389.90,,,2021-03-24 14:54:21,2021-03-24 14:54:24,3.003s,PASSED
"enhancedClick(findTestObject(""Top Navigation Menu/Dashboard""))",Chrome 89.0.4389.90,,,2021-03-24 14:54:24,2021-03-24 14:54:25,0.258s,PASSED
delay(3),Chrome 89.0.4389.90,,,2021-03-24 14:54:25,2021-03-24 14:54:28,3.006s,PASSED
"enhancedClick(findTestObject(""Dashboard Page/Calendar (Dashboard)/Toggle Left (Calendar Dashboard)""))",Chrome 89.0.4389.90,,,2021-03-24 14:54:28,2021-03-24 14:54:28,0.104s,PASSED
delay(5),Chrome 89.0.4389.90,,,2021-03-24 14:54:28,2021-03-24 14:54:33,5.003s,PASSED
"enhancedClick(findTestObject(""Dashboard Page/Calendar (Dashboard)/Toggle Right (Calendar Dashboard)""))",Chrome 89.0.4389.90,,,2021-03-24 14:54:33,2021-03-24 14:54:35,2.421s,PASSED
delay(5),Chrome 89.0.4389.90,,,2021-03-24 14:54:35,2021-03-24 14:54:40,5.007s,PASSED
"enhancedClick(findTestObject(""Dashboard Page/Calendar (Dashboard)/Dashboard Calendar SHOW dropdown""))",Chrome 89.0.4389.90,,,2021-03-24 14:54:40,2021-03-24 14:54:40,0.089s,PASSED
"enhancedClick(findTestObject(""Dashboard Page/Calendar (Dashboard)/My Calendar option""))",Chrome 89.0.4389.90,,,2021-03-24 14:54:40,2021-03-24 14:54:42,1.258s,PASSED
"enhancedClick(findTestObject(""Dashboard Page/Calendar (Dashboard)/My Calendar option""))",Chrome 89.0.4389.90,,,2021-03-24 14:54:42,2021-03-24 14:54:42,0.062s,PASSED
"enhancedClick(findTestObject(""Dashboard Page/Calendar (Dashboard)/Team calendar option""))",Chrome 89.0.4389.90,,,2021-03-24 14:54:42,2021-03-24 14:54:42,0.072s,PASSED
"enhancedClick(findTestObject(""Dashboard Page/Calendar (Dashboard)/Team calendar option""))",Chrome 89.0.4389.90,,,2021-03-24 14:54:42,2021-03-24 14:54:42,0.060s,PASSED
"enhancedClick(findTestObject(""Dashboard Page/Calendar (Dashboard)/Tasks calendar option""))",Chrome 89.0.4389.90,,,2021-03-24 14:54:42,2021-03-24 14:54:42,0.074s,PASSED
"enhancedClick(findTestObject(""Dashboard Page/Calendar (Dashboard)/Tasks calendar option""))",Chrome 89.0.4389.90,,,2021-03-24 14:54:42,2021-03-24 14:54:42,0.080s,PASSED
"enhancedClick(findTestObject(""Dashboard Page/Calendar (Dashboard)/NCAA Calendar option""))",Chrome 89.0.4389.90,,,2021-03-24 14:54:42,2021-03-24 14:54:42,0.079s,PASSED
"enhancedClick(findTestObject(""Dashboard Page/Calendar (Dashboard)/NCAA Calendar option""))",Chrome 89.0.4389.90,,,2021-03-24 14:54:42,2021-03-24 14:54:42,0.066s,PASSED
"enhancedClick(findTestObject(""Dashboard Page/Calendar (Dashboard)/My Live Period calendar option""))",Chrome 89.0.4389.90,,,2021-03-24 14:54:42,2021-03-24 14:54:42,0.072s,PASSED
"enhancedClick(findTestObject(""Dashboard Page/Calendar (Dashboard)/My Live Period calendar option""))",Chrome 89.0.4389.90,,,2021-03-24 14:54:42,2021-03-24 14:54:42,0.062s,PASSED
"enhancedClick(findTestObject(""Dashboard Page/Calendar (Dashboard)/Dashboard Calendar SHOW dropdown""))",Chrome 89.0.4389.90,,,2021-03-24 14:54:42,2021-03-24 14:54:42,0.061s,PASSED
"enhancedClick(findTestObject(""Dashboard Page/Calendar (Dashboard)/Dashboard Calendar Add New""))",Chrome 89.0.4389.90,,,2021-03-24 14:54:42,2021-03-24 14:54:42,0.139s,PASSED
"enhancedClick(findTestObject(""Dashboard Page/Calendar (Dashboard)/Add Event modal/Event Name field""))",Chrome 89.0.4389.90,,,2021-03-24 14:54:42,2021-03-24 14:54:43,0.105s,PASSED
"sendKeys(findTestObject(""Dashboard Page/Calendar (Dashboard)/Add Event modal/Event Name field""), ""Test Event1"")",Chrome 89.0.4389.90,,,2021-03-24 14:54:43,2021-03-24 14:54:43,0.093s,PASSED
"enhancedClick(findTestObject(""Dashboard Page/Calendar (Dashboard)/Add Event modal/Event Location field""))",Chrome 89.0.4389.90,,,2021-03-24 14:54:43,2021-03-24 14:54:43,0.093s,PASSED
"sendKeys(findTestObject(""Dashboard Page/Calendar (Dashboard)/Add Event modal/Event Location field""), ""444 N. Michigan Ave"")",Chrome 89.0.4389.90,,,2021-03-24 14:54:43,2021-03-24 14:54:43,0.100s,PASSED
delay(1),Chrome 89.0.4389.90,,,2021-03-24 14:54:43,2021-03-24 14:54:44,1.006s,PASSED
"enhancedClick(findTestObject(""Dashboard Page/Calendar (Dashboard)/Add Event modal/Select searched location""))",Chrome 89.0.4389.90,,,2021-03-24 14:54:44,2021-03-24 14:54:44,0.093s,PASSED
"enhancedClick(findTestObject(""Dashboard Page/Calendar (Dashboard)/Add Event modal/Select Recruits dropdown""))",Chrome 89.0.4389.90,,,2021-03-24 14:54:44,2021-03-24 14:54:44,0.089s,PASSED
"enhancedClick(findTestObject(""Dashboard Page/Calendar (Dashboard)/Add Event modal/Recruit1 in dropdown (Add Event modal)""))",Chrome 89.0.4389.90,,,2021-03-24 14:54:44,2021-03-24 14:54:44,0.090s,PASSED
"enhancedClick(findTestObject(""Dashboard Page/Calendar (Dashboard)/Add Event modal/Add Event Attendees""))",Chrome 89.0.4389.90,,,2021-03-24 14:54:44,2021-03-24 14:54:44,0.083s,PASSED
"enhancedClick(findTestObject(""Dashboard Page/Calendar (Dashboard)/Add Event modal/Recruiters checkbox""))",Chrome 89.0.4389.90,,,2021-03-24 14:54:44,2021-03-24 14:54:44,0.106s,PASSED
"enhancedClick(findTestObject(""Dashboard Page/Calendar (Dashboard)/Add Event modal/Game Note field""))",Chrome 89.0.4389.90,,,2021-03-24 14:54:44,2021-03-24 14:54:44,0.082s,PASSED
"sendKeys(findTestObject(""Dashboard Page/Calendar (Dashboard)/Add Event modal/Game Note field""), ""arrive early"")",Chrome 89.0.4389.90,,,2021-03-24 14:54:44,2021-03-24 14:54:45,0.215s,PASSED
"enhancedClick(findTestObject(""Dashboard Page/Calendar (Dashboard)/Add Event modal/Add Event Save button""))",Chrome 89.0.4389.90,,,2021-03-24 14:54:45,2021-03-24 14:54:45,0.107s,PASSED
delay(2),Chrome 89.0.4389.90,,,2021-03-24 14:54:45,2021-03-24 14:54:47,2.007s,PASSED
"verifyTextPresent(""Test Event1"", false)",Chrome 89.0.4389.90,,,2021-03-24 14:54:47,2021-03-24 14:54:48,0.828s,FAILED
,,,,,,,
Test Cases/Add_Archive_Delete New Recruit,Chrome 89.0.4389.90,,,2021-03-24 14:54:48,2021-03-24 14:55:06,18.598s,PASSED
openBrowser(URL),Chrome 89.0.4389.90,,,2021-03-24 14:54:48,2021-03-24 14:54:50,1.831s,PASSED
"setText(findTestObject(""Login Page/Email""), email)",Chrome 89.0.4389.90,,,2021-03-24 14:54:50,2021-03-24 14:54:50,0.150s,PASSED
"setText(findTestObject(""Login Page/password""), password)",Chrome 89.0.4389.90,,,2021-03-24 14:54:50,2021-03-24 14:54:50,0.099s,PASSED
"click(findTestObject(""Login Page/Sign In""))",Chrome 89.0.4389.90,,,2021-03-24 14:54:50,2021-03-24 14:54:52,2.494s,PASSED
"waitForElementVisible(findTestObject(""Top Navigation Menu/Dashboard""), 60)",Chrome 89.0.4389.90,,,2021-03-24 14:54:52,2021-03-24 14:54:53,0.576s,PASSED
"click(findTestObject(""Top Navigation Menu/Recruits""))",Chrome 89.0.4389.90,,,2021-03-24 14:54:53,2021-03-24 14:54:53,0.170s,PASSED
"click(findTestObject(""Recruits Page/ADD RECRUIT button""))",Chrome 89.0.4389.90,,,2021-03-24 14:54:53,2021-03-24 14:54:53,0.195s,PASSED
"setText(findTestObject(""Recruits Page/Add New Recruit modal/First Name field""), ""Josh"")",Chrome 89.0.4389.90,,,2021-03-24 14:54:53,2021-03-24 14:54:55,1.728s,PASSED
"setText(findTestObject(""Recruits Page/Add New Recruit modal/Last Name field""), ""Allen"")",Chrome 89.0.4389.90,,,2021-03-24 14:54:55,2021-03-24 14:54:55,0.167s,PASSED
"setText(findTestObject(""Recruits Page/Add New Recruit modal/Class field""), ""2023"")",Chrome 89.0.4389.90,,,2021-03-24 14:54:55,2021-03-24 14:54:55,0.154s,PASSED
"click(findTestObject(""Recruits Page/Add New Recruit modal/Height field input""))",Chrome 89.0.4389.90,,,2021-03-24 14:54:55,2021-03-24 14:54:55,0.089s,PASSED
"setText(findTestObject(""Recruits Page/Add New Recruit modal/Height field input""), ""69"")",Chrome 89.0.4389.90,,,2021-03-24 14:54:55,2021-03-24 14:54:55,0.091s,PASSED
"setText(findTestObject(""Recruits Page/Add New Recruit modal/Birthdate field input""), ""1/1/2005"")",Chrome 89.0.4389.90,,,2021-03-24 14:54:55,2021-03-24 14:54:56,0.279s,PASSED
"enhancedClick(findTestObject(""Recruits Page/Add New Recruit modal/Birthdate field Label""))",Chrome 89.0.4389.90,,,2021-03-24 14:54:56,2021-03-24 14:54:56,0.129s,PASSED
"setText(findTestObject(""Recruits Page/Add New Recruit modal/High School field input""), ""highland park"")",Chrome 89.0.4389.90,,,2021-03-24 14:54:56,2021-03-24 14:54:56,0.150s,PASSED
"sendKeys(findTestObject(""Recruits Page/Add New Recruit modal/High School field input""), Keys.chord(DOWN))",Chrome 89.0.4389.90,,,2021-03-24 14:54:56,2021-03-24 14:54:56,0.062s,PASSED
"sendKeys(findTestObject(""Recruits Page/Add New Recruit modal/High School field input""), Keys.chord(ENTER))",Chrome 89.0.4389.90,,,2021-03-24 14:54:56,2021-03-24 14:54:56,0.053s,PASSED
"setText(findTestObject(""Recruits Page/Add New Recruit modal/High School Coach Name field""), ""Coach Miller"")",Chrome 89.0.4389.90,,,2021-03-24 14:54:56,2021-03-24 14:54:56,0.227s,PASSED
"setText(findTestObject(""Recruits Page/Add New Recruit modal/High School Coach Phone field""), ""8474713163"")",Chrome 89.0.4389.90,,,2021-03-24 14:54:56,2021-03-24 14:54:57,0.205s,PASSED
"setText(findTestObject(""Recruits Page/Add New Recruit modal/Club Team field""), ""Mac Irvin Fire"")",Chrome 89.0.4389.90,,,2021-03-24 14:54:57,2021-03-24 14:54:57,0.233s,PASSED
"setText(findTestObject(""Recruits Page/Add New Recruit modal/Club Team Number field""), ""10"")",Chrome 89.0.4389.90,,,2021-03-24 14:54:57,2021-03-24 14:54:57,0.114s,PASSED
"click(findTestObject(""Recruits Page/Add New Recruit modal/SAVE button""))",Chrome 89.0.4389.90,,,2021-03-24 14:54:57,2021-03-24 14:54:57,0.237s,PASSED
"setText(findTestObject(""Recruits Page/Recruit Search Field on Recruits page""), ""josh allen"")",Chrome 89.0.4389.90,,,2021-03-24 14:54:57,2021-03-24 14:54:57,0.231s,PASSED
delay(1),Chrome 89.0.4389.90,,,2021-03-24 14:54:57,2021-03-24 14:54:58,1.006s,PASSED
"enhancedClick(findTestObject(""Recruits Page/Archive recruit""))",Chrome 89.0.4389.90,,,2021-03-24 14:54:58,2021-03-24 14:54:58,0.095s,PASSED
delay(1),Chrome 89.0.4389.90,,,2021-03-24 14:54:58,2021-03-24 14:54:59,1.006s,PASSED
"click(findTestObject(""Recruits Page/All Recruits List selection""))",Chrome 89.0.4389.90,,,2021-03-24 14:54:59,2021-03-24 14:55:00,0.088s,PASSED
delay(1),Chrome 89.0.4389.90,,,2021-03-24 14:55:00,2021-03-24 14:55:01,1.005s,PASSED
"click(findTestObject(""Recruits Page/Archived List selection""))",Chrome 89.0.4389.90,,,2021-03-24 14:55:01,2021-03-24 14:55:01,0.147s,PASSED
delay(1),Chrome 89.0.4389.90,,,2021-03-24 14:55:01,2021-03-24 14:55:02,1.004s,PASSED
"enhancedClick(findTestObject(""Recruits Page/Archived list ellipsis button""))",Chrome 89.0.4389.90,,,2021-03-24 14:55:02,2021-03-24 14:55:02,0.101s,PASSED
delay(1),Chrome 89.0.4389.90,,,2021-03-24 14:55:02,2021-03-24 14:55:03,1.006s,PASSED
"enhancedClick(findTestObject(""Recruits Page/Delete1""))",Chrome 89.0.4389.90,,,2021-03-24 14:55:03,2021-03-24 14:55:03,0.123s,PASSED
delay(1),Chrome 89.0.4389.90,,,2021-03-24 14:55:03,2021-03-24 14:55:04,1.006s,PASSED
"enhancedClick(findTestObject(""Recruits Page/Delete2""))",Chrome 89.0.4389.90,,,2021-03-24 14:55:04,2021-03-24 14:55:04,0.108s,PASSED
delay(2),Chrome 89.0.4389.90,,,2021-03-24 14:55:04,2021-03-24 14:55:06,2.005s,PASSED
closeBrowser(),Chrome 89.0.4389.90,,,2021-03-24 14:55:06,2021-03-24 14:55:06,0.084s,PASSED
,,,,,,,
Test Cases/Tasks,Chrome 89.0.4389.90,,,2021-03-24 14:55:06,2021-03-24 14:55:16,9.501s,PASSED
openBrowser(URL),Chrome 89.0.4389.90,,,2021-03-24 14:55:06,2021-03-24 14:55:08,1.932s,PASSED
"setText(findTestObject(""Login Page/Email""), email)",Chrome 89.0.4389.90,,,2021-03-24 14:55:08,2021-03-24 14:55:08,0.161s,PASSED
"setText(findTestObject(""Login Page/password""), password)",Chrome 89.0.4389.90,,,2021-03-24 14:55:08,2021-03-24 14:55:09,0.107s,PASSED
"click(findTestObject(""Login Page/Sign In""))",Chrome 89.0.4389.90,,,2021-03-24 14:55:09,2021-03-24 14:55:11,2.615s,PASSED
"waitForElementVisible(findTestObject(""Top Navigation Menu/Dashboard""), 60)",Chrome 89.0.4389.90,,,2021-03-24 14:55:11,2021-03-24 14:55:12,0.628s,PASSED
"enhancedClick(findTestObject(""Top Navigation Menu/Recruits""))",Chrome 89.0.4389.90,,,2021-03-24 14:55:12,2021-03-24 14:55:12,0.192s,PASSED
"enhancedClick(findTestObject(""Recruits Page/Tasks tab""))",Chrome 89.0.4389.90,,,2021-03-24 14:55:12,2021-03-24 14:55:12,0.151s,PASSED
"enhancedClick(findTestObject(""Recruits Page/Tasks/Add Task button""))",Chrome 89.0.4389.90,,,2021-03-24 14:55:12,2021-03-24 14:55:12,0.157s,PASSED
"enhancedClick(findTestObject(""Recruits Page/Tasks/Add Task Recruit field""))",Chrome 89.0.4389.90,,,2021-03-24 14:55:12,2021-03-24 14:55:13,0.488s,PASSED
"enhancedClick(findTestObject(""Recruits Page/Tasks/Add Task recruit dropdown1""))",Chrome 89.0.4389.90,,,2021-03-24 14:55:13,2021-03-24 14:55:13,0.102s,PASSED
"enhancedClick(findTestObject(""Recruits Page/Tasks/Add Task Assigned To field""))",Chrome 89.0.4389.90,,,2021-03-24 14:55:13,2021-03-24 14:55:13,0.075s,PASSED
"enhancedClick(findTestObject(""Recruits Page/Tasks/Add Task Assigned To dropdown1""))",Chrome 89.0.4389.90,,,2021-03-24 14:55:13,2021-03-24 14:55:13,0.079s,PASSED
"enhancedClick(findTestObject(""Recruits Page/Tasks/Add Task Instruction field""))",Chrome 89.0.4389.90,,,2021-03-24 14:55:13,2021-03-24 14:55:13,0.074s,PASSED
"setText(findTestObject(""Recruits Page/Tasks/Add Task Instruction field""), ""test task"")",Chrome 89.0.4389.90,,,2021-03-24 14:55:13,2021-03-24 14:55:13,0.179s,PASSED
"enhancedClick(findTestObject(""Recruits Page/Tasks/Save new task""))",Chrome 89.0.4389.90,,,2021-03-24 14:55:13,2021-03-24 14:55:13,0.079s,PASSED
"verifyElementVisible(findTestObject(""Recruits Page/Tasks/Due task1 row""))",Chrome 89.0.4389.90,,,2021-03-24 14:55:13,2021-03-24 14:55:14,0.187s,PASSED
"mouseOver(findTestObject(""Recruits Page/Tasks/Due task1 ellipsis""))",Chrome 89.0.4389.90,,,2021-03-24 14:55:14,2021-03-24 14:55:14,0.173s,PASSED
"enhancedClick(findTestObject(""Recruits Page/Tasks/Due task1 ellipsis""))",Chrome 89.0.4389.90,,,2021-03-24 14:55:14,2021-03-24 14:55:14,0.074s,PASSED
"enhancedClick(findTestObject(""Recruits Page/Tasks/Mark Tasks Completed button""))",Chrome 89.0.4389.90,,,2021-03-24 14:55:14,2021-03-24 14:55:15,1.261s,PASSED
"verifyElementNotPresent(findTestObject(""Recruits Page/Tasks/Due task1 row""), 0)",Chrome 89.0.4389.90,,,2021-03-24 14:55:15,2021-03-24 14:55:16,0.564s,PASSED
closeBrowser(),Chrome 89.0.4389.90,,,2021-03-24 14:55:16,2021-03-24 14:55:16,0.082s,PASSED
,,,,,,,
Test Cases/Features/Link To FastScout,Chrome 89.0.4389.90,,,2021-03-24 14:55:16,2021-03-24 14:55:33,16.873s,PASSED
openBrowser(URL),Chrome 89.0.4389.90,,,2021-03-24 14:55:16,2021-03-24 14:55:17,1.584s,PASSED
"setText(findTestObject(""Login Page/Email""), email)",Chrome 89.0.4389.90,,,2021-03-24 14:55:17,2021-03-24 14:55:18,0.157s,PASSED
"setText(findTestObject(""Login Page/password""), password)",Chrome 89.0.4389.90,,,2021-03-24 14:55:18,2021-03-24 14:55:18,0.108s,PASSED
"click(findTestObject(""Login Page/Sign In""))",Chrome 89.0.4389.90,,,2021-03-24 14:55:18,2021-03-24 14:55:20,2.317s,PASSED
"waitForElementVisible(findTestObject(""Top Navigation Menu/Dashboard""), 60)",Chrome 89.0.4389.90,,,2021-03-24 14:55:20,2021-03-24 14:55:21,0.582s,PASSED
"click(findTestObject(""Top Navigation Menu/Recruits""))",Chrome 89.0.4389.90,,,2021-03-24 14:55:21,2021-03-24 14:55:21,0.152s,PASSED
"click(findTestObject(""Recruits Page/ADD RECRUIT button""))",Chrome 89.0.4389.90,,,2021-03-24 14:55:21,2021-03-24 14:55:21,0.181s,PASSED
"enhancedClick(findTestObject(""Recruits Page/Add New Recruit modal/LinkToFastScout Folder/Link To FastScout button""))",Chrome 89.0.4389.90,,,2021-03-24 14:55:21,2021-03-24 14:55:23,1.677s,PASSED
"enhancedClick(findTestObject(""Recruits Page/Add New Recruit modal/LinkToFastScout Folder/League_Division dropdown""))",Chrome 89.0.4389.90,,,2021-03-24 14:55:23,2021-03-24 14:55:23,0.115s,PASSED
"enhancedClick(findTestObject(""Recruits Page/Add New Recruit modal/LinkToFastScout Folder/D-II League""))",Chrome 89.0.4389.90,,,2021-03-24 14:55:23,2021-03-24 14:55:23,0.087s,PASSED
"enhancedClick(findTestObject(""Recruits Page/Add New Recruit modal/LinkToFastScout Folder/Team dropdown (LFS)""))",Chrome 89.0.4389.90,,,2021-03-24 14:55:23,2021-03-24 14:55:23,0.118s,PASSED
"enhancedClick(findTestObject(""Recruits Page/Add New Recruit modal/LinkToFastScout Folder/Florida Southern (LFS)""))",Chrome 89.0.4389.90,,,2021-03-24 14:55:23,2021-03-24 14:55:23,0.111s,PASSED
"enhancedClick(findTestObject(""Recruits Page/Add New Recruit modal/LinkToFastScout Folder/Player dropdown (LFS)""))",Chrome 89.0.4389.90,,,2021-03-24 14:55:23,2021-03-24 14:55:23,0.100s,PASSED
"enhancedClick(findTestObject(""Recruits Page/Add New Recruit modal/LinkToFastScout Folder/Player10 (LFS)""))",Chrome 89.0.4389.90,,,2021-03-24 14:55:23,2021-03-24 14:55:23,0.101s,PASSED
"click(findTestObject(""Recruits Page/Add New Recruit modal/SAVE button""))",Chrome 89.0.4389.90,,,2021-03-24 14:55:23,2021-03-24 14:55:23,0.272s,PASSED
"setText(findTestObject(""Recruits Page/Recruit Search Field on Recruits page""), ""Wes Bongiorni"")",Chrome 89.0.4389.90,,,2021-03-24 14:55:23,2021-03-24 14:55:24,0.272s,PASSED
delay(1),Chrome 89.0.4389.90,,,2021-03-24 14:55:24,2021-03-24 14:55:25,1.005s,PASSED
"enhancedClick(findTestObject(""Recruits Page/Archive recruit""))",Chrome 89.0.4389.90,,,2021-03-24 14:55:25,2021-03-24 14:55:25,0.111s,PASSED
delay(1),Chrome 89.0.4389.90,,,2021-03-24 14:55:25,2021-03-24 14:55:26,1.005s,PASSED
"click(findTestObject(""Recruits Page/All Recruits List selection""))",Chrome 89.0.4389.90,,,2021-03-24 14:55:26,2021-03-24 14:55:26,0.091s,PASSED
delay(1),Chrome 89.0.4389.90,,,2021-03-24 14:55:26,2021-03-24 14:55:27,1.002s,PASSED
"click(findTestObject(""Recruits Page/Archived List selection""))",Chrome 89.0.4389.90,,,2021-03-24 14:55:27,2021-03-24 14:55:27,0.138s,PASSED
delay(1),Chrome 89.0.4389.90,,,2021-03-24 14:55:27,2021-03-24 14:55:28,1.006s,PASSED
"click(findTestObject(""Recruits Page/Archived list ellipsis button""))",Chrome 89.0.4389.90,,,2021-03-24 14:55:28,2021-03-24 14:55:28,0.102s,PASSED
delay(1),Chrome 89.0.4389.90,,,2021-03-24 14:55:28,2021-03-24 14:55:29,1.006s,PASSED
"click(findTestObject(""Recruits Page/Delete1""))",Chrome 89.0.4389.90,,,2021-03-24 14:55:29,2021-03-24 14:55:29,0.121s,PASSED
delay(1),Chrome 89.0.4389.90,,,2021-03-24 14:55:29,2021-03-24 14:55:30,1.005s,PASSED
"enhancedClick(findTestObject(""Recruits Page/Delete2""))",Chrome 89.0.4389.90,,,2021-03-24 14:55:30,2021-03-24 14:55:30,0.119s,PASSED
delay(2),Chrome 89.0.4389.90,,,2021-03-24 14:55:30,2021-03-24 14:55:32,2.003s,PASSED
closeBrowser(),Chrome 89.0.4389.90,,,2021-03-24 14:55:32,2021-03-24 14:55:33,0.087s,PASSED
,,,,,,,
Test Cases/Features/Video,Chrome 89.0.4389.90,,,2021-03-24 14:55:33,2021-03-24 14:55:45,12.654s,PASSED
openBrowser(URL),Chrome 89.0.4389.90,,,2021-03-24 14:55:33,2021-03-24 14:55:35,1.859s,PASSED
"setText(findTestObject(""Login Page/Email""), email)",Chrome 89.0.4389.90,,,2021-03-24 14:55:35,2021-03-24 14:55:35,0.170s,PASSED
"setText(findTestObject(""Login Page/password""), password)",Chrome 89.0.4389.90,,,2021-03-24 14:55:35,2021-03-24 14:55:35,0.107s,PASSED
"click(findTestObject(""Login Page/Sign In""))",Chrome 89.0.4389.90,,,2021-03-24 14:55:35,2021-03-24 14:55:37,2.327s,PASSED
"waitForElementVisible(findTestObject(""Top Navigation Menu/Dashboard""), 60)",Chrome 89.0.4389.90,,,2021-03-24 14:55:37,2021-03-24 14:55:38,0.592s,PASSED
"enhancedClick(findTestObject(""Top Navigation Menu/Recruits""))",Chrome 89.0.4389.90,,,2021-03-24 14:55:38,2021-03-24 14:55:38,0.166s,PASSED
"enhancedClick(findTestObject(""Recruits Page/Recruit Row1 Name""))",Chrome 89.0.4389.90,,,2021-03-24 14:55:38,2021-03-24 14:55:40,1.683s,PASSED
"enhancedClick(findTestObject(""Recruits Page/Recruit Profile (View)/VIDEOS tab""))",Chrome 89.0.4389.90,,,2021-03-24 14:55:40,2021-03-24 14:55:40,0.107s,PASSED
"uploadFile(findTestObject(""Recruit Profile (view)/Video Upload object""), ""/Users/jefffeldman/Desktop/Vids/NBA Playoffs 2019.mp4"")",Chrome 89.0.4389.90,,,2021-03-24 14:55:40,2021-03-24 14:55:40,0.099s,PASSED
"verifyElementPresent(findTestObject(""Recruit Profile (view)/Recruit Video row1""), 0)",Chrome 89.0.4389.90,,,2021-03-24 14:55:40,2021-03-24 14:55:42,2.005s,PASSED
delay(2),Chrome 89.0.4389.90,,,2021-03-24 14:55:42,2021-03-24 14:55:44,2.006s,PASSED
"mouseOver(findTestObject(""Recruit Profile (view)/Recruit Video row1""))",Chrome 89.0.4389.90,,,2021-03-24 14:55:44,2021-03-24 14:55:44,0.175s,PASSED
"enhancedClick(findTestObject(""Recruit Profile (view)/Delete Video Row1""))",Chrome 89.0.4389.90,,,2021-03-24 14:55:44,2021-03-24 14:55:44,0.114s,PASSED
"enhancedClick(findTestObject(""Recruit Profile (view)/Confirm Delete Video""))",Chrome 89.0.4389.90,,,2021-03-24 14:55:44,2021-03-24 14:55:44,0.166s,PASSED
"verifyElementNotPresent(findTestObject(""Recruit Profile (view)/Recruit Video row1""), 0)",Chrome 89.0.4389.90,,,2021-03-24 14:55:44,2021-03-24 14:55:45,0.569s,PASSED
"enhancedClick(findTestObject(""Recruit Profile (view)/CLOSE button""))",Chrome 89.0.4389.90,,,2021-03-24 14:55:45,2021-03-24 14:55:45,0.298s,PASSED
closeBrowser(),Chrome 89.0.4389.90,,,2021-03-24 14:55:45,2021-03-24 14:55:45,0.087s,PASSED
,,,,,,,
Test Cases/Features/FastConnect,Chrome 89.0.4389.90,,,2021-03-24 14:55:45,2021-03-24 14:56:14,28.483s,PASSED
openBrowser(URL),Chrome 89.0.4389.90,,,2021-03-24 14:55:45,2021-03-24 14:55:47,1.871s,PASSED
"setText(findTestObject(""Login Page/Email""), email)",Chrome 89.0.4389.90,,,2021-03-24 14:55:47,2021-03-24 14:55:47,0.148s,PASSED
"setText(findTestObject(""Login Page/password""), password)",Chrome 89.0.4389.90,,,2021-03-24 14:55:47,2021-03-24 14:55:47,0.095s,PASSED
"click(findTestObject(""Login Page/Sign In""))",Chrome 89.0.4389.90,,,2021-03-24 14:55:47,2021-03-24 14:55:50,2.600s,PASSED
"waitForElementVisible(findTestObject(""Top Navigation Menu/Dashboard""), 60)",Chrome 89.0.4389.90,,,2021-03-24 14:55:50,2021-03-24 14:55:51,0.578s,PASSED
"enhancedClick(findTestObject(""Top Navigation Menu/Recruits""))",Chrome 89.0.4389.90,,,2021-03-24 14:55:51,2021-03-24 14:55:51,0.159s,PASSED
"enhancedClick(findTestObject(""Recruits Page/FastConnect tab""))",Chrome 89.0.4389.90,,,2021-03-24 14:55:51,2021-03-24 14:55:51,0.180s,PASSED
"enhancedClick(findTestObject(""Recruits Page/FastConnect/List dropdown""))",Chrome 89.0.4389.90,,,2021-03-24 14:55:51,2021-03-24 14:55:51,0.090s,PASSED
"enhancedClick(findTestObject(""Recruits Page/FastConnect/All Recruits list dropdown""))",Chrome 89.0.4389.90,,,2021-03-24 14:55:51,2021-03-24 14:55:51,0.313s,PASSED
delay(10),Chrome 89.0.4389.90,,,2021-03-24 14:55:51,2021-03-24 14:56:01,10.004s,PASSED
"verifyElementVisible(findTestObject(""Recruits Page/FastConnect/Fastconnect post1""), STOP_ON_FAILURE)",Chrome 89.0.4389.90,,,2021-03-24 14:56:01,2021-03-24 14:56:14,12.198s,PASSED
closeBrowser(),Chrome 89.0.4389.90,,,2021-03-24 14:56:14,2021-03-24 14:56:14,0.087s,PASSED
,,,,,,,
Test Cases/Tourney Workflow,Chrome 89.0.4389.90,,,2021-03-24 14:56:14,2021-03-24 14:57:01,47.160s,FAILED
openBrowser(URL),Chrome 89.0.4389.90,,,2021-03-24 14:56:14,2021-03-24 14:56:16,2.017s,PASSED
"setText(findTestObject(""Login Page/Email""), email)",Chrome 89.0.4389.90,,,2021-03-24 14:56:16,2021-03-24 14:56:16,0.148s,PASSED
"setText(findTestObject(""Login Page/password""), password)",Chrome 89.0.4389.90,,,2021-03-24 14:56:16,2021-03-24 14:56:16,0.093s,PASSED
"click(findTestObject(""Login Page/Sign In""))",Chrome 89.0.4389.90,,,2021-03-24 14:56:16,2021-03-24 14:56:19,2.394s,PASSED
"waitForElementVisible(findTestObject(""Top Navigation Menu/Dashboard""), 60)",Chrome 89.0.4389.90,,,2021-03-24 14:56:19,2021-03-24 14:56:19,0.747s,PASSED
"enhancedClick(findTestObject(""Top Navigation Menu/Tourneys""))",Chrome 89.0.4389.90,,,2021-03-24 14:56:19,2021-03-24 14:56:19,0.113s,PASSED
"enhancedClick(findTestObject(""Tourneys page/Tourney list dropdown""))",Chrome 89.0.4389.90,,,2021-03-24 14:56:19,2021-03-24 14:56:20,0.776s,PASSED
enhancedClick(tourneySession),Chrome 89.0.4389.90,,,2021-03-24 14:56:20,2021-03-24 14:56:20,0.157s,PASSED
"enhancedClick(findTestObject(""Tourneys page/Tourneys header""))",Chrome 89.0.4389.90,,,2021-03-24 14:56:20,2021-03-24 14:56:20,0.116s,PASSED
"enhancedClick(findTestObject(""Tourneys page/Tourney1 listed""))",Chrome 89.0.4389.90,,,2021-03-24 14:56:20,2021-03-24 14:56:21,0.329s,PASSED
"enhancedClick(findTestObject(""Tourneys page/Assign Staff button""))",Chrome 89.0.4389.90,,,2021-03-24 14:56:21,2021-03-24 14:56:21,0.197s,PASSED
"enhancedClick(findTestObject(""Tourneys page/Assign Staff User1 checkbox""))",Chrome 89.0.4389.90,,,2021-03-24 14:56:21,2021-03-24 14:56:21,0.119s,PASSED
"enhancedClick(findTestObject(""Tourneys page/Assign Staff SAVE button""))",Chrome 89.0.4389.90,,,2021-03-24 14:56:21,2021-03-24 14:56:21,0.096s,PASSED
delay(1),Chrome 89.0.4389.90,,,2021-03-24 14:56:21,2021-03-24 14:56:22,1.002s,PASSED
"enhancedClick(findTestObject(""Tourneys page/Assign Recruits button""))",Chrome 89.0.4389.90,,,2021-03-24 14:56:22,2021-03-24 14:56:22,0.124s,PASSED
"enhancedClick(findTestObject(""Tourneys page/Select Recruits dropdown""))",Chrome 89.0.4389.90,,,2021-03-24 14:56:22,2021-03-24 14:56:23,0.475s,PASSED
"enhancedClick(findTestObject(""Tourneys page/Assign Recruits dropdown list1""))",Chrome 89.0.4389.90,,,2021-03-24 14:56:23,2021-03-24 14:56:23,0.085s,PASSED
"enhancedClick(findTestObject(""Tourneys page/Assign Recruits SAVE button""))",Chrome 89.0.4389.90,,,2021-03-24 14:56:23,2021-03-24 14:56:23,0.080s,PASSED
"enhancedClick(findTestObject(""Tourneys page/Select Tourney Team dropdown""))",Chrome 89.0.4389.90,,,2021-03-24 14:56:23,2021-03-24 14:56:23,0.319s,PASSED
"enhancedClick(findTestObject(""Tourneys page/Select Tourney Team dropdown1""))",Chrome 89.0.4389.90,,,2021-03-24 14:56:23,2021-03-24 14:56:23,0.079s,PASSED
delay(2),Chrome 89.0.4389.90,,,2021-03-24 14:56:23,2021-03-24 14:56:25,2.003s,PASSED
"enhancedClick(findTestObject(""Tourneys page/Tourney GAMES tab""))",Chrome 89.0.4389.90,,,2021-03-24 14:56:25,2021-03-24 14:56:25,0.127s,PASSED
delay(3),Chrome 89.0.4389.90,,,2021-03-24 14:56:25,2021-03-24 14:56:28,3.005s,PASSED
"verifyElementPresent(findTestObject(""Tourneys page/GAMES tab row1""), 0)",Chrome 89.0.4389.90,,,2021-03-24 14:56:28,2021-03-24 14:57:01,32.397s,FAILED
,,,,,,,
Test Cases/Features/Prospects View,Chrome 89.0.4389.90,,,2021-03-24 14:57:01,2021-03-24 14:57:26,24.947s,PASSED
openBrowser(URL),Chrome 89.0.4389.90,,,2021-03-24 14:57:01,2021-03-24 14:57:03,1.739s,PASSED
"setText(findTestObject(""Login Page/Email""), email2)",Chrome 89.0.4389.90,,,2021-03-24 14:57:03,2021-03-24 14:57:03,0.148s,PASSED
"setText(findTestObject(""Login Page/password""), password)",Chrome 89.0.4389.90,,,2021-03-24 14:57:03,2021-03-24 14:57:03,0.089s,PASSED
"click(findTestObject(""Login Page/Sign In""))",Chrome 89.0.4389.90,,,2021-03-24 14:57:03,2021-03-24 14:57:05,2.408s,PASSED
"waitForElementVisible(findTestObject(""Top Navigation Menu/Dashboard""), 60)",Chrome 89.0.4389.90,,,2021-03-24 14:57:05,2021-03-24 14:57:06,0.577s,PASSED
"enhancedClick(findTestObject(""Prospects View/Add Prospect button""))",Chrome 89.0.4389.90,,,2021-03-24 14:57:06,2021-03-24 14:57:06,0.120s,PASSED
"enhancedClick(findTestObject(""Prospects View/Link Player Stats button""))",Chrome 89.0.4389.90,,,2021-03-24 14:57:06,2021-03-24 14:57:07,1.325s,PASSED
"enhancedClick(findTestObject(""Recruits Page/Add New Recruit modal/LinkToFastScout Folder/League_Division dropdown""))",Chrome 89.0.4389.90,,,2021-03-24 14:57:07,2021-03-24 14:57:08,0.100s,PASSED
"enhancedClick(findTestObject(""Recruits Page/Add New Recruit modal/LinkToFastScout Folder/D-II League""))",Chrome 89.0.4389.90,,,2021-03-24 14:57:08,2021-03-24 14:57:08,0.086s,PASSED
"enhancedClick(findTestObject(""Prospects View/Link Player Stats Team dropdown (Prospects)""))",Chrome 89.0.4389.90,,,2021-03-24 14:57:08,2021-03-24 14:57:08,0.120s,PASSED
"enhancedClick(findTestObject(""Recruits Page/Add New Recruit modal/LinkToFastScout Folder/Florida Southern (LFS)""))",Chrome 89.0.4389.90,,,2021-03-24 14:57:08,2021-03-24 14:57:08,0.109s,PASSED
"enhancedClick(findTestObject(""Prospects View/Link Player Stats Player dropdown (Prospects)""))",Chrome 89.0.4389.90,,,2021-03-24 14:57:08,2021-03-24 14:57:08,0.080s,PASSED
"enhancedClick(findTestObject(""Recruits Page/Add New Recruit modal/LinkToFastScout Folder/Player10 (LFS)""))",Chrome 89.0.4389.90,,,2021-03-24 14:57:08,2021-03-24 14:57:08,0.092s,PASSED
"click(findTestObject(""Recruits Page/Add New Recruit modal/SAVE button""))",Chrome 89.0.4389.90,,,2021-03-24 14:57:08,2021-03-24 14:57:08,0.142s,PASSED
"enhancedClick(findTestObject(""Prospects View/Select Existing Prospect""))",Chrome 89.0.4389.90,,,2021-03-24 14:57:08,2021-03-24 14:57:09,0.426s,PASSED
"enhancedClick(findTestObject(""Prospects View/FastScout Team Link (Prospect Profile)""))",Chrome 89.0.4389.90,,,2021-03-24 14:57:09,2021-03-24 14:57:09,0.083s,PASSED
switchToWindowIndex(1),Chrome 89.0.4389.90,,,2021-03-24 14:57:09,2021-03-24 14:57:09,0.170s,PASSED
delay(7),Chrome 89.0.4389.90,,,2021-03-24 14:57:09,2021-03-24 14:57:16,7.007s,PASSED
scoutURL = getUrl(),Chrome 89.0.4389.90,,,2021-03-24 14:57:16,2021-03-24 14:57:16,0.035s,PASSED
"assert scoutURL.contains(""league=NCAAB-II"")",Chrome 89.0.4389.90,,,2021-03-24 14:57:16,2021-03-24 14:57:16,0.001s,PASSED
switchToWindowIndex(0),Chrome 89.0.4389.90,,,2021-03-24 14:57:16,2021-03-24 14:57:16,0.009s,PASSED
delay(1),Chrome 89.0.4389.90,,,2021-03-24 14:57:16,2021-03-24 14:57:17,1.004s,PASSED
"enhancedClick(findTestObject(""Recruit Profile (view)/CLOSE button - Copy2""))",Chrome 89.0.4389.90,,,2021-03-24 14:57:17,2021-03-24 14:57:17,0.163s,PASSED
delay(1),Chrome 89.0.4389.90,,,2021-03-24 14:57:17,2021-03-24 14:57:18,1.006s,PASSED
"click(findTestObject(""Prospects View/Archive Prospect button""))",Chrome 89.0.4389.90,,,2021-03-24 14:57:18,2021-03-24 14:57:18,0.105s,PASSED
delay(1),Chrome 89.0.4389.90,,,2021-03-24 14:57:18,2021-03-24 14:57:19,1.003s,PASSED
"click(findTestObject(""Prospects View/All Prospects List selection""))",Chrome 89.0.4389.90,,,2021-03-24 14:57:19,2021-03-24 14:57:19,0.083s,PASSED
delay(1),Chrome 89.0.4389.90,,,2021-03-24 14:57:19,2021-03-24 14:57:20,1.006s,PASSED
"click(findTestObject(""Recruits Page/Archived List selection""))",Chrome 89.0.4389.90,,,2021-03-24 14:57:20,2021-03-24 14:57:20,0.139s,PASSED
delay(1),Chrome 89.0.4389.90,,,2021-03-24 14:57:20,2021-03-24 14:57:21,1.006s,PASSED
"enhancedClick(findTestObject(""Prospects View/Archived List ellipsis (Prospects)""))",Chrome 89.0.4389.90,,,2021-03-24 14:57:21,2021-03-24 14:57:21,0.092s,PASSED
delay(1),Chrome 89.0.4389.90,,,2021-03-24 14:57:21,2021-03-24 14:57:22,1.001s,PASSED
"enhancedClick(findTestObject(""Prospects View/Delete1 (Prospects)""))",Chrome 89.0.4389.90,,,2021-03-24 14:57:22,2021-03-24 14:57:23,0.116s,PASSED
delay(1),Chrome 89.0.4389.90,,,2021-03-24 14:57:23,2021-03-24 14:57:24,1.006s,PASSED
"enhancedClick(findTestObject(""Prospects View/Delete2 (Prospects)""))",Chrome 89.0.4389.90,,,2021-03-24 14:57:24,2021-03-24 14:57:24,0.121s,PASSED
delay(2),Chrome 89.0.4389.90,,,2021-03-24 14:57:24,2021-03-24 14:57:26,2.006s,PASSED
closeBrowser(),Chrome 89.0.4389.90,,,2021-03-24 14:57:26,2021-03-24 14:57:26,0.086s,PASSED
,,,,,,,
Test Cases/Features/Prospects View,Chrome 89.0.4389.90,,,2021-03-24 14:57:26,2021-03-24 14:57:51,25.208s,PASSED
openBrowser(URL),Chrome 89.0.4389.90,,,2021-03-24 14:57:26,2021-03-24 14:57:28,2.030s,PASSED
"setText(findTestObject(""Login Page/Email""), email2)",Chrome 89.0.4389.90,,,2021-03-24 14:57:28,2021-03-24 14:57:28,0.157s,PASSED
"setText(findTestObject(""Login Page/password""), password)",Chrome 89.0.4389.90,,,2021-03-24 14:57:28,2021-03-24 14:57:28,0.102s,PASSED
"click(findTestObject(""Login Page/Sign In""))",Chrome 89.0.4389.90,,,2021-03-24 14:57:28,2021-03-24 14:57:31,2.425s,PASSED
"waitForElementVisible(findTestObject(""Top Navigation Menu/Dashboard""), 60)",Chrome 89.0.4389.90,,,2021-03-24 14:57:31,2021-03-24 14:57:31,0.590s,PASSED
"enhancedClick(findTestObject(""Prospects View/Add Prospect button""))",Chrome 89.0.4389.90,,,2021-03-24 14:57:31,2021-03-24 14:57:31,0.135s,PASSED
"enhancedClick(findTestObject(""Prospects View/Link Player Stats button""))",Chrome 89.0.4389.90,,,2021-03-24 14:57:31,2021-03-24 14:57:33,1.473s,PASSED
"enhancedClick(findTestObject(""Recruits Page/Add New Recruit modal/LinkToFastScout Folder/League_Division dropdown""))",Chrome 89.0.4389.90,,,2021-03-24 14:57:33,2021-03-24 14:57:33,0.101s,PASSED
"enhancedClick(findTestObject(""Recruits Page/Add New Recruit modal/LinkToFastScout Folder/D-II League""))",Chrome 89.0.4389.90,,,2021-03-24 14:57:33,2021-03-24 14:57:33,0.094s,PASSED
"enhancedClick(findTestObject(""Prospects View/Link Player Stats Team dropdown (Prospects)""))",Chrome 89.0.4389.90,,,2021-03-24 14:57:33,2021-03-24 14:57:33,0.124s,PASSED
"enhancedClick(findTestObject(""Recruits Page/Add New Recruit modal/LinkToFastScout Folder/Florida Southern (LFS)""))",Chrome 89.0.4389.90,,,2021-03-24 14:57:33,2021-03-24 14:57:33,0.110s,PASSED
"enhancedClick(findTestObject(""Prospects View/Link Player Stats Player dropdown (Prospects)""))",Chrome 89.0.4389.90,,,2021-03-24 14:57:33,2021-03-24 14:57:33,0.085s,PASSED
"enhancedClick(findTestObject(""Recruits Page/Add New Recruit modal/LinkToFastScout Folder/Player10 (LFS)""))",Chrome 89.0.4389.90,,,2021-03-24 14:57:33,2021-03-24 14:57:33,0.095s,PASSED
"click(findTestObject(""Recruits Page/Add New Recruit modal/SAVE button""))",Chrome 89.0.4389.90,,,2021-03-24 14:57:33,2021-03-24 14:57:33,0.144s,PASSED
"enhancedClick(findTestObject(""Prospects View/Select Existing Prospect""))",Chrome 89.0.4389.90,,,2021-03-24 14:57:33,2021-03-24 14:57:34,0.390s,PASSED
"enhancedClick(findTestObject(""Prospects View/FastScout Team Link (Prospect Profile)""))",Chrome 89.0.4389.90,,,2021-03-24 14:57:34,2021-03-24 14:57:34,0.101s,PASSED
switchToWindowIndex(1),Chrome 89.0.4389.90,,,2021-03-24 14:57:34,2021-03-24 14:57:34,0.102s,PASSED
delay(7),Chrome 89.0.4389.90,,,2021-03-24 14:57:34,2021-03-24 14:57:41,7.001s,PASSED
scoutURL = getUrl(),Chrome 89.0.4389.90,,,2021-03-24 14:57:41,2021-03-24 14:57:41,0.029s,PASSED
"assert scoutURL.contains(""league=NCAAB-II"")",Chrome 89.0.4389.90,,,2021-03-24 14:57:41,2021-03-24 14:57:41,0.000s,PASSED
switchToWindowIndex(0),Chrome 89.0.4389.90,,,2021-03-24 14:57:41,2021-03-24 14:57:41,0.009s,PASSED
delay(1),Chrome 89.0.4389.90,,,2021-03-24 14:57:41,2021-03-24 14:57:42,1.007s,PASSED
"enhancedClick(findTestObject(""Recruit Profile (view)/CLOSE button - Copy2""))",Chrome 89.0.4389.90,,,2021-03-24 14:57:42,2021-03-24 14:57:42,0.163s,PASSED
delay(1),Chrome 89.0.4389.90,,,2021-03-24 14:57:42,2021-03-24 14:57:43,1.004s,PASSED
"click(findTestObject(""Prospects View/Archive Prospect button""))",Chrome 89.0.4389.90,,,2021-03-24 14:57:43,2021-03-24 14:57:43,0.085s,PASSED
delay(1),Chrome 89.0.4389.90,,,2021-03-24 14:57:43,2021-03-24 14:57:44,1.004s,PASSED
"click(findTestObject(""Prospects View/All Prospects List selection""))",Chrome 89.0.4389.90,,,2021-03-24 14:57:44,2021-03-24 14:57:44,0.080s,PASSED
delay(1),Chrome 89.0.4389.90,,,2021-03-24 14:57:44,2021-03-24 14:57:45,1.006s,PASSED
"click(findTestObject(""Recruits Page/Archived List selection""))",Chrome 89.0.4389.90,,,2021-03-24 14:57:45,2021-03-24 14:57:46,0.133s,PASSED
delay(1),Chrome 89.0.4389.90,,,2021-03-24 14:57:46,2021-03-24 14:57:47,1.003s,PASSED
"enhancedClick(findTestObject(""Prospects View/Archived List ellipsis (Prospects)""))",Chrome 89.0.4389.90,,,2021-03-24 14:57:47,2021-03-24 14:57:47,0.103s,PASSED
delay(1),Chrome 89.0.4389.90,,,2021-03-24 14:57:47,2021-03-24 14:57:48,1.006s,PASSED
"enhancedClick(findTestObject(""Prospects View/Delete1 (Prospects)""))",Chrome 89.0.4389.90,,,2021-03-24 14:57:48,2021-03-24 14:57:48,0.101s,PASSED
delay(1),Chrome 89.0.4389.90,,,2021-03-24 14:57:48,2021-03-24 14:57:49,1.002s,PASSED
"enhancedClick(findTestObject(""Prospects View/Delete2 (Prospects)""))",Chrome 89.0.4389.90,,,2021-03-24 14:57:49,2021-03-24 14:57:49,0.114s,PASSED
delay(2),Chrome 89.0.4389.90,,,2021-03-24 14:57:49,2021-03-24 14:57:51,2.007s,PASSED
closeBrowser(),Chrome 89.0.4389.90,,,2021-03-24 14:57:51,2021-03-24 14:57:51,0.081s,PASSED
