Suite/Test/Step Name,Browser,Description,Tag,Start time,End time,Duration,Status
Regression Tests,Chrome 89.0.4389.114,,,2021-04-13 15:43:05,2021-04-13 15:49:04,5m - 58.650s,FAILED
,,,,,,,
Test Cases/Draft Board,Chrome 89.0.4389.114,,,2021-04-13 15:43:06,2021-04-13 15:45:13,2m - 7.535s,FAILED
openBrowser(URL),Chrome 89.0.4389.114,,,2021-04-13 15:43:06,2021-04-13 15:43:09,2.724s,PASSED
"setViewPortSize(1440, 841)",Chrome 89.0.4389.114,,,2021-04-13 15:43:09,2021-04-13 15:43:09,0.482s,PASSED
"setText(findTestObject(""Login Page/Email""), email)",Chrome 89.0.4389.114,,,2021-04-13 15:43:09,2021-04-13 15:43:10,0.204s,PASSED
"setText(findTestObject(""Login Page/password""), password)",Chrome 89.0.4389.114,,,2021-04-13 15:43:10,2021-04-13 15:43:10,0.123s,PASSED
"click(findTestObject(""Login Page/Sign In""))",Chrome 89.0.4389.114,,,2021-04-13 15:43:10,2021-04-13 15:43:12,1.968s,PASSED
"waitForElementVisible(findTestObject(""Top Navigation Menu/Dashboard""), 60)",Chrome 89.0.4389.114,,,2021-04-13 15:43:12,2021-04-13 15:43:12,0.495s,PASSED
"enhancedClick(findTestObject(""Top Navigation Menu/Dashboard""))",Chrome 89.0.4389.114,,,2021-04-13 15:43:12,2021-04-13 15:43:12,0.089s,PASSED
delay(3),Chrome 89.0.4389.114,,,2021-04-13 15:43:12,2021-04-13 15:43:15,3.074s,PASSED
"mouseOver(findTestObject(""Dashboard Page/Draft Board (Dashboard)/blank 1-PG on Draft Board (Dashboard)""))",Chrome 89.0.4389.114,,,2021-04-13 15:43:15,2021-04-13 15:43:16,0.231s,PASSED
"enhancedClick(findTestObject(""Dashboard Page/Draft Board (Dashboard)/blank 1-PG on Draft Board (Dashboard)""))",Chrome 89.0.4389.114,,,2021-04-13 15:43:16,2021-04-13 15:43:16,0.086s,PASSED
"enhancedClick(findTestObject(""Dashboard Page/Draft Board (Dashboard)/Draft Board Dropdown Player1""))",Chrome 89.0.4389.114,,,2021-04-13 15:43:16,2021-04-13 15:43:16,0.152s,PASSED
"mouseOver(findTestObject(""Dashboard Page/Draft Board (Dashboard)/1-PG on Draft Board""))",Chrome 89.0.4389.114,,,2021-04-13 15:43:16,2021-04-13 15:43:16,0.289s,PASSED
"enhancedClick(findTestObject(""Dashboard Page/Draft Board (Dashboard)/1-PG on Draft Board""))",Chrome 89.0.4389.114,,,2021-04-13 15:43:16,2021-04-13 15:43:16,0.114s,PASSED
delay(1),Chrome 89.0.4389.114,,,2021-04-13 15:43:16,2021-04-13 15:43:17,1.006s,PASSED
"enhancedClick(findTestObject(""Recruit Profile (view)/Alerts button""))",Chrome 89.0.4389.114,,,2021-04-13 15:43:17,2021-04-13 15:43:17,0.094s,PASSED
"enhancedClick(findTestObject(""Recruit Profile (view)/CLOSE button""))",Chrome 89.0.4389.114,,,2021-04-13 15:43:17,2021-04-13 15:43:17,0.098s,PASSED
"verifyElementVisible(findTestObject(""Dashboard Page/Draft Board (Dashboard)/Alerts bell indicator""))",Chrome 89.0.4389.114,,,2021-04-13 15:43:17,2021-04-13 15:43:17,0.082s,PASSED
"mouseOver(findTestObject(""Dashboard Page/Draft Board (Dashboard)/1-PG on Draft Board""))",Chrome 89.0.4389.114,,,2021-04-13 15:43:17,2021-04-13 15:43:18,0.206s,PASSED
"enhancedClick(findTestObject(""Dashboard Page/Draft Board (Dashboard)/1-PG on Draft Board""))",Chrome 89.0.4389.114,,,2021-04-13 15:43:18,2021-04-13 15:43:18,0.127s,PASSED
"enhancedClick(findTestObject(""Recruit Profile (view)/Alerts button""))",Chrome 89.0.4389.114,,,2021-04-13 15:43:18,2021-04-13 15:43:18,0.139s,PASSED
"mouseOver(findTestObject(""Dashboard Page/Draft Board (Dashboard)/1-PG on Draft Board""))",Chrome 89.0.4389.114,,,2021-04-13 15:43:18,2021-04-13 15:43:18,0.278s,PASSED
"enhancedClick(findTestObject(""Recruit Profile (view)/CLOSE button""))",Chrome 89.0.4389.114,,,2021-04-13 15:43:18,2021-04-13 15:43:18,0.120s,PASSED
delay(1),Chrome 89.0.4389.114,,,2021-04-13 15:43:18,2021-04-13 15:43:19,1.007s,PASSED
"verifyElementNotPresent(findTestObject(""Dashboard Page/Draft Board (Dashboard)/Alerts bell indicator""), 0)",Chrome 89.0.4389.114,,,2021-04-13 15:43:19,2021-04-13 15:43:19,0.092s,PASSED
"mouseOver(findTestObject(""Dashboard Page/Draft Board (Dashboard)/1-PG on Draft Board""))",Chrome 89.0.4389.114,,,2021-04-13 15:43:19,2021-04-13 15:43:20,0.173s,PASSED
"enhancedClick(findTestObject(""Dashboard Page/Draft Board (Dashboard)/Delete 1-PG on Draft Board""))",Chrome 89.0.4389.114,,,2021-04-13 15:43:20,2021-04-13 15:43:20,0.096s,PASSED
"enhancedClick(findTestObject(""Dashboard Page/Draft Board (Dashboard)/Draft Board Season Dropdown""))",Chrome 89.0.4389.114,,,2021-04-13 15:43:20,2021-04-13 15:43:20,0.101s,PASSED
"enhancedClick(findTestObject(""Dashboard Page/Draft Board (Dashboard)/Draft Board Season Dropdown - 2023""))",Chrome 89.0.4389.114,,,2021-04-13 15:43:20,2021-04-13 15:43:20,0.085s,PASSED
"mouseOver(findTestObject(""Dashboard Page/Draft Board (Dashboard)/blank 1-PG on Draft Board (Dashboard)""))",Chrome 89.0.4389.114,,,2021-04-13 15:43:20,2021-04-13 15:43:20,0.176s,PASSED
"enhancedClick(findTestObject(""Dashboard Page/Draft Board (Dashboard)/blank 1-PG on Draft Board (Dashboard)""))",Chrome 89.0.4389.114,,,2021-04-13 15:43:20,2021-04-13 15:43:20,0.071s,PASSED
"enhancedClick(findTestObject(""Dashboard Page/Draft Board (Dashboard)/Draft Board Dropdown Player1""))",Chrome 89.0.4389.114,,,2021-04-13 15:43:20,2021-04-13 15:43:20,0.141s,PASSED
delay(1),Chrome 89.0.4389.114,,,2021-04-13 15:43:20,2021-04-13 15:43:21,1.006s,PASSED
"mouseOver(findTestObject(""Dashboard Page/Draft Board (Dashboard)/blank 2-PG on Draft Board (Dashboard)""))",Chrome 89.0.4389.114,,,2021-04-13 15:43:21,2021-04-13 15:43:21,0.175s,PASSED
"enhancedClick(findTestObject(""Dashboard Page/Draft Board (Dashboard)/blank 2-PG on Draft Board (Dashboard)""))",Chrome 89.0.4389.114,,,2021-04-13 15:43:21,2021-04-13 15:43:22,0.071s,PASSED
"enhancedClick(findTestObject(""Dashboard Page/Draft Board (Dashboard)/Recruit Search field""))",Chrome 89.0.4389.114,,,2021-04-13 15:43:22,2021-04-13 15:43:22,0.083s,PASSED
"sendKeys(findTestObject(""Dashboard Page/Draft Board (Dashboard)/Recruit Search field""), ""Mikey Williams"")",Chrome 89.0.4389.114,,,2021-04-13 15:43:22,2021-04-13 15:43:22,0.075s,PASSED
delay(2),Chrome 89.0.4389.114,,,2021-04-13 15:43:22,2021-04-13 15:43:24,2.006s,PASSED
"enhancedClick(findTestObject(""Dashboard Page/Draft Board (Dashboard)/Draft Board Dropdown Player2""))",Chrome 89.0.4389.114,,,2021-04-13 15:43:24,2021-04-13 15:43:24,0.088s,PASSED
"mouseOver(findTestObject(""Dashboard Page/Draft Board (Dashboard)/2-PG on Draft Board""))",Chrome 89.0.4389.114,,,2021-04-13 15:43:24,2021-04-13 15:43:24,0.218s,PASSED
"enhancedClick(findTestObject(""Dashboard Page/Draft Board (Dashboard)/Delete 2-PG on Draft Board""))",Chrome 89.0.4389.114,,,2021-04-13 15:43:24,2021-04-13 15:43:24,0.085s,PASSED
"mouseOver(findTestObject(""Dashboard Page/Draft Board (Dashboard)/1-PG on Draft Board""))",Chrome 89.0.4389.114,,,2021-04-13 15:43:24,2021-04-13 15:43:24,0.195s,PASSED
"enhancedClick(findTestObject(""Dashboard Page/Draft Board (Dashboard)/Delete 1-PG on Draft Board""))",Chrome 89.0.4389.114,,,2021-04-13 15:43:24,2021-04-13 15:43:24,0.085s,PASSED
"enhancedClick(findTestObject(""Dashboard Page/Draft Board (Dashboard)/Draft Board Link""))",Chrome 89.0.4389.114,,,2021-04-13 15:43:24,2021-04-13 15:43:25,0.117s,PASSED
"mouseOver(findTestObject(""Recruits Page/Draft Board (Recruits)/blank PG1 Draft Board-Recruits""))",Chrome 89.0.4389.114,,,2021-04-13 15:43:25,2021-04-13 15:43:25,0.199s,PASSED
"enhancedClick(findTestObject(""Recruits Page/Draft Board (Recruits)/blank PG1 Draft Board-Recruits""))",Chrome 89.0.4389.114,,,2021-04-13 15:43:25,2021-04-13 15:43:25,0.080s,PASSED
"enhancedClick(findTestObject(""Recruits Page/Draft Board (Recruits)/Draft Board dropdown P1 (Recruits)""))",Chrome 89.0.4389.114,,,2021-04-13 15:43:25,2021-04-13 15:43:25,0.240s,PASSED
"mouseOver(findTestObject(""Dashboard Page/Draft Board (Dashboard)/1-PG on Draft Board""))",Chrome 89.0.4389.114,,,2021-04-13 15:43:25,2021-04-13 15:43:25,0.410s,PASSED
"enhancedClick(findTestObject(""Recruits Page/Draft Board (Recruits)/Draft Board Color Dropper icon""))",Chrome 89.0.4389.114,,,2021-04-13 15:43:25,2021-04-13 15:43:26,0.075s,PASSED
"enhancedClick(findTestObject(""Recruits Page/Draft Board (Recruits)/Yellow Color Draft Board""))",Chrome 89.0.4389.114,,,2021-04-13 15:43:26,2021-04-13 15:43:26,0.084s,PASSED
delay(1),Chrome 89.0.4389.114,,,2021-04-13 15:43:26,2021-04-13 15:43:27,1.005s,PASSED
"verifyElementAttributeValue(findTestObject(""Dashboard Page/Draft Board (Dashboard)/1-PG on Draft Board""), ""class"", ""draft-board-player dashboard-player css-1n2x8eh-DraftBoard"", 0)",Chrome 89.0.4389.114,,,2021-04-13 15:43:27,2021-04-13 15:43:27,0.064s,PASSED
"mouseOver(findTestObject(""Dashboard Page/Draft Board (Dashboard)/1-PG on Draft Board""))",Chrome 89.0.4389.114,,,2021-04-13 15:43:27,2021-04-13 15:43:27,0.166s,PASSED
"enhancedClick(findTestObject(""Recruits Page/Draft Board (Recruits)/Draft Board Color Dropper icon""))",Chrome 89.0.4389.114,,,2021-04-13 15:43:27,2021-04-13 15:43:27,0.060s,PASSED
"enhancedClick(findTestObject(""Recruits Page/Draft Board (Recruits)/Green Color Draft Board""))",Chrome 89.0.4389.114,,,2021-04-13 15:43:27,2021-04-13 15:43:59,31.626s,PASSED
delay(1),Chrome 89.0.4389.114,,,2021-04-13 15:43:59,2021-04-13 15:44:00,1.006s,PASSED
"verifyElementAttributeValue(findTestObject(""Dashboard Page/Draft Board (Dashboard)/1-PG on Draft Board""), ""class"", ""draft-board-player dashboard-player css-15mrb88-DraftBoard"", 0)",Chrome 89.0.4389.114,,,2021-04-13 15:44:00,2021-04-13 15:44:00,0.058s,PASSED
"mouseOver(findTestObject(""Dashboard Page/Draft Board (Dashboard)/1-PG on Draft Board""))",Chrome 89.0.4389.114,,,2021-04-13 15:44:00,2021-04-13 15:44:00,0.165s,PASSED
"enhancedClick(findTestObject(""Recruits Page/Draft Board (Recruits)/Draft Board Color Dropper icon""))",Chrome 89.0.4389.114,,,2021-04-13 15:44:00,2021-04-13 15:44:00,0.066s,PASSED
"enhancedClick(findTestObject(""Recruits Page/Draft Board (Recruits)/Draft Board Color pencil icon""))",Chrome 89.0.4389.114,,,2021-04-13 15:44:00,2021-04-13 15:44:00,0.649s,PASSED
"enhancedClick(findTestObject(""Recruits Page/Draft Board (Recruits)/Add Draft Board Color plus button""))",Chrome 89.0.4389.114,,,2021-04-13 15:44:00,2021-04-13 15:44:01,0.095s,PASSED
"doubleClick(findTestObject(""Recruits Page/Draft Board (Recruits)/Draft Board Color Hex field""))",Chrome 89.0.4389.114,,,2021-04-13 15:44:01,2021-04-13 15:44:01,0.204s,PASSED
"sendKeys(findTestObject(""Recruits Page/Draft Board (Recruits)/Draft Board Color Hex field""), ""4832a8"")",Chrome 89.0.4389.114,,,2021-04-13 15:44:01,2021-04-13 15:44:01,0.074s,PASSED
"enhancedClick(findTestObject(""Recruits Page/Draft Board (Recruits)/Manage Colors Close button""))",Chrome 89.0.4389.114,,,2021-04-13 15:44:01,2021-04-13 15:44:01,0.075s,PASSED
"mouseOver(findTestObject(""Dashboard Page/Draft Board (Dashboard)/1-PG on Draft Board""))",Chrome 89.0.4389.114,,,2021-04-13 15:44:01,2021-04-13 15:44:01,0.219s,PASSED
"enhancedClick(findTestObject(""Recruits Page/Draft Board (Recruits)/Draft Board Color Dropper icon""))",Chrome 89.0.4389.114,,,2021-04-13 15:44:01,2021-04-13 15:44:01,0.110s,PASSED
"enhancedClick(findTestObject(""Recruits Page/Draft Board (Recruits)/My Custom Color Draft Board""))",Chrome 89.0.4389.114,,,2021-04-13 15:44:01,2021-04-13 15:44:01,0.075s,PASSED
delay(1),Chrome 89.0.4389.114,,,2021-04-13 15:44:01,2021-04-13 15:44:02,1.002s,PASSED
"verifyElementAttributeValue(findTestObject(""Dashboard Page/Draft Board (Dashboard)/1-PG on Draft Board""), ""class"", ""draft-board-player dashboard-player css-ms4n7m-DraftBoard"", 0)",Chrome 89.0.4389.114,,,2021-04-13 15:44:02,2021-04-13 15:44:02,0.055s,PASSED
"mouseOver(findTestObject(""Dashboard Page/Draft Board (Dashboard)/1-PG on Draft Board""))",Chrome 89.0.4389.114,,,2021-04-13 15:44:02,2021-04-13 15:44:03,0.163s,PASSED
"enhancedClick(findTestObject(""Recruits Page/Draft Board (Recruits)/Draft Board Color Dropper icon""))",Chrome 89.0.4389.114,,,2021-04-13 15:44:03,2021-04-13 15:44:03,0.063s,PASSED
"enhancedClick(findTestObject(""Recruits Page/Draft Board (Recruits)/Reset Draft Board color""))",Chrome 89.0.4389.114,,,2021-04-13 15:44:03,2021-04-13 15:44:03,0.631s,PASSED
delay(1),Chrome 89.0.4389.114,,,2021-04-13 15:44:03,2021-04-13 15:44:04,1.004s,PASSED
"verifyElementAttributeValue(findTestObject(""Dashboard Page/Draft Board (Dashboard)/1-PG on Draft Board""), ""class"", ""draft-board-player dashboard-player css-g7hzzu-DraftBoard"", 0)",Chrome 89.0.4389.114,,,2021-04-13 15:44:04,2021-04-13 15:44:04,0.056s,PASSED
"mouseOver(findTestObject(""Dashboard Page/Draft Board (Dashboard)/1-PG on Draft Board""))",Chrome 89.0.4389.114,,,2021-04-13 15:44:04,2021-04-13 15:44:04,0.161s,PASSED
"enhancedClick(findTestObject(""Recruits Page/Draft Board (Recruits)/Draft Board Color Dropper icon""))",Chrome 89.0.4389.114,,,2021-04-13 15:44:04,2021-04-13 15:44:05,0.060s,PASSED
"enhancedClick(findTestObject(""Recruits Page/Draft Board (Recruits)/Draft Board Color pencil icon""))",Chrome 89.0.4389.114,,,2021-04-13 15:44:05,2021-04-13 15:44:05,0.080s,PASSED
"mouseOver(findTestObject(""Recruits Page/Draft Board (Recruits)/Manage Colors Custom1""))",Chrome 89.0.4389.114,,,2021-04-13 15:44:05,2021-04-13 15:44:05,0.184s,PASSED
"waitForElementPresent(findTestObject(""Recruits Page/Draft Board (Recruits)/Delete custom color1""), 0)",Chrome 89.0.4389.114,,,2021-04-13 15:44:05,2021-04-13 15:44:39,34.058s,PASSED
"enhancedClick(findTestObject(""Recruits Page/Draft Board (Recruits)/Delete custom color1""))",Chrome 89.0.4389.114,,,2021-04-13 15:44:39,2021-04-13 15:45:13,34.552s,FAILED
,,,,,,,
Test Cases/Depth Chart,Chrome 89.0.4389.114,,,2021-04-13 15:45:13,2021-04-13 15:45:26,12.396s,PASSED
openBrowser(URL),Chrome 89.0.4389.114,,,2021-04-13 15:45:14,2021-04-13 15:45:15,1.901s,PASSED
"setText(findTestObject(""Login Page/Email""), email)",Chrome 89.0.4389.114,,,2021-04-13 15:45:15,2021-04-13 15:45:16,0.152s,PASSED
"setText(findTestObject(""Login Page/password""), password)",Chrome 89.0.4389.114,,,2021-04-13 15:45:16,2021-04-13 15:45:16,0.101s,PASSED
"click(findTestObject(""Login Page/Sign In""))",Chrome 89.0.4389.114,,,2021-04-13 15:45:16,2021-04-13 15:45:17,1.806s,PASSED
"waitForElementVisible(findTestObject(""Top Navigation Menu/Dashboard""), 60)",Chrome 89.0.4389.114,,,2021-04-13 15:45:17,2021-04-13 15:45:18,0.484s,PASSED
"enhancedClick(findTestObject(""Top Navigation Menu/Dashboard""))",Chrome 89.0.4389.114,,,2021-04-13 15:45:18,2021-04-13 15:45:18,0.067s,PASSED
delay(3),Chrome 89.0.4389.114,,,2021-04-13 15:45:18,2021-04-13 15:45:21,3.002s,PASSED
"enhancedClick(findTestObject(""Dashboard Page/Depth Chart/Depth Chart season dropdown""))",Chrome 89.0.4389.114,,,2021-04-13 15:45:21,2021-04-13 15:45:21,0.122s,PASSED
"enhancedClick(findTestObject(""Dashboard Page/Depth Chart/Season Dropdown Index3""))",Chrome 89.0.4389.114,,,2021-04-13 15:45:21,2021-04-13 15:45:21,0.130s,PASSED
"enhancedClick(findTestObject(""Dashboard Page/Depth Chart/Depth Chart season dropdown""))",Chrome 89.0.4389.114,,,2021-04-13 15:45:21,2021-04-13 15:45:21,0.111s,PASSED
"enhancedClick(findTestObject(""Dashboard Page/Depth Chart/Season Dropdown Index2""))",Chrome 89.0.4389.114,,,2021-04-13 15:45:21,2021-04-13 15:45:22,0.132s,PASSED
"enhancedClick(findTestObject(""Dashboard Page/Depth Chart/EDIT Depth Chart""))",Chrome 89.0.4389.114,,,2021-04-13 15:45:22,2021-04-13 15:45:22,0.176s,PASSED
"enhancedClick(findTestObject(""Dashboard Page/Depth Chart/Depth Chart Edit (sr, pg, 1)""))",Chrome 89.0.4389.114,,,2021-04-13 15:45:22,2021-04-13 15:45:22,0.208s,PASSED
"enhancedClick(findTestObject(""Dashboard Page/Depth Chart/SAVE Depth Chart""))",Chrome 89.0.4389.114,,,2021-04-13 15:45:22,2021-04-13 15:45:22,0.128s,PASSED
delay(2),Chrome 89.0.4389.114,,,2021-04-13 15:45:22,2021-04-13 15:45:24,2.004s,PASSED
"verifyTextNotPresent(playerHidden, false)",Chrome 89.0.4389.114,,,2021-04-13 15:45:24,2021-04-13 15:45:24,0.128s,PASSED
"enhancedClick(findTestObject(""Dashboard Page/Depth Chart/EDIT Depth Chart""))",Chrome 89.0.4389.114,,,2021-04-13 15:45:24,2021-04-13 15:45:24,0.101s,PASSED
"enhancedClick(findTestObject(""Dashboard Page/Depth Chart/Depth Chart Edit (sr, pg, 1)""))",Chrome 89.0.4389.114,,,2021-04-13 15:45:24,2021-04-13 15:45:24,0.112s,PASSED
"enhancedClick(findTestObject(""Dashboard Page/Depth Chart/SAVE Depth Chart""))",Chrome 89.0.4389.114,,,2021-04-13 15:45:24,2021-04-13 15:45:24,0.091s,PASSED
"verifyTextPresent(playerHidden, false)",Chrome 89.0.4389.114,,,2021-04-13 15:45:24,2021-04-13 15:45:25,0.220s,PASSED
delay(1),Chrome 89.0.4389.114,,,2021-04-13 15:45:25,2021-04-13 15:45:26,1.007s,PASSED
closeBrowser(),Chrome 89.0.4389.114,,,2021-04-13 15:45:26,2021-04-13 15:45:26,0.086s,PASSED
,,,,,,,
Test Cases/Dashboard Calendar,Chrome 89.0.4389.114,,,2021-04-13 15:45:26,2021-04-13 15:45:53,27.415s,FAILED
openBrowser(URL),Chrome 89.0.4389.114,,,2021-04-13 15:45:26,2021-04-13 15:45:28,1.855s,PASSED
"setText(findTestObject(""Login Page/Email""), email)",Chrome 89.0.4389.114,,,2021-04-13 15:45:28,2021-04-13 15:45:28,0.154s,PASSED
"setText(findTestObject(""Login Page/password""), password)",Chrome 89.0.4389.114,,,2021-04-13 15:45:28,2021-04-13 15:45:28,0.108s,PASSED
"click(findTestObject(""Login Page/Sign In""))",Chrome 89.0.4389.114,,,2021-04-13 15:45:28,2021-04-13 15:45:30,1.843s,PASSED
"waitForElementVisible(findTestObject(""Top Navigation Menu/Dashboard""), 60)",Chrome 89.0.4389.114,,,2021-04-13 15:45:30,2021-04-13 15:45:30,0.491s,PASSED
"enhancedClick(findTestObject(""Top Navigation Menu/Recruits""))",Chrome 89.0.4389.114,,,2021-04-13 15:45:30,2021-04-13 15:45:31,0.128s,PASSED
delay(3),Chrome 89.0.4389.114,,,2021-04-13 15:45:31,2021-04-13 15:45:34,3.003s,PASSED
"enhancedClick(findTestObject(""Top Navigation Menu/Dashboard""))",Chrome 89.0.4389.114,,,2021-04-13 15:45:34,2021-04-13 15:45:34,0.189s,PASSED
delay(3),Chrome 89.0.4389.114,,,2021-04-13 15:45:34,2021-04-13 15:45:37,3.024s,PASSED
"enhancedClick(findTestObject(""Dashboard Page/Calendar (Dashboard)/Toggle Left (Calendar Dashboard)""))",Chrome 89.0.4389.114,,,2021-04-13 15:45:37,2021-04-13 15:45:37,0.128s,PASSED
delay(5),Chrome 89.0.4389.114,,,2021-04-13 15:45:37,2021-04-13 15:45:42,5.006s,PASSED
"enhancedClick(findTestObject(""Dashboard Page/Calendar (Dashboard)/Toggle Right (Calendar Dashboard)""))",Chrome 89.0.4389.114,,,2021-04-13 15:45:42,2021-04-13 15:45:42,0.278s,PASSED
delay(5),Chrome 89.0.4389.114,,,2021-04-13 15:45:42,2021-04-13 15:45:47,5.006s,PASSED
"enhancedClick(findTestObject(""Dashboard Page/Calendar (Dashboard)/Dashboard Calendar SHOW dropdown""))",Chrome 89.0.4389.114,,,2021-04-13 15:45:47,2021-04-13 15:45:47,0.126s,PASSED
"enhancedClick(findTestObject(""Dashboard Page/Calendar (Dashboard)/My Calendar option""))",Chrome 89.0.4389.114,,,2021-04-13 15:45:47,2021-04-13 15:45:47,0.095s,PASSED
"enhancedClick(findTestObject(""Dashboard Page/Calendar (Dashboard)/My Calendar option""))",Chrome 89.0.4389.114,,,2021-04-13 15:45:47,2021-04-13 15:45:47,0.072s,PASSED
"enhancedClick(findTestObject(""Dashboard Page/Calendar (Dashboard)/Team calendar option""))",Chrome 89.0.4389.114,,,2021-04-13 15:45:47,2021-04-13 15:45:48,0.076s,PASSED
"enhancedClick(findTestObject(""Dashboard Page/Calendar (Dashboard)/Team calendar option""))",Chrome 89.0.4389.114,,,2021-04-13 15:45:48,2021-04-13 15:45:48,0.056s,PASSED
"enhancedClick(findTestObject(""Dashboard Page/Calendar (Dashboard)/Tasks calendar option""))",Chrome 89.0.4389.114,,,2021-04-13 15:45:48,2021-04-13 15:45:48,0.069s,PASSED
"enhancedClick(findTestObject(""Dashboard Page/Calendar (Dashboard)/Tasks calendar option""))",Chrome 89.0.4389.114,,,2021-04-13 15:45:48,2021-04-13 15:45:48,0.056s,PASSED
"enhancedClick(findTestObject(""Dashboard Page/Calendar (Dashboard)/NCAA Calendar option""))",Chrome 89.0.4389.114,,,2021-04-13 15:45:48,2021-04-13 15:45:48,0.068s,PASSED
"enhancedClick(findTestObject(""Dashboard Page/Calendar (Dashboard)/NCAA Calendar option""))",Chrome 89.0.4389.114,,,2021-04-13 15:45:48,2021-04-13 15:45:48,0.059s,PASSED
"enhancedClick(findTestObject(""Dashboard Page/Calendar (Dashboard)/My Live Period calendar option""))",Chrome 89.0.4389.114,,,2021-04-13 15:45:48,2021-04-13 15:45:48,0.072s,PASSED
"enhancedClick(findTestObject(""Dashboard Page/Calendar (Dashboard)/My Live Period calendar option""))",Chrome 89.0.4389.114,,,2021-04-13 15:45:48,2021-04-13 15:45:48,0.058s,PASSED
"enhancedClick(findTestObject(""Dashboard Page/Calendar (Dashboard)/Dashboard Calendar SHOW dropdown""))",Chrome 89.0.4389.114,,,2021-04-13 15:45:48,2021-04-13 15:45:48,0.071s,PASSED
"enhancedClick(findTestObject(""Dashboard Page/Calendar (Dashboard)/Dashboard Calendar Add New""))",Chrome 89.0.4389.114,,,2021-04-13 15:45:48,2021-04-13 15:45:48,0.148s,PASSED
"enhancedClick(findTestObject(""Dashboard Page/Calendar (Dashboard)/Add Event modal/Event Name field""))",Chrome 89.0.4389.114,,,2021-04-13 15:45:48,2021-04-13 15:45:48,0.127s,PASSED
"sendKeys(findTestObject(""Dashboard Page/Calendar (Dashboard)/Add Event modal/Event Name field""), ""Test Event1"")",Chrome 89.0.4389.114,,,2021-04-13 15:45:48,2021-04-13 15:45:48,0.084s,PASSED
"enhancedClick(findTestObject(""Dashboard Page/Calendar (Dashboard)/Add Event modal/Event Location field""))",Chrome 89.0.4389.114,,,2021-04-13 15:45:48,2021-04-13 15:45:49,0.094s,PASSED
"sendKeys(findTestObject(""Dashboard Page/Calendar (Dashboard)/Add Event modal/Event Location field""), ""444 N. Michigan Ave"")",Chrome 89.0.4389.114,,,2021-04-13 15:45:49,2021-04-13 15:45:49,0.097s,PASSED
delay(1),Chrome 89.0.4389.114,,,2021-04-13 15:45:49,2021-04-13 15:45:50,1.006s,PASSED
"enhancedClick(findTestObject(""Dashboard Page/Calendar (Dashboard)/Add Event modal/Select searched location""))",Chrome 89.0.4389.114,,,2021-04-13 15:45:50,2021-04-13 15:45:50,0.075s,PASSED
"enhancedClick(findTestObject(""Dashboard Page/Calendar (Dashboard)/Add Event modal/Select Recruits dropdown""))",Chrome 89.0.4389.114,,,2021-04-13 15:45:50,2021-04-13 15:45:50,0.076s,PASSED
"enhancedClick(findTestObject(""Dashboard Page/Calendar (Dashboard)/Add Event modal/Recruit1 in dropdown (Add Event modal)""))",Chrome 89.0.4389.114,,,2021-04-13 15:45:50,2021-04-13 15:45:50,0.078s,PASSED
"enhancedClick(findTestObject(""Dashboard Page/Calendar (Dashboard)/Add Event modal/Add Event Attendees""))",Chrome 89.0.4389.114,,,2021-04-13 15:45:50,2021-04-13 15:45:50,0.075s,PASSED
"enhancedClick(findTestObject(""Dashboard Page/Calendar (Dashboard)/Add Event modal/Recruiters checkbox""))",Chrome 89.0.4389.114,,,2021-04-13 15:45:50,2021-04-13 15:45:50,0.094s,PASSED
"enhancedClick(findTestObject(""Dashboard Page/Calendar (Dashboard)/Add Event modal/Game Note field""))",Chrome 89.0.4389.114,,,2021-04-13 15:45:50,2021-04-13 15:45:50,0.081s,PASSED
"sendKeys(findTestObject(""Dashboard Page/Calendar (Dashboard)/Add Event modal/Game Note field""), ""arrive early"")",Chrome 89.0.4389.114,,,2021-04-13 15:45:50,2021-04-13 15:45:50,0.140s,PASSED
"enhancedClick(findTestObject(""Dashboard Page/Calendar (Dashboard)/Add Event modal/Add Event Save button""))",Chrome 89.0.4389.114,,,2021-04-13 15:45:50,2021-04-13 15:45:50,0.070s,PASSED
delay(2),Chrome 89.0.4389.114,,,2021-04-13 15:45:50,2021-04-13 15:45:52,2.007s,PASSED
"verifyTextPresent(""Test Event1"", false)",Chrome 89.0.4389.114,,,2021-04-13 15:45:52,2021-04-13 15:45:53,0.899s,FAILED
,,,,,,,
Test Cases/Add_Archive_Delete New Recruit,Chrome 89.0.4389.114,,,2021-04-13 15:45:53,2021-04-13 15:46:10,16.333s,PASSED
openBrowser(URL),Chrome 89.0.4389.114,,,2021-04-13 15:45:53,2021-04-13 15:45:55,1.812s,PASSED
"setText(findTestObject(""Login Page/Email""), email)",Chrome 89.0.4389.114,,,2021-04-13 15:45:55,2021-04-13 15:45:55,0.171s,PASSED
"setText(findTestObject(""Login Page/password""), password)",Chrome 89.0.4389.114,,,2021-04-13 15:45:55,2021-04-13 15:45:55,0.104s,PASSED
"click(findTestObject(""Login Page/Sign In""))",Chrome 89.0.4389.114,,,2021-04-13 15:45:55,2021-04-13 15:45:57,1.768s,PASSED
"waitForElementVisible(findTestObject(""Top Navigation Menu/Dashboard""), 60)",Chrome 89.0.4389.114,,,2021-04-13 15:45:57,2021-04-13 15:45:58,0.486s,PASSED
"click(findTestObject(""Top Navigation Menu/Recruits""))",Chrome 89.0.4389.114,,,2021-04-13 15:45:58,2021-04-13 15:45:58,0.120s,PASSED
"click(findTestObject(""Recruits Page/ADD RECRUIT button""))",Chrome 89.0.4389.114,,,2021-04-13 15:45:58,2021-04-13 15:45:58,0.112s,PASSED
"setText(findTestObject(""Recruits Page/Add New Recruit modal/First Name field""), ""Josh"")",Chrome 89.0.4389.114,,,2021-04-13 15:45:58,2021-04-13 15:45:59,1.013s,PASSED
"setText(findTestObject(""Recruits Page/Add New Recruit modal/Last Name field""), ""Allen"")",Chrome 89.0.4389.114,,,2021-04-13 15:45:59,2021-04-13 15:45:59,0.126s,PASSED
"setText(findTestObject(""Recruits Page/Add New Recruit modal/Class field""), ""2023"")",Chrome 89.0.4389.114,,,2021-04-13 15:45:59,2021-04-13 15:45:59,0.119s,PASSED
"click(findTestObject(""Recruits Page/Add New Recruit modal/Height field input""))",Chrome 89.0.4389.114,,,2021-04-13 15:45:59,2021-04-13 15:45:59,0.077s,PASSED
"setText(findTestObject(""Recruits Page/Add New Recruit modal/Height field input""), ""69"")",Chrome 89.0.4389.114,,,2021-04-13 15:45:59,2021-04-13 15:45:59,0.091s,PASSED
"setText(findTestObject(""Recruits Page/Add New Recruit modal/Birthdate field input""), ""1/1/2005"")",Chrome 89.0.4389.114,,,2021-04-13 15:45:59,2021-04-13 15:46:00,0.228s,PASSED
"enhancedClick(findTestObject(""Recruits Page/Add New Recruit modal/Birthdate field Label""))",Chrome 89.0.4389.114,,,2021-04-13 15:46:00,2021-04-13 15:46:00,0.116s,PASSED
"setText(findTestObject(""Recruits Page/Add New Recruit modal/High School field input""), ""highland park"")",Chrome 89.0.4389.114,,,2021-04-13 15:46:00,2021-04-13 15:46:00,0.152s,PASSED
"sendKeys(findTestObject(""Recruits Page/Add New Recruit modal/High School field input""), Keys.chord(DOWN))",Chrome 89.0.4389.114,,,2021-04-13 15:46:00,2021-04-13 15:46:00,0.058s,PASSED
"sendKeys(findTestObject(""Recruits Page/Add New Recruit modal/High School field input""), Keys.chord(ENTER))",Chrome 89.0.4389.114,,,2021-04-13 15:46:00,2021-04-13 15:46:00,0.051s,PASSED
"setText(findTestObject(""Recruits Page/Add New Recruit modal/High School Coach Name field""), ""Coach Miller"")",Chrome 89.0.4389.114,,,2021-04-13 15:46:00,2021-04-13 15:46:00,0.150s,PASSED
"setText(findTestObject(""Recruits Page/Add New Recruit modal/High School Coach Phone field""), ""8474713163"")",Chrome 89.0.4389.114,,,2021-04-13 15:46:00,2021-04-13 15:46:00,0.144s,PASSED
"setText(findTestObject(""Recruits Page/Add New Recruit modal/Club Team field""), ""Mac Irvin Fire"")",Chrome 89.0.4389.114,,,2021-04-13 15:46:00,2021-04-13 15:46:00,0.158s,PASSED
"setText(findTestObject(""Recruits Page/Add New Recruit modal/Club Team Number field""), ""10"")",Chrome 89.0.4389.114,,,2021-04-13 15:46:00,2021-04-13 15:46:01,0.109s,PASSED
"click(findTestObject(""Recruits Page/Add New Recruit modal/SAVE button""))",Chrome 89.0.4389.114,,,2021-04-13 15:46:01,2021-04-13 15:46:01,0.149s,PASSED
"setText(findTestObject(""Recruits Page/Recruit Search Field on Recruits page""), ""josh allen"")",Chrome 89.0.4389.114,,,2021-04-13 15:46:01,2021-04-13 15:46:01,0.201s,PASSED
delay(1),Chrome 89.0.4389.114,,,2021-04-13 15:46:01,2021-04-13 15:46:02,1.004s,PASSED
"enhancedClick(findTestObject(""Recruits Page/Archive recruit""))",Chrome 89.0.4389.114,,,2021-04-13 15:46:02,2021-04-13 15:46:02,0.086s,PASSED
delay(1),Chrome 89.0.4389.114,,,2021-04-13 15:46:02,2021-04-13 15:46:03,1.006s,PASSED
"click(findTestObject(""Recruits Page/All Recruits List selection""))",Chrome 89.0.4389.114,,,2021-04-13 15:46:03,2021-04-13 15:46:03,0.078s,PASSED
delay(1),Chrome 89.0.4389.114,,,2021-04-13 15:46:03,2021-04-13 15:46:04,1.005s,PASSED
"click(findTestObject(""Recruits Page/Archived List selection""))",Chrome 89.0.4389.114,,,2021-04-13 15:46:04,2021-04-13 15:46:04,0.111s,PASSED
delay(1),Chrome 89.0.4389.114,,,2021-04-13 15:46:04,2021-04-13 15:46:05,1.006s,PASSED
"enhancedClick(findTestObject(""Recruits Page/Archived list ellipsis button""))",Chrome 89.0.4389.114,,,2021-04-13 15:46:05,2021-04-13 15:46:05,0.082s,PASSED
delay(1),Chrome 89.0.4389.114,,,2021-04-13 15:46:05,2021-04-13 15:46:06,1.004s,PASSED
"enhancedClick(findTestObject(""Recruits Page/Delete1""))",Chrome 89.0.4389.114,,,2021-04-13 15:46:06,2021-04-13 15:46:06,0.103s,PASSED
delay(1),Chrome 89.0.4389.114,,,2021-04-13 15:46:06,2021-04-13 15:46:07,1.005s,PASSED
"enhancedClick(findTestObject(""Recruits Page/Delete2""))",Chrome 89.0.4389.114,,,2021-04-13 15:46:07,2021-04-13 15:46:07,0.104s,PASSED
delay(2),Chrome 89.0.4389.114,,,2021-04-13 15:46:07,2021-04-13 15:46:09,2.005s,PASSED
closeBrowser(),Chrome 89.0.4389.114,,,2021-04-13 15:46:09,2021-04-13 15:46:10,0.083s,PASSED
,,,,,,,
Test Cases/Tasks,Chrome 89.0.4389.114,,,2021-04-13 15:46:10,2021-04-13 15:46:49,39.522s,FAILED
openBrowser(URL),Chrome 89.0.4389.114,,,2021-04-13 15:46:10,2021-04-13 15:46:12,1.986s,PASSED
"setText(findTestObject(""Login Page/Email""), email)",Chrome 89.0.4389.114,,,2021-04-13 15:46:12,2021-04-13 15:46:12,0.150s,PASSED
"setText(findTestObject(""Login Page/password""), password)",Chrome 89.0.4389.114,,,2021-04-13 15:46:12,2021-04-13 15:46:12,0.101s,PASSED
"click(findTestObject(""Login Page/Sign In""))",Chrome 89.0.4389.114,,,2021-04-13 15:46:12,2021-04-13 15:46:14,1.748s,PASSED
"waitForElementVisible(findTestObject(""Top Navigation Menu/Dashboard""), 60)",Chrome 89.0.4389.114,,,2021-04-13 15:46:14,2021-04-13 15:46:14,0.513s,PASSED
"enhancedClick(findTestObject(""Top Navigation Menu/Recruits""))",Chrome 89.0.4389.114,,,2021-04-13 15:46:14,2021-04-13 15:46:14,0.122s,PASSED
"enhancedClick(findTestObject(""Recruits Page/Tasks tab""))",Chrome 89.0.4389.114,,,2021-04-13 15:46:14,2021-04-13 15:46:14,0.098s,PASSED
"enhancedClick(findTestObject(""Recruits Page/Tasks/Add Task button""))",Chrome 89.0.4389.114,,,2021-04-13 15:46:14,2021-04-13 15:46:15,0.192s,PASSED
"enhancedClick(findTestObject(""Recruits Page/Tasks/Add Task Recruit field""))",Chrome 89.0.4389.114,,,2021-04-13 15:46:15,2021-04-13 15:46:15,0.513s,PASSED
"enhancedClick(findTestObject(""Recruits Page/Tasks/Add Task recruit dropdown1""))",Chrome 89.0.4389.114,,,2021-04-13 15:46:15,2021-04-13 15:46:15,0.076s,PASSED
"enhancedClick(findTestObject(""Recruits Page/Tasks/Add Task Assigned To field""))",Chrome 89.0.4389.114,,,2021-04-13 15:46:15,2021-04-13 15:46:15,0.070s,PASSED
"enhancedClick(findTestObject(""Recruits Page/Tasks/Add Task Assigned To dropdown1""))",Chrome 89.0.4389.114,,,2021-04-13 15:46:15,2021-04-13 15:46:15,0.064s,PASSED
"enhancedClick(findTestObject(""Recruits Page/Tasks/Add Task Instruction field""))",Chrome 89.0.4389.114,,,2021-04-13 15:46:15,2021-04-13 15:46:15,0.065s,PASSED
"setText(findTestObject(""Recruits Page/Tasks/Add Task Instruction field""), ""test task"")",Chrome 89.0.4389.114,,,2021-04-13 15:46:15,2021-04-13 15:46:16,0.123s,PASSED
"enhancedClick(findTestObject(""Recruits Page/Tasks/Save new task""))",Chrome 89.0.4389.114,,,2021-04-13 15:46:16,2021-04-13 15:46:16,0.078s,PASSED
"verifyElementVisible(findTestObject(""Recruits Page/Tasks/Due task1 row""))",Chrome 89.0.4389.114,,,2021-04-13 15:46:16,2021-04-13 15:46:16,0.063s,PASSED
"mouseOver(findTestObject(""Recruits Page/Tasks/Due task1 ellipsis""))",Chrome 89.0.4389.114,,,2021-04-13 15:46:16,2021-04-13 15:46:16,0.193s,PASSED
"enhancedClick(findTestObject(""Recruits Page/Tasks/Due task1 ellipsis""))",Chrome 89.0.4389.114,,,2021-04-13 15:46:16,2021-04-13 15:46:16,0.074s,PASSED
"enhancedClick(findTestObject(""Recruits Page/Tasks/Mark Tasks Completed button""))",Chrome 89.0.4389.114,,,2021-04-13 15:46:16,2021-04-13 15:46:17,1.236s,PASSED
"verifyElementNotPresent(findTestObject(""Recruits Page/Tasks/Due task1 row""), 0)",Chrome 89.0.4389.114,,,2021-04-13 15:46:17,2021-04-13 15:46:49,31.901s,FAILED
,,,,,,,
Test Cases/Features/Link To FastScout,Chrome 89.0.4389.114,,,2021-04-13 15:46:49,2021-04-13 15:47:05,15.567s,PASSED
openBrowser(URL),Chrome 89.0.4389.114,,,2021-04-13 15:46:49,2021-04-13 15:46:51,1.915s,PASSED
"setText(findTestObject(""Login Page/Email""), email)",Chrome 89.0.4389.114,,,2021-04-13 15:46:51,2021-04-13 15:46:51,0.147s,PASSED
"setText(findTestObject(""Login Page/password""), password)",Chrome 89.0.4389.114,,,2021-04-13 15:46:51,2021-04-13 15:46:51,0.107s,PASSED
"click(findTestObject(""Login Page/Sign In""))",Chrome 89.0.4389.114,,,2021-04-13 15:46:51,2021-04-13 15:46:53,1.867s,PASSED
"waitForElementVisible(findTestObject(""Top Navigation Menu/Dashboard""), 60)",Chrome 89.0.4389.114,,,2021-04-13 15:46:53,2021-04-13 15:46:54,0.539s,PASSED
"click(findTestObject(""Top Navigation Menu/Recruits""))",Chrome 89.0.4389.114,,,2021-04-13 15:46:54,2021-04-13 15:46:54,0.117s,PASSED
"click(findTestObject(""Recruits Page/ADD RECRUIT button""))",Chrome 89.0.4389.114,,,2021-04-13 15:46:54,2021-04-13 15:46:54,0.182s,PASSED
"enhancedClick(findTestObject(""Recruits Page/Add New Recruit modal/LinkToFastScout Folder/Link To FastScout button""))",Chrome 89.0.4389.114,,,2021-04-13 15:46:54,2021-04-13 15:46:55,0.935s,PASSED
"enhancedClick(findTestObject(""Recruits Page/Add New Recruit modal/LinkToFastScout Folder/League_Division dropdown""))",Chrome 89.0.4389.114,,,2021-04-13 15:46:55,2021-04-13 15:46:55,0.107s,PASSED
"enhancedClick(findTestObject(""Recruits Page/Add New Recruit modal/LinkToFastScout Folder/D-II League""))",Chrome 89.0.4389.114,,,2021-04-13 15:46:55,2021-04-13 15:46:55,0.081s,PASSED
"enhancedClick(findTestObject(""Recruits Page/Add New Recruit modal/LinkToFastScout Folder/Team dropdown (LFS)""))",Chrome 89.0.4389.114,,,2021-04-13 15:46:55,2021-04-13 15:46:55,0.099s,PASSED
"enhancedClick(findTestObject(""Recruits Page/Add New Recruit modal/LinkToFastScout Folder/Florida Southern (LFS)""))",Chrome 89.0.4389.114,,,2021-04-13 15:46:55,2021-04-13 15:46:55,0.088s,PASSED
"enhancedClick(findTestObject(""Recruits Page/Add New Recruit modal/LinkToFastScout Folder/Player dropdown (LFS)""))",Chrome 89.0.4389.114,,,2021-04-13 15:46:55,2021-04-13 15:46:56,0.095s,PASSED
"enhancedClick(findTestObject(""Recruits Page/Add New Recruit modal/LinkToFastScout Folder/Player10 (LFS)""))",Chrome 89.0.4389.114,,,2021-04-13 15:46:56,2021-04-13 15:46:56,0.087s,PASSED
"click(findTestObject(""Recruits Page/Add New Recruit modal/SAVE button""))",Chrome 89.0.4389.114,,,2021-04-13 15:46:56,2021-04-13 15:46:56,0.165s,PASSED
"setText(findTestObject(""Recruits Page/Recruit Search Field on Recruits page""), ""Wes Bongiorni"")",Chrome 89.0.4389.114,,,2021-04-13 15:46:56,2021-04-13 15:46:56,0.221s,PASSED
delay(1),Chrome 89.0.4389.114,,,2021-04-13 15:46:56,2021-04-13 15:46:57,1.005s,PASSED
"enhancedClick(findTestObject(""Recruits Page/Archive recruit""))",Chrome 89.0.4389.114,,,2021-04-13 15:46:57,2021-04-13 15:46:57,0.082s,PASSED
delay(1),Chrome 89.0.4389.114,,,2021-04-13 15:46:57,2021-04-13 15:46:58,1.006s,PASSED
"click(findTestObject(""Recruits Page/All Recruits List selection""))",Chrome 89.0.4389.114,,,2021-04-13 15:46:58,2021-04-13 15:46:58,0.080s,PASSED
delay(1),Chrome 89.0.4389.114,,,2021-04-13 15:46:58,2021-04-13 15:46:59,1.003s,PASSED
"click(findTestObject(""Recruits Page/Archived List selection""))",Chrome 89.0.4389.114,,,2021-04-13 15:46:59,2021-04-13 15:46:59,0.112s,PASSED
delay(1),Chrome 89.0.4389.114,,,2021-04-13 15:46:59,2021-04-13 15:47:00,1.006s,PASSED
"click(findTestObject(""Recruits Page/Archived list ellipsis button""))",Chrome 89.0.4389.114,,,2021-04-13 15:47:00,2021-04-13 15:47:00,0.081s,PASSED
delay(1),Chrome 89.0.4389.114,,,2021-04-13 15:47:00,2021-04-13 15:47:01,1.005s,PASSED
"click(findTestObject(""Recruits Page/Delete1""))",Chrome 89.0.4389.114,,,2021-04-13 15:47:01,2021-04-13 15:47:01,0.099s,PASSED
delay(1),Chrome 89.0.4389.114,,,2021-04-13 15:47:01,2021-04-13 15:47:02,1.003s,PASSED
"enhancedClick(findTestObject(""Recruits Page/Delete2""))",Chrome 89.0.4389.114,,,2021-04-13 15:47:02,2021-04-13 15:47:03,0.088s,PASSED
delay(2),Chrome 89.0.4389.114,,,2021-04-13 15:47:03,2021-04-13 15:47:05,2.007s,PASSED
closeBrowser(),Chrome 89.0.4389.114,,,2021-04-13 15:47:05,2021-04-13 15:47:05,0.080s,PASSED
,,,,,,,
Test Cases/Features/Video,Chrome 89.0.4389.114,,,2021-04-13 15:47:05,2021-04-13 15:47:15,10.093s,PASSED
openBrowser(URL),Chrome 89.0.4389.114,,,2021-04-13 15:47:05,2021-04-13 15:47:07,1.721s,PASSED
"setText(findTestObject(""Login Page/Email""), email)",Chrome 89.0.4389.114,,,2021-04-13 15:47:07,2021-04-13 15:47:07,0.150s,PASSED
"setText(findTestObject(""Login Page/password""), password)",Chrome 89.0.4389.114,,,2021-04-13 15:47:07,2021-04-13 15:47:07,0.121s,PASSED
"click(findTestObject(""Login Page/Sign In""))",Chrome 89.0.4389.114,,,2021-04-13 15:47:07,2021-04-13 15:47:09,1.774s,PASSED
"waitForElementVisible(findTestObject(""Top Navigation Menu/Dashboard""), 60)",Chrome 89.0.4389.114,,,2021-04-13 15:47:09,2021-04-13 15:47:09,0.492s,PASSED
"enhancedClick(findTestObject(""Top Navigation Menu/Recruits""))",Chrome 89.0.4389.114,,,2021-04-13 15:47:09,2021-04-13 15:47:09,0.121s,PASSED
"enhancedClick(findTestObject(""Recruits Page/Recruit Row1 Name""))",Chrome 89.0.4389.114,,,2021-04-13 15:47:09,2021-04-13 15:47:10,1.158s,PASSED
"enhancedClick(findTestObject(""Recruits Page/Recruit Profile (View)/VIDEOS tab""))",Chrome 89.0.4389.114,,,2021-04-13 15:47:10,2021-04-13 15:47:10,0.115s,PASSED
"uploadFile(findTestObject(""Recruit Profile (view)/Video Upload object""), ""/Users/jefffeldman/Desktop/Vids/NBA Playoffs 2019.mp4"")",Chrome 89.0.4389.114,,,2021-04-13 15:47:10,2021-04-13 15:47:11,0.101s,PASSED
"verifyElementPresent(findTestObject(""Recruit Profile (view)/Recruit Video row1""), 0)",Chrome 89.0.4389.114,,,2021-04-13 15:47:11,2021-04-13 15:47:12,0.983s,PASSED
delay(2),Chrome 89.0.4389.114,,,2021-04-13 15:47:12,2021-04-13 15:47:14,2.007s,PASSED
"mouseOver(findTestObject(""Recruit Profile (view)/Recruit Video row1""))",Chrome 89.0.4389.114,,,2021-04-13 15:47:14,2021-04-13 15:47:14,0.171s,PASSED
"enhancedClick(findTestObject(""Recruit Profile (view)/Delete Video Row1""))",Chrome 89.0.4389.114,,,2021-04-13 15:47:14,2021-04-13 15:47:14,0.109s,PASSED
"enhancedClick(findTestObject(""Recruit Profile (view)/Confirm Delete Video""))",Chrome 89.0.4389.114,,,2021-04-13 15:47:14,2021-04-13 15:47:14,0.137s,PASSED
"verifyElementNotPresent(findTestObject(""Recruit Profile (view)/Recruit Video row1""), 0)",Chrome 89.0.4389.114,,,2021-04-13 15:47:14,2021-04-13 15:47:15,0.570s,PASSED
"enhancedClick(findTestObject(""Recruit Profile (view)/CLOSE button""))",Chrome 89.0.4389.114,,,2021-04-13 15:47:15,2021-04-13 15:47:15,0.142s,PASSED
closeBrowser(),Chrome 89.0.4389.114,,,2021-04-13 15:47:15,2021-04-13 15:47:15,0.083s,PASSED
,,,,,,,
Test Cases/Features/FastConnect,Chrome 89.0.4389.114,,,2021-04-13 15:47:15,2021-04-13 15:48:02,47.417s,FAILED
openBrowser(URL),Chrome 89.0.4389.114,,,2021-04-13 15:47:15,2021-04-13 15:47:17,1.740s,PASSED
"setText(findTestObject(""Login Page/Email""), email)",Chrome 89.0.4389.114,,,2021-04-13 15:47:17,2021-04-13 15:47:17,0.145s,PASSED
"setText(findTestObject(""Login Page/password""), password)",Chrome 89.0.4389.114,,,2021-04-13 15:47:17,2021-04-13 15:47:17,0.102s,PASSED
"click(findTestObject(""Login Page/Sign In""))",Chrome 89.0.4389.114,,,2021-04-13 15:47:17,2021-04-13 15:47:19,1.818s,PASSED
"waitForElementVisible(findTestObject(""Top Navigation Menu/Dashboard""), 60)",Chrome 89.0.4389.114,,,2021-04-13 15:47:19,2021-04-13 15:47:19,0.519s,PASSED
"enhancedClick(findTestObject(""Top Navigation Menu/Recruits""))",Chrome 89.0.4389.114,,,2021-04-13 15:47:19,2021-04-13 15:47:19,0.118s,PASSED
"enhancedClick(findTestObject(""Recruits Page/FastConnect tab""))",Chrome 89.0.4389.114,,,2021-04-13 15:47:19,2021-04-13 15:47:20,0.182s,PASSED
"enhancedClick(findTestObject(""Recruits Page/FastConnect/List dropdown""))",Chrome 89.0.4389.114,,,2021-04-13 15:47:20,2021-04-13 15:47:20,0.098s,PASSED
"enhancedClick(findTestObject(""Recruits Page/FastConnect/All Recruits list dropdown""))",Chrome 89.0.4389.114,,,2021-04-13 15:47:20,2021-04-13 15:47:20,0.177s,PASSED
delay(10),Chrome 89.0.4389.114,,,2021-04-13 15:47:20,2021-04-13 15:47:30,10.006s,PASSED
"verifyElementVisible(findTestObject(""Recruits Page/FastConnect/Fastconnect post1""), STOP_ON_FAILURE)",Chrome 89.0.4389.114,,,2021-04-13 15:47:30,2021-04-13 15:48:02,32.355s,FAILED
,,,,,,,
Test Cases/Tourney Workflow,Chrome 89.0.4389.114,,,2021-04-13 15:48:02,2021-04-13 15:48:40,37.543s,FAILED
openBrowser(URL),Chrome 89.0.4389.114,,,2021-04-13 15:48:02,2021-04-13 15:48:04,1.733s,PASSED
"setText(findTestObject(""Login Page/Email""), email)",Chrome 89.0.4389.114,,,2021-04-13 15:48:04,2021-04-13 15:48:05,0.479s,PASSED
"setText(findTestObject(""Login Page/password""), password)",Chrome 89.0.4389.114,,,2021-04-13 15:48:05,2021-04-13 15:48:05,0.100s,PASSED
"click(findTestObject(""Login Page/Sign In""))",Chrome 89.0.4389.114,,,2021-04-13 15:48:05,2021-04-13 15:48:06,1.785s,PASSED
"waitForElementVisible(findTestObject(""Top Navigation Menu/Dashboard""), 60)",Chrome 89.0.4389.114,,,2021-04-13 15:48:06,2021-04-13 15:48:07,0.507s,PASSED
"enhancedClick(findTestObject(""Top Navigation Menu/Tourneys""))",Chrome 89.0.4389.114,,,2021-04-13 15:48:07,2021-04-13 15:48:07,0.096s,PASSED
"enhancedClick(findTestObject(""Tourneys page/Tourney list dropdown""))",Chrome 89.0.4389.114,,,2021-04-13 15:48:07,2021-04-13 15:48:08,0.564s,PASSED
enhancedClick(tourneySession),Chrome 89.0.4389.114,,,2021-04-13 15:48:08,2021-04-13 15:48:08,0.098s,PASSED
"enhancedClick(findTestObject(""Tourneys page/Tourneys header""))",Chrome 89.0.4389.114,,,2021-04-13 15:48:08,2021-04-13 15:48:08,0.205s,PASSED
"enhancedClick(findTestObject(""Tourneys page/Tourney1 listed""))",Chrome 89.0.4389.114,,,2021-04-13 15:48:08,2021-04-13 15:48:08,0.108s,PASSED
"enhancedClick(findTestObject(""Tourneys page/Assign Staff button""))",Chrome 89.0.4389.114,,,2021-04-13 15:48:08,2021-04-13 15:48:40,31.721s,FAILED
,,,,,,,
Test Cases/Features/Prospects View,Chrome 89.0.4389.114,,,2021-04-13 15:48:40,2021-04-13 15:49:04,24.344s,PASSED
openBrowser(URL),Chrome 89.0.4389.114,,,2021-04-13 15:48:40,2021-04-13 15:48:42,1.779s,PASSED
"setText(findTestObject(""Login Page/Email""), email2)",Chrome 89.0.4389.114,,,2021-04-13 15:48:42,2021-04-13 15:48:42,0.588s,PASSED
"setText(findTestObject(""Login Page/password""), password)",Chrome 89.0.4389.114,,,2021-04-13 15:48:42,2021-04-13 15:48:42,0.099s,PASSED
"click(findTestObject(""Login Page/Sign In""))",Chrome 89.0.4389.114,,,2021-04-13 15:48:42,2021-04-13 15:48:44,1.863s,PASSED
"waitForElementVisible(findTestObject(""Top Navigation Menu/Dashboard""), 60)",Chrome 89.0.4389.114,,,2021-04-13 15:48:44,2021-04-13 15:48:45,0.476s,PASSED
"enhancedClick(findTestObject(""Prospects View/Add Prospect button""))",Chrome 89.0.4389.114,,,2021-04-13 15:48:45,2021-04-13 15:48:45,0.094s,PASSED
"enhancedClick(findTestObject(""Prospects View/Link Player Stats button""))",Chrome 89.0.4389.114,,,2021-04-13 15:48:45,2021-04-13 15:48:46,1.068s,PASSED
"enhancedClick(findTestObject(""Recruits Page/Add New Recruit modal/LinkToFastScout Folder/League_Division dropdown""))",Chrome 89.0.4389.114,,,2021-04-13 15:48:46,2021-04-13 15:48:46,0.123s,PASSED
"enhancedClick(findTestObject(""Recruits Page/Add New Recruit modal/LinkToFastScout Folder/D-II League""))",Chrome 89.0.4389.114,,,2021-04-13 15:48:46,2021-04-13 15:48:46,0.081s,PASSED
"enhancedClick(findTestObject(""Prospects View/Link Player Stats Team dropdown (Prospects)""))",Chrome 89.0.4389.114,,,2021-04-13 15:48:46,2021-04-13 15:48:46,0.097s,PASSED
"enhancedClick(findTestObject(""Recruits Page/Add New Recruit modal/LinkToFastScout Folder/Florida Southern (LFS)""))",Chrome 89.0.4389.114,,,2021-04-13 15:48:46,2021-04-13 15:48:46,0.086s,PASSED
"enhancedClick(findTestObject(""Prospects View/Link Player Stats Player dropdown (Prospects)""))",Chrome 89.0.4389.114,,,2021-04-13 15:48:46,2021-04-13 15:48:46,0.077s,PASSED
"enhancedClick(findTestObject(""Recruits Page/Add New Recruit modal/LinkToFastScout Folder/Player10 (LFS)""))",Chrome 89.0.4389.114,,,2021-04-13 15:48:46,2021-04-13 15:48:46,0.078s,PASSED
"click(findTestObject(""Recruits Page/Add New Recruit modal/SAVE button""))",Chrome 89.0.4389.114,,,2021-04-13 15:48:46,2021-04-13 15:48:46,0.119s,PASSED
"mouseOver(findTestObject(""Prospects View/Select Existing Prospect""))",Chrome 89.0.4389.114,,,2021-04-13 15:48:46,2021-04-13 15:48:47,0.349s,PASSED
"enhancedClick(findTestObject(""Prospects View/Select Existing Prospect""))",Chrome 89.0.4389.114,,,2021-04-13 15:48:47,2021-04-13 15:48:47,0.108s,PASSED
"enhancedClick(findTestObject(""Prospects View/FastScout Team Link (Prospect Profile)""))",Chrome 89.0.4389.114,,,2021-04-13 15:48:47,2021-04-13 15:48:47,0.090s,PASSED
switchToWindowIndex(1),Chrome 89.0.4389.114,,,2021-04-13 15:48:47,2021-04-13 15:48:47,0.240s,PASSED
delay(7),Chrome 89.0.4389.114,,,2021-04-13 15:48:47,2021-04-13 15:48:54,7.003s,PASSED
scoutURL = getUrl(),Chrome 89.0.4389.114,,,2021-04-13 15:48:54,2021-04-13 15:48:54,0.020s,PASSED
"assert scoutURL.contains(""league=NCAAB-II"")",Chrome 89.0.4389.114,,,2021-04-13 15:48:54,2021-04-13 15:48:54,0.002s,PASSED
switchToWindowIndex(0),Chrome 89.0.4389.114,,,2021-04-13 15:48:54,2021-04-13 15:48:54,0.009s,PASSED
delay(1),Chrome 89.0.4389.114,,,2021-04-13 15:48:54,2021-04-13 15:48:55,1.006s,PASSED
"enhancedClick(findTestObject(""Recruit Profile (view)/CLOSE button - Copy2""))",Chrome 89.0.4389.114,,,2021-04-13 15:48:55,2021-04-13 15:48:55,0.113s,PASSED
delay(1),Chrome 89.0.4389.114,,,2021-04-13 15:48:55,2021-04-13 15:48:56,1.004s,PASSED
"click(findTestObject(""Prospects View/Archive Prospect button""))",Chrome 89.0.4389.114,,,2021-04-13 15:48:56,2021-04-13 15:48:56,0.065s,PASSED
delay(1),Chrome 89.0.4389.114,,,2021-04-13 15:48:56,2021-04-13 15:48:57,1.004s,PASSED
"click(findTestObject(""Prospects View/All Prospects List selection""))",Chrome 89.0.4389.114,,,2021-04-13 15:48:57,2021-04-13 15:48:58,0.076s,PASSED
delay(1),Chrome 89.0.4389.114,,,2021-04-13 15:48:58,2021-04-13 15:48:59,1.004s,PASSED
"click(findTestObject(""Recruits Page/Archived List selection""))",Chrome 89.0.4389.114,,,2021-04-13 15:48:59,2021-04-13 15:48:59,0.108s,PASSED
delay(1),Chrome 89.0.4389.114,,,2021-04-13 15:48:59,2021-04-13 15:49:00,1.003s,PASSED
"enhancedClick(findTestObject(""Prospects View/Archived List ellipsis (Prospects)""))",Chrome 89.0.4389.114,,,2021-04-13 15:49:00,2021-04-13 15:49:00,0.080s,PASSED
delay(1),Chrome 89.0.4389.114,,,2021-04-13 15:49:00,2021-04-13 15:49:01,1.001s,PASSED
"enhancedClick(findTestObject(""Prospects View/Delete1 (Prospects)""))",Chrome 89.0.4389.114,,,2021-04-13 15:49:01,2021-04-13 15:49:01,0.082s,PASSED
delay(1),Chrome 89.0.4389.114,,,2021-04-13 15:49:01,2021-04-13 15:49:02,1.003s,PASSED
"enhancedClick(findTestObject(""Prospects View/Delete2 (Prospects)""))",Chrome 89.0.4389.114,,,2021-04-13 15:49:02,2021-04-13 15:49:02,0.081s,PASSED
delay(2),Chrome 89.0.4389.114,,,2021-04-13 15:49:02,2021-04-13 15:49:04,2.002s,PASSED
closeBrowser(),Chrome 89.0.4389.114,,,2021-04-13 15:49:04,2021-04-13 15:49:04,0.119s,PASSED
