Suite/Test/Step Name,Browser,Description,Tag,Start time,End time,Duration,Status
Regression Tests,Chrome 91.0.4472.101,,,2021-06-14 13:36:50,2021-06-14 13:39:28,2m - 38.374s,FAILED
,,,,,,,
Test Cases/Draft Board,Chrome 91.0.4472.101,,,2021-06-14 13:36:50,2021-06-14 13:39:10,2m - 19.711s,FAILED
openBrowser(URL),Chrome 91.0.4472.101,,,2021-06-14 13:36:51,2021-06-14 13:37:55,1m - 4.398s,PASSED
"setViewPortSize(1440, 841)",Chrome 91.0.4472.101,,,2021-06-14 13:37:55,2021-06-14 13:37:55,0.122s,PASSED
"setText(findTestObject(""Login Page/Email""), email)",Chrome 91.0.4472.101,,,2021-06-14 13:37:55,2021-06-14 13:37:56,0.603s,PASSED
"setText(findTestObject(""Login Page/password""), password)",Chrome 91.0.4472.101,,,2021-06-14 13:37:56,2021-06-14 13:37:56,0.631s,PASSED
"click(findTestObject(""Login Page/Sign In""))",Chrome 91.0.4472.101,,,2021-06-14 13:37:56,2021-06-14 13:37:59,2.828s,PASSED
"waitForElementVisible(findTestObject(""Top Navigation Menu/Dashboard""), 60)",Chrome 91.0.4472.101,,,2021-06-14 13:37:59,2021-06-14 13:38:03,3.674s,PASSED
"enhancedClick(findTestObject(""Top Navigation Menu/Dashboard""))",Chrome 91.0.4472.101,,,2021-06-14 13:38:03,2021-06-14 13:38:03,0.408s,PASSED
delay(3),Chrome 91.0.4472.101,,,2021-06-14 13:38:03,2021-06-14 13:38:06,3.015s,PASSED
"mouseOver(findTestObject(""Dashboard Page/Draft Board (Dashboard)/blank 1-PG on Draft Board (Dashboard)""))",Chrome 91.0.4472.101,,,2021-06-14 13:38:06,2021-06-14 13:38:07,0.491s,PASSED
"enhancedClick(findTestObject(""Dashboard Page/Draft Board (Dashboard)/blank 1-PG on Draft Board (Dashboard)""))",Chrome 91.0.4472.101,,,2021-06-14 13:38:07,2021-06-14 13:38:07,0.302s,PASSED
"enhancedClick(findTestObject(""Dashboard Page/Draft Board (Dashboard)/Draft Board Dropdown Player1""))",Chrome 91.0.4472.101,,,2021-06-14 13:38:07,2021-06-14 13:38:08,0.820s,PASSED
"mouseOver(findTestObject(""Dashboard Page/Draft Board (Dashboard)/1-PG on Draft Board""))",Chrome 91.0.4472.101,,,2021-06-14 13:38:08,2021-06-14 13:38:09,0.810s,PASSED
"enhancedClick(findTestObject(""Dashboard Page/Draft Board (Dashboard)/1-PG on Draft Board""))",Chrome 91.0.4472.101,,,2021-06-14 13:38:09,2021-06-14 13:38:09,0.333s,PASSED
delay(1),Chrome 91.0.4472.101,,,2021-06-14 13:38:09,2021-06-14 13:38:10,1.007s,PASSED
"enhancedClick(findTestObject(""Recruit Profile (view)/Alerts button""))",Chrome 91.0.4472.101,,,2021-06-14 13:38:10,2021-06-14 13:38:11,0.711s,PASSED
"enhancedClick(findTestObject(""Recruit Profile (view)/CLOSE button""))",Chrome 91.0.4472.101,,,2021-06-14 13:38:11,2021-06-14 13:38:11,0.420s,PASSED
"verifyElementVisible(findTestObject(""Dashboard Page/Draft Board (Dashboard)/Alerts bell indicator""))",Chrome 91.0.4472.101,,,2021-06-14 13:38:11,2021-06-14 13:38:12,0.794s,PASSED
"mouseOver(findTestObject(""Dashboard Page/Draft Board (Dashboard)/1-PG on Draft Board""))",Chrome 91.0.4472.101,,,2021-06-14 13:38:12,2021-06-14 13:38:13,0.493s,PASSED
"enhancedClick(findTestObject(""Dashboard Page/Draft Board (Dashboard)/1-PG on Draft Board""))",Chrome 91.0.4472.101,,,2021-06-14 13:38:13,2021-06-14 13:38:13,0.318s,PASSED
"enhancedClick(findTestObject(""Recruit Profile (view)/Alerts button""))",Chrome 91.0.4472.101,,,2021-06-14 13:38:13,2021-06-14 13:38:14,0.706s,PASSED
"mouseOver(findTestObject(""Dashboard Page/Draft Board (Dashboard)/1-PG on Draft Board""))",Chrome 91.0.4472.101,,,2021-06-14 13:38:14,2021-06-14 13:38:14,0.585s,PASSED
"enhancedClick(findTestObject(""Recruit Profile (view)/CLOSE button""))",Chrome 91.0.4472.101,,,2021-06-14 13:38:14,2021-06-14 13:38:15,0.419s,PASSED
delay(1),Chrome 91.0.4472.101,,,2021-06-14 13:38:15,2021-06-14 13:38:16,1.007s,PASSED
"verifyElementNotPresent(findTestObject(""Dashboard Page/Draft Board (Dashboard)/Alerts bell indicator""), 0)",Chrome 91.0.4472.101,,,2021-06-14 13:38:16,2021-06-14 13:38:16,0.430s,PASSED
"mouseOver(findTestObject(""Dashboard Page/Draft Board (Dashboard)/1-PG on Draft Board""))",Chrome 91.0.4472.101,,,2021-06-14 13:38:16,2021-06-14 13:38:16,0.400s,PASSED
"enhancedClick(findTestObject(""Dashboard Page/Draft Board (Dashboard)/Delete 1-PG on Draft Board""))",Chrome 91.0.4472.101,,,2021-06-14 13:38:16,2021-06-14 13:38:17,0.415s,PASSED
"enhancedClick(findTestObject(""Dashboard Page/Draft Board (Dashboard)/Draft Board Season Dropdown""))",Chrome 91.0.4472.101,,,2021-06-14 13:38:17,2021-06-14 13:38:18,0.710s,PASSED
"enhancedClick(findTestObject(""Dashboard Page/Draft Board (Dashboard)/Draft Board Season Dropdown - 2023""))",Chrome 91.0.4472.101,,,2021-06-14 13:38:18,2021-06-14 13:38:18,0.306s,PASSED
"mouseOver(findTestObject(""Dashboard Page/Draft Board (Dashboard)/blank 1-PG on Draft Board (Dashboard)""))",Chrome 91.0.4472.101,,,2021-06-14 13:38:18,2021-06-14 13:38:18,0.607s,PASSED
"enhancedClick(findTestObject(""Dashboard Page/Draft Board (Dashboard)/blank 1-PG on Draft Board (Dashboard)""))",Chrome 91.0.4472.101,,,2021-06-14 13:38:18,2021-06-14 13:38:19,0.279s,PASSED
"enhancedClick(findTestObject(""Dashboard Page/Draft Board (Dashboard)/Draft Board Dropdown Player1""))",Chrome 91.0.4472.101,,,2021-06-14 13:38:19,2021-06-14 13:38:19,0.709s,PASSED
delay(1),Chrome 91.0.4472.101,,,2021-06-14 13:38:19,2021-06-14 13:38:20,1.008s,PASSED
"mouseOver(findTestObject(""Dashboard Page/Draft Board (Dashboard)/blank 2-PG on Draft Board (Dashboard)""))",Chrome 91.0.4472.101,,,2021-06-14 13:38:20,2021-06-14 13:38:21,0.491s,PASSED
"enhancedClick(findTestObject(""Dashboard Page/Draft Board (Dashboard)/blank 2-PG on Draft Board (Dashboard)""))",Chrome 91.0.4472.101,,,2021-06-14 13:38:21,2021-06-14 13:38:21,0.392s,PASSED
"enhancedClick(findTestObject(""Dashboard Page/Draft Board (Dashboard)/Recruit Search field""))",Chrome 91.0.4472.101,,,2021-06-14 13:38:21,2021-06-14 13:38:22,0.706s,PASSED
"sendKeys(findTestObject(""Dashboard Page/Draft Board (Dashboard)/Recruit Search field""), ""Mikey Williams"")",Chrome 91.0.4472.101,,,2021-06-14 13:38:22,2021-06-14 13:38:22,0.289s,PASSED
delay(2),Chrome 91.0.4472.101,,,2021-06-14 13:38:22,2021-06-14 13:38:24,2.003s,PASSED
"enhancedClick(findTestObject(""Dashboard Page/Draft Board (Dashboard)/Draft Board Dropdown Player2""))",Chrome 91.0.4472.101,,,2021-06-14 13:38:24,2021-06-14 13:38:25,0.402s,PASSED
"mouseOver(findTestObject(""Dashboard Page/Draft Board (Dashboard)/2-PG on Draft Board""))",Chrome 91.0.4472.101,,,2021-06-14 13:38:25,2021-06-14 13:38:26,1.032s,PASSED
"enhancedClick(findTestObject(""Dashboard Page/Draft Board (Dashboard)/Delete 2-PG on Draft Board""))",Chrome 91.0.4472.101,,,2021-06-14 13:38:26,2021-06-14 13:38:26,0.507s,PASSED
"mouseOver(findTestObject(""Dashboard Page/Draft Board (Dashboard)/1-PG on Draft Board""))",Chrome 91.0.4472.101,,,2021-06-14 13:38:26,2021-06-14 13:38:27,0.694s,PASSED
"enhancedClick(findTestObject(""Dashboard Page/Draft Board (Dashboard)/Delete 1-PG on Draft Board""))",Chrome 91.0.4472.101,,,2021-06-14 13:38:27,2021-06-14 13:38:27,0.405s,PASSED
"enhancedClick(findTestObject(""Dashboard Page/Draft Board (Dashboard)/Draft Board Link""))",Chrome 91.0.4472.101,,,2021-06-14 13:38:27,2021-06-14 13:38:28,0.644s,PASSED
"mouseOver(findTestObject(""Recruits Page/Draft Board (Recruits)/blank PG1 Draft Board-Recruits""))",Chrome 91.0.4472.101,,,2021-06-14 13:38:28,2021-06-14 13:38:29,0.599s,PASSED
"enhancedClick(findTestObject(""Recruits Page/Draft Board (Recruits)/blank PG1 Draft Board-Recruits""))",Chrome 91.0.4472.101,,,2021-06-14 13:38:29,2021-06-14 13:38:29,0.290s,PASSED
"enhancedClick(findTestObject(""Recruits Page/Draft Board (Recruits)/Draft Board dropdown P1 (Recruits)""))",Chrome 91.0.4472.101,,,2021-06-14 13:38:29,2021-06-14 13:38:30,0.630s,PASSED
"mouseOver(findTestObject(""Dashboard Page/Draft Board (Dashboard)/1-PG on Draft Board""))",Chrome 91.0.4472.101,,,2021-06-14 13:38:30,2021-06-14 13:38:30,0.698s,PASSED
"enhancedClick(findTestObject(""Recruits Page/Draft Board (Recruits)/Draft Board Color Dropper icon""))",Chrome 91.0.4472.101,,,2021-06-14 13:38:30,2021-06-14 13:38:31,0.291s,PASSED
"enhancedClick(findTestObject(""Recruits Page/Draft Board (Recruits)/Yellow Color Draft Board""))",Chrome 91.0.4472.101,,,2021-06-14 13:38:31,2021-06-14 13:38:31,0.293s,PASSED
delay(1),Chrome 91.0.4472.101,,,2021-06-14 13:38:31,2021-06-14 13:38:32,1.006s,PASSED
"verifyElementAttributeValue(findTestObject(""Dashboard Page/Draft Board (Dashboard)/1-PG on Draft Board""), ""class"", ""draft-board-player dashboard-player css-1n2x8eh-DraftBoard"", 0)",Chrome 91.0.4472.101,,,2021-06-14 13:38:32,2021-06-14 13:38:32,0.381s,PASSED
"mouseOver(findTestObject(""Dashboard Page/Draft Board (Dashboard)/1-PG on Draft Board""))",Chrome 91.0.4472.101,,,2021-06-14 13:38:32,2021-06-14 13:38:33,0.388s,PASSED
"enhancedClick(findTestObject(""Recruits Page/Draft Board (Recruits)/Draft Board Color Dropper icon""))",Chrome 91.0.4472.101,,,2021-06-14 13:38:33,2021-06-14 13:38:33,0.274s,PASSED
"enhancedClick(findTestObject(""Recruits Page/Draft Board (Recruits)/Green Color Draft Board""))",Chrome 91.0.4472.101,,,2021-06-14 13:38:33,2021-06-14 13:38:33,0.295s,PASSED
delay(1),Chrome 91.0.4472.101,,,2021-06-14 13:38:33,2021-06-14 13:38:34,1.003s,PASSED
"verifyElementAttributeValue(findTestObject(""Dashboard Page/Draft Board (Dashboard)/1-PG on Draft Board""), ""class"", ""draft-board-player dashboard-player css-15mrb88-DraftBoard"", 0)",Chrome 91.0.4472.101,,,2021-06-14 13:38:34,2021-06-14 13:38:34,0.273s,PASSED
"mouseOver(findTestObject(""Dashboard Page/Draft Board (Dashboard)/1-PG on Draft Board""))",Chrome 91.0.4472.101,,,2021-06-14 13:38:34,2021-06-14 13:38:35,0.484s,PASSED
"enhancedClick(findTestObject(""Recruits Page/Draft Board (Recruits)/Draft Board Color Dropper icon""))",Chrome 91.0.4472.101,,,2021-06-14 13:38:35,2021-06-14 13:38:35,0.381s,PASSED
"enhancedClick(findTestObject(""Recruits Page/Draft Board (Recruits)/Draft Board Color pencil icon""))",Chrome 91.0.4472.101,,,2021-06-14 13:38:35,2021-06-14 13:38:36,0.342s,PASSED
"enhancedClick(findTestObject(""Recruits Page/Draft Board (Recruits)/Add Draft Board Color plus button""))",Chrome 91.0.4472.101,,,2021-06-14 13:38:36,2021-06-14 13:38:36,0.506s,PASSED
"doubleClick(findTestObject(""Recruits Page/Draft Board (Recruits)/Draft Board Color Hex field""))",Chrome 91.0.4472.101,,,2021-06-14 13:38:36,2021-06-14 13:38:37,0.601s,PASSED
"sendKeys(findTestObject(""Recruits Page/Draft Board (Recruits)/Draft Board Color Hex field""), ""4832a8"")",Chrome 91.0.4472.101,,,2021-06-14 13:38:37,2021-06-14 13:38:37,0.391s,PASSED
"enhancedClick(findTestObject(""Recruits Page/Draft Board (Recruits)/Manage Colors Close button""))",Chrome 91.0.4472.101,,,2021-06-14 13:38:37,2021-06-14 13:38:37,0.282s,PASSED
"mouseOver(findTestObject(""Dashboard Page/Draft Board (Dashboard)/1-PG on Draft Board""))",Chrome 91.0.4472.101,,,2021-06-14 13:38:37,2021-06-14 13:38:38,0.381s,PASSED
"enhancedClick(findTestObject(""Recruits Page/Draft Board (Recruits)/Draft Board Color Dropper icon""))",Chrome 91.0.4472.101,,,2021-06-14 13:38:38,2021-06-14 13:38:38,0.379s,PASSED
"enhancedClick(findTestObject(""Recruits Page/Draft Board (Recruits)/My Custom Color Draft Board""))",Chrome 91.0.4472.101,,,2021-06-14 13:38:38,2021-06-14 13:38:39,0.298s,PASSED
delay(1),Chrome 91.0.4472.101,,,2021-06-14 13:38:39,2021-06-14 13:38:40,1.006s,PASSED
"verifyElementAttributeValue(findTestObject(""Dashboard Page/Draft Board (Dashboard)/1-PG on Draft Board""), ""class"", ""draft-board-player dashboard-player css-ms4n7m-DraftBoard"", 0)",Chrome 91.0.4472.101,,,2021-06-14 13:38:40,2021-06-14 13:39:10,30.625s,FAILED
,,,,,,,
Test Cases/Depth Chart,Chrome 91.0.4472.101,,,2021-06-14 13:39:10,2021-06-14 13:39:12,2.021s,FAILED
openBrowser(URL),Chrome 91.0.4472.101,,,2021-06-14 13:39:10,2021-06-14 13:39:12,1.858s,FAILED
,,,,,,,
Test Cases/Dashboard Calendar,Chrome 91.0.4472.101,,,2021-06-14 13:39:12,2021-06-14 13:39:14,1.990s,FAILED
openBrowser(URL),Chrome 91.0.4472.101,,,2021-06-14 13:39:12,2021-06-14 13:39:14,1.780s,FAILED
,,,,,,,
Test Cases/Add_Archive_Delete New Recruit,Chrome 91.0.4472.101,,,2021-06-14 13:39:14,2021-06-14 13:39:16,1.986s,FAILED
openBrowser(URL),Chrome 91.0.4472.101,,,2021-06-14 13:39:14,2021-06-14 13:39:16,1.830s,FAILED
,,,,,,,
Test Cases/Tasks,Chrome 91.0.4472.101,,,2021-06-14 13:39:16,2021-06-14 13:39:18,1.990s,FAILED
openBrowser(URL),Chrome 91.0.4472.101,,,2021-06-14 13:39:16,2021-06-14 13:39:18,1.823s,FAILED
,,,,,,,
Test Cases/Features/Link To FastScout,Chrome 91.0.4472.101,,,2021-06-14 13:39:18,2021-06-14 13:39:20,1.958s,FAILED
openBrowser(URL),Chrome 91.0.4472.101,,,2021-06-14 13:39:18,2021-06-14 13:39:20,1.775s,FAILED
,,,,,,,
Test Cases/Features/Video,Chrome 91.0.4472.101,,,2021-06-14 13:39:20,2021-06-14 13:39:22,1.984s,FAILED
openBrowser(URL),Chrome 91.0.4472.101,,,2021-06-14 13:39:20,2021-06-14 13:39:22,1.843s,FAILED
,,,,,,,
Test Cases/Features/FastConnect,Chrome 91.0.4472.101,,,2021-06-14 13:39:22,2021-06-14 13:39:24,2.140s,FAILED
openBrowser(URL),Chrome 91.0.4472.101,,,2021-06-14 13:39:22,2021-06-14 13:39:24,1.979s,FAILED
,,,,,,,
Test Cases/Tourney Workflow,Chrome 91.0.4472.101,,,2021-06-14 13:39:24,2021-06-14 13:39:26,1.946s,FAILED
openBrowser(URL),Chrome 91.0.4472.101,,,2021-06-14 13:39:25,2021-06-14 13:39:26,1.767s,FAILED
,,,,,,,
Test Cases/Features/Prospects View,Chrome 91.0.4472.101,,,2021-06-14 13:39:26,2021-06-14 13:39:28,2.060s,FAILED
openBrowser(URL),Chrome 91.0.4472.101,,,2021-06-14 13:39:26,2021-06-14 13:39:28,1.911s,FAILED
